<?xml version="1.0" encoding="utf-8"?>
<!-- Generator: Adobe Illustrator 23.0.1, SVG Export Plug-In . SVG Version: 6.00 Build 0)  -->
<svg version="1.1" id="Layer_1" xmlns="http://www.w3.org/2000/svg" xmlns:xlink="http://www.w3.org/1999/xlink" x="0px" y="0px"
	 viewBox="0 0 8192 1407.9" style="enable-background:new 0 0 8192 1407.9;" xml:space="preserve">
<g>
	<path d="M1330,500.3c-30.4-111.8-92.6-212.2-179.2-289l-2.8,2.8l0.4-3.3C902.7-6.1,527.8,17.3,310.9,263
		C250.7,331.2,207,412.4,183.1,500.3c3-1.2,6.1-2.2,9.1-3C75.7,574.5-0.9,707.2,0,857.6c0.8,132.3,62.5,256.8,167.4,337.4l0.5-0.5
		l-0.5,1.8c74.5,56.3,165.4,86.6,258.9,86.1h328.2l2.1,2.1h329.8c236.8,1.8,430.3-188.7,432.2-425.5
		C1519.7,715.2,1448.8,580.7,1330,500.3 M1086.4,1020.5l-660.1-2c-23.4,0-46.4-5-67.7-14.7l0.1-0.1c-83-37.5-119.9-135.2-82.4-218.1
		s135.2-119.9,218.1-82.4c36.6,16.5,65.8,45.9,82.4,82.4l191.2-191.2C704,510.4,611.8,453.9,510,434.1c1.4-0.8,2.7-1.2,3.8-1
		c117.4-129,315-144,450.7-34.3h3.8c76.5,63.9,120,159.2,118.1,259v32.9c91.1,0,164.9,73.8,164.9,164.9S1177.4,1020.5,1086.4,1020.5
		"/>
	<path d="M3913.9,625.8c-109.7-105.1-282.7-105.1-392.3,0c-53.1,51.5-82.1,122.9-80.1,196.8c-2,73.9,27,145.3,80.1,196.8
		c109.7,105.1,282.7,105.1,392.3,0c53.1-51.5,82.2-122.9,80.1-196.8C3996,748.7,3966.9,677.3,3913.9,625.8 M3827.3,942.1
		c-2.2,2.4-4.6,4.6-6.9,6.9c-60.5,56.7-155.5,53.6-212.1-6.9h-0.5c-31.1-31.9-47.9-75-46.8-119.5c-1.4-44.6,15.3-87.9,46.3-120
		c1.5-1.5,3-3.1,4.6-4.6c60.7-58.2,157.1-56.2,215.4,4.6c31,32.1,47.7,75.4,46.3,120C3874.9,867.1,3858.2,910.1,3827.3,942.1"/>
	<path d="M3310.9,625.8c-109.8-104.8-282.6-104.8-392.3,0c-53.1,51.5-82.1,122.9-80.1,196.8c-2,73.9,27,145.3,80.1,196.8
		c109.7,105.1,282.7,105.1,392.3,0h-0.5c53.2-51.4,82.5-122.8,80.6-196.8C3393,748.7,3363.9,677.3,3310.9,625.8 M3224.2,942.1
		c-2.2,2.4-4.6,4.6-6.9,6.9c-60.5,56.7-155.5,53.6-212.1-6.9h-0.5c-31.1-31.9-47.9-75-46.8-119.5c-1.4-44.6,15.3-87.9,46.3-120
		c1.5-1.5,3-3.1,4.6-4.6c60.8-58.2,157.2-56.2,215.5,4.6c31,32.1,47.7,75.4,46.3,120C3271.8,867.1,3255.1,910.1,3224.2,942.1"/>
	<path d="M2791.2,631.8h-393.2v118.5h277.9c-4.8,53.6-27.1,104.3-63.4,144c-122.1,116-314.3,113.8-433.5-5.1
		c-57.9-57.4-90.1-135.7-89.4-217.2c-1.4-82.4,30.9-161.9,89.4-220c56.3-60,135.4-93.6,217.7-92.6c78.5-1.1,154.3,28.8,210.8,83.4
		l82.4-83.9c-77.9-77-183.6-119.6-293.2-118.1c-115-0.9-225.4,45.3-305.6,127.8c-83.1,78.3-129.6,187.8-128.3,302
		c-1.5,114.2,45,223.8,128.3,302c80.6,81.7,190.9,127,305.6,125.5c111.9,3.8,220.2-40.1,297.8-120.8
		c69.7-73.5,106.4-172.2,101.5-273.3C2796.6,679.8,2795,655.7,2791.2,631.8"/>
	<path d="M5332.9,721.5c-7.5-18.8-16.6-36.9-27.3-54.2c-13.3-20.4-28.8-39.2-46.3-56.1c-20.3-19.9-44.4-35.6-70.8-46.3
		c-29.4-12.2-60.8-18.4-92.6-18c-69.8-1.4-137.1,26.7-185.2,77.4c-51,53.1-78.2,124.7-75.5,198.3c-1.9,73.4,26.4,144.4,78.3,196.4
		c51.1,52.4,121.8,81.1,195,79.2c49.2,0.9,97.7-12.6,139.3-38.8c35.1-21.8,65.4-50.5,89-84.3l-92.6-62.5
		c-28.7,47.5-80.2,76.6-135.7,76.4c-57.4,2.5-110.4-30.7-133.4-83.4L5345.4,753L5332.9,721.5 M4953.7,814.2
		c-3.2-43.7,13.3-86.4,44.9-116.7c26.1-27.3,61.9-43,99.5-44c22.2-0.3,44.1,5.3,63.4,16.2c17.3,9.2,30.9,24.1,38.5,42.1
		L4953.7,814.2"/>
	<path d="M4572.5,565h-114.9v44h-4.2c-16.7-19-37.2-34-60.2-44c-26.6-12.5-55.8-19-85.2-19c-70.4-0.2-137.5,29.3-185.2,81
		c-51.9,51.7-80.5,122.2-79.2,195.4c-1.2,72.8,27.4,142.9,79.2,194.1c47.8,51.6,115,80.8,185.2,80.6c55.4,3.1,109.1-20.1,144.9-62.5
		h4.2v39.8c3.2,43.6-10.6,86.8-38.5,120.4c-28.3,28.9-67.6,44.1-107.9,41.7c-31.4,0.9-62.2-9.5-86.6-29.2
		c-22.9-18.3-40.8-42-52.3-69l-105.6,44c19.6,45.1,50.6,84.4,89.9,113.9c44.3,33.5,98.7,50.9,154.2,49.1
		c70,2.5,137.9-23.4,188.5-71.8c53.1-58.6,79.8-136.6,73.6-215.4L4572.5,565 M4423.3,943.5c-26.2,30.2-64.6,47.2-104.6,46.3
		c-41.3,0.5-80.8-16.7-108.4-47.2c-30.6-31.8-47.2-74.5-46.3-118.6c-1-44.5,15.7-87.6,46.3-120c27.8-30.3,67.3-47.1,108.4-46.3
		c40-0.9,78.4,16,104.6,46.3c28.8,33.5,43.8,76.7,42.1,120.9C4467,868.4,4451.9,910.7,4423.3,943.5"/>
	<path d="M4655.9,271.9h120.9v809.5h-120.9V271.9z"/>
	<path d="M5979.1,1005.8c-77,1.7-151.5-28-206.1-82.4c-56.8-57.2-87.2-135.4-83.9-215.9c-3.3-80.5,27.1-158.7,83.9-215.9
		c54.6-54.3,129.1-84.1,206.1-82.4c80.3-3.3,157.4,32,207.5,95l66.7-64.8c-68.1-80.5-169.3-125.5-274.6-122.2
		c-5.1,0-10.3,0-15.4,0.1c-210.7,4.9-377.6,179.7-372.6,390.4c-0.2,5.1-0.2,10.3-0.1,15.4c3.6,210.8,177.4,378.7,388.1,375
		c58.8,0.9,117-11.5,170.5-36.3c49.5-22.6,93.3-56,128.3-97.7l-66.7-66.7C6154,966.9,6068.8,1006.8,5979.1,1005.8"/>
	<path d="M6360.7,333.5h95.9v748h-95.9V333.5z"/>
	<path d="M6991.1,631.2c-104.6-103.8-273.4-103.8-377.9,0c-49.7,52.4-76.3,122.4-74.1,194.5c-2.2,72.1,24.5,142.1,74.1,194.5
		c104.6,103.8,273.4,103.8,377.9,0c49.6-52.4,76.3-122.4,74.1-194.5C7067.4,753.7,7040.7,683.7,6991.1,631.2 M6919.3,960.1
		c-2,2.1-4.1,4.3-6.3,6.3c-64.9,61.4-167.2,58.5-228.5-6.3l0.5-0.5c-33.9-36.1-52-84.3-50-133.8c-2.1-49.6,15.8-98,49.6-134.3
		c2-2.1,4.1-4.3,6.3-6.3c64.9-61.3,167.2-58.5,228.5,6.3c33.9,36.3,51.8,84.7,49.6,134.3C6971,875.5,6953.1,923.9,6919.3,960.1"/>
	<path d="M7500.6,853.7c0.5,40.1-12.7,79.2-37.6,110.7c-23.1,30.3-59.2,47.5-97.3,46.3c-84.3,0-126.4-47.7-126.4-143.1V570.2h-95.9
		v314.9c-3.1,56.4,14.5,112.1,49.6,156.5c37,40.6,90.5,62.1,145.4,58.3c33.4,0.1,66.2-8.8,95-25.4c27.8-14.9,51.1-37,67.6-63.9h2.7
		v70.8h92.6h0.1V570.2h-95.9L7500.6,853.7"/>
	<path d="M8096.1,333.5v236.6l4.2,70.8h-4.2c-17.1-26.7-41.1-48.3-69.5-62.5c-32.2-17-68.2-25.5-104.6-25
		c-65.8-0.2-128.4,28.4-171.4,78.3c-48,53-73.7,122.5-71.8,194.1c-1.9,71.6,23.8,141,71.8,194.1c42.9,50,105.6,78.5,171.4,78.3
		c36.2,0.5,71.8-8.2,103.7-25c28.4-14.2,52.3-35.8,69.5-62.5h4.2v70.8h92.6v-748L8096.1,333.5 M8053.1,960.6
		c-29.4,32.5-71.5,50.7-115.3,50c-44.3,0.6-86.7-18-116.2-51.1c-32.6-36.8-49.3-85.1-46.3-134.3c-3-49.1,13.7-97.5,46.3-134.3
		c3.3-3.6,6.7-7.1,10.4-10.4c64-58.2,163-53.6,221.1,10.4c32.5,37.1,49.2,85.6,46.3,134.8C8102.3,875.1,8085.6,923.5,8053.1,960.6"
		/>
</g>
</svg>
