<?xml version="1.0" encoding="utf-8"?>
<!-- Generator: Adobe Illustrator 22.0.1, SVG Export Plug-In . SVG Version: 6.00 Build 0)  -->
<svg version="1.1" xmlns="http://www.w3.org/2000/svg" xmlns:xlink="http://www.w3.org/1999/xlink" x="0px" y="0px"
	 viewBox="0 0 368 235" style="enable-background:new 0 0 368 235;" xml:space="preserve">
<style type="text/css">
	.st0{fill:#ECE8F6;}
	.st1{fill:#333333;stroke:#4D4D4D;stroke-width:4;stroke-linecap:round;stroke-linejoin:round;stroke-miterlimit:10;}
	.st2{fill:#C9916B;stroke:#4D4D4D;stroke-width:4;stroke-linecap:round;stroke-linejoin:round;stroke-miterlimit:10;}
	.st3{fill:#9F94C4;stroke:#4D4D4D;stroke-width:4.0073;stroke-linecap:round;stroke-linejoin:round;stroke-miterlimit:10;}
	.st4{fill:none;stroke:#4D4D4D;stroke-width:4.0073;stroke-linecap:round;stroke-linejoin:round;stroke-miterlimit:10;}
	.st5{fill:#635793;stroke:#4D4D4D;stroke-width:4;stroke-linecap:round;stroke-linejoin:round;stroke-miterlimit:10;}
	.st6{fill:#B3B3B3;}
	.st7{fill:#4D4D4D;}
	.st8{fill:#CF251A;}
	.st9{fill:#F7561E;}
	.st10{fill:#5A2FBE;}
	.st11{fill:#2A0062;}
	.st12{fill:#F88F1B;}
	.st13{fill:url(#SVGID_1_);}
	.st14{fill:url(#SVGID_2_);}
	.st15{fill:none;stroke:#4D4D4D;stroke-width:8;stroke-linecap:round;stroke-linejoin:round;stroke-miterlimit:10;}
	.st16{fill:#E6E6E6;}
	.st17{fill:#D72D20;stroke:#000000;stroke-width:4;stroke-linecap:round;stroke-linejoin:round;stroke-miterlimit:10;}
	.st18{fill:#F7561E;stroke:#000000;stroke-width:4;stroke-linecap:round;stroke-linejoin:round;stroke-miterlimit:10;}
	.st19{fill:#F8911E;stroke:#000000;stroke-width:4;stroke-linecap:round;stroke-linejoin:round;stroke-miterlimit:10;}
	.st20{fill:#FFFFFF;stroke:#000000;stroke-width:4;stroke-linecap:round;stroke-linejoin:round;stroke-miterlimit:10;}
	.st21{fill:none;stroke:#000000;stroke-width:4;stroke-linecap:round;stroke-linejoin:round;stroke-miterlimit:10;}
	.st22{stroke:#000000;stroke-linecap:round;stroke-linejoin:round;stroke-miterlimit:10;}
	.st23{opacity:0.15;}
	.st24{fill:none;stroke:#000000;stroke-width:2;stroke-linecap:round;stroke-linejoin:round;stroke-miterlimit:10;}
	.st25{fill:none;stroke:#E6E6E6;stroke-width:4;stroke-linecap:round;stroke-linejoin:round;stroke-miterlimit:10;}
	
		.st26{fill-rule:evenodd;clip-rule:evenodd;fill:none;stroke:#000000;stroke-width:2;stroke-linecap:round;stroke-linejoin:round;stroke-miterlimit:10;}
	.st27{opacity:0.15;fill:none;stroke:#000000;stroke-width:2;stroke-linecap:round;stroke-linejoin:round;stroke-miterlimit:10;}
	.st28{opacity:0.1;}
	.st29{fill:none;stroke:#4D4D4D;stroke-width:4;stroke-linecap:round;stroke-linejoin:round;stroke-miterlimit:10;}
	.st30{fill:#FBD2AA;stroke:#4D4D4D;stroke-width:4;stroke-linecap:round;stroke-linejoin:round;stroke-miterlimit:10;}
	.st31{fill:#ED6265;stroke:#4D4D4D;stroke-width:4.0073;stroke-linecap:round;stroke-linejoin:round;stroke-miterlimit:10;}
	.st32{fill:#AA3541;stroke:#4D4D4D;stroke-width:4;stroke-linecap:round;stroke-linejoin:round;stroke-miterlimit:10;}
	.st33{fill:#91D6E0;stroke:#4D4D4D;stroke-width:4;stroke-linecap:round;stroke-linejoin:round;stroke-miterlimit:10;}
	.st34{fill:#FFFFFF;stroke:#4D4D4D;stroke-width:4;stroke-linecap:round;stroke-linejoin:round;stroke-miterlimit:10;}
	.st35{fill:#B6A7DC;}
	.st36{fill:#FFFFFF;}
	.st37{fill:none;stroke:#4D4D4D;stroke-width:3.8644;stroke-linecap:round;stroke-linejoin:round;stroke-miterlimit:10;}
	.st38{fill:#9E6D4C;}
	.st39{fill:#9E6D4C;stroke:#4D4D4D;stroke-width:4.0073;stroke-linecap:round;stroke-linejoin:round;stroke-miterlimit:10;}
	.st40{fill:#F8911E;}
	.st41{fill:#2A2E37;}
	.st42{fill:#2A373E;}
	.st43{fill:#5737AC;}
	.st44{fill:#E9E9E9;}
	.st45{fill:url(#SVGID_3_);}
	.st46{fill:#433175;}
	.st47{fill:#D72D20;}
	.st48{fill:url(#SVGID_4_);}
	.st49{fill:url(#SVGID_5_);}
	.st50{fill:#FBB03B;stroke:#4D4D4D;stroke-width:4;stroke-linecap:round;stroke-linejoin:round;stroke-miterlimit:10;}
	.st51{fill:#AA866B;stroke:#4D4D4D;stroke-width:4;stroke-linecap:round;stroke-linejoin:round;stroke-miterlimit:10;}
	.st52{fill:#333333;}
	.st53{fill:#A3CC6C;stroke:#4D4D4D;stroke-width:4;stroke-linecap:round;stroke-linejoin:round;stroke-miterlimit:10;}
	.st54{fill-rule:evenodd;clip-rule:evenodd;fill:#FFFFFF;}
	.st55{fill-rule:evenodd;clip-rule:evenodd;fill:#131212;}
	.st56{fill:#1F6BFF;}
	.st57{fill:url(#SVGID_6_);}
	.st58{fill:url(#SVGID_7_);}
	.st59{fill:#C52327;}
	.st60{fill:#E7252D;}
	.st61{fill:#1A1718;}
	.st62{fill:#EBCCA8;}
	.st63{fill:#273F4E;}
	.st64{fill:#5A585A;}
	.st65{fill:#D3CFCE;}
	.st66{fill:#F3DDC1;}
	.st67{fill:#3A5E78;}
	.st68{fill:none;stroke:#C52327;stroke-width:0.1758;}
	.st69{fill:#6F9FB6;}
	.st70{fill:#161313;}
	.st71{fill:#344150;}
	.st72{fill:#ED7708;}
	.st73{fill:#FBB03B;}
	.st74{fill:none;stroke:#FBB03B;stroke-width:4;stroke-linecap:round;stroke-linejoin:round;stroke-miterlimit:10;}
	.st75{fill:none;stroke:#FFFFFF;stroke-width:4;stroke-linecap:round;stroke-linejoin:round;stroke-miterlimit:10;}
	.st76{fill:#FFFFFF;stroke:#CCCCCC;stroke-width:2;stroke-miterlimit:10;}
	.st77{fill:#030303;}
	.st78{fill:none;stroke:#23A960;stroke-width:8;stroke-linecap:round;stroke-linejoin:round;stroke-miterlimit:10;}
	.st79{fill:none;stroke:#F8911E;stroke-width:8;stroke-linecap:round;stroke-miterlimit:10;}
	.st80{fill:none;stroke:#D72D20;stroke-width:8;stroke-linecap:round;stroke-linejoin:round;stroke-miterlimit:10;}
	.st81{fill:none;stroke:#5737AC;stroke-width:8;stroke-linecap:round;stroke-miterlimit:10;}
	.st82{fill:none;stroke:#4D4D4D;stroke-width:3.266;stroke-linecap:round;stroke-linejoin:round;stroke-miterlimit:10;}
	.st83{fill:none;stroke:#4D4D4D;stroke-width:3.0148;stroke-linecap:round;stroke-linejoin:round;stroke-miterlimit:10;}
	.st84{fill:#3772A9;}
	.st85{fill:#4C4C4C;}
	.st86{fill:#7C7C7C;}
	.st87{clip-path:url(#SVGID_9_);}
	.st88{fill:#FBD2AA;stroke:#4D4D4D;stroke-width:0.6087;stroke-linecap:round;stroke-linejoin:round;stroke-miterlimit:10;}
	.st89{fill:#9F94C4;stroke:#4D4D4D;stroke-width:0.6098;stroke-linecap:round;stroke-linejoin:round;stroke-miterlimit:10;}
	.st90{fill:#635793;stroke:#4D4D4D;stroke-width:0.6087;stroke-linecap:round;stroke-linejoin:round;stroke-miterlimit:10;}
	.st91{fill:none;stroke:#4D4D4D;stroke-width:0.6087;stroke-linecap:round;stroke-linejoin:round;stroke-miterlimit:10;}
	.st92{fill:none;stroke:#4D4D4D;stroke-width:0.6098;stroke-linecap:round;stroke-linejoin:round;stroke-miterlimit:10;}
	.st93{fill:#9E6D4C;stroke:#4D4D4D;stroke-width:0.6098;stroke-linecap:round;stroke-linejoin:round;stroke-miterlimit:10;}
	.st94{fill:none;stroke:#2BA251;stroke-width:4;stroke-linecap:round;stroke-linejoin:round;stroke-miterlimit:10;}
	.st95{clip-path:url(#SVGID_11_);}
	.st96{fill:#FBD2AA;stroke:#4D4D4D;stroke-linecap:round;stroke-linejoin:round;stroke-miterlimit:10;}
	.st97{fill:#9F94C4;stroke:#4D4D4D;stroke-linecap:round;stroke-linejoin:round;stroke-miterlimit:10;}
	.st98{fill:#635793;stroke:#4D4D4D;stroke-linecap:round;stroke-linejoin:round;stroke-miterlimit:10;}
	.st99{fill:none;stroke:#4D4D4D;stroke-linecap:round;stroke-linejoin:round;stroke-miterlimit:10;}
	.st100{fill:#9E6D4C;stroke:#4D4D4D;stroke-linecap:round;stroke-linejoin:round;stroke-miterlimit:10;}
	.st101{fill:#CCCCCC;}
	.st102{fill:none;stroke:#2BA251;stroke-width:2;stroke-linecap:round;stroke-linejoin:round;stroke-miterlimit:10;}
	.st103{fill:none;stroke:#9F94C4;stroke-width:24;stroke-linecap:round;stroke-linejoin:round;stroke-miterlimit:10;}
	.st104{fill:none;stroke:#FBD2AA;stroke-width:22;stroke-linecap:round;stroke-linejoin:round;stroke-miterlimit:10;}
	.st105{fill:none;stroke:#635793;stroke-width:4;stroke-linecap:round;stroke-linejoin:round;stroke-miterlimit:10;}
	.st106{fill:#333333;stroke:#4D4D4D;stroke-width:4.359;stroke-linecap:round;stroke-linejoin:round;stroke-miterlimit:10;}
</style>
<g id="Layer_2">
</g>
<g id="Layer_1">
	<path class="st1" d="M217,52c1.4,15.6,5.4,34.7,11.6,50c0,0-18.8,3.6-42.2,3.9h-4.8c-23.4-0.3-42.2-3.9-42.2-3.9
		c6.3-15.5,10.2-35.2,11.6-51L217,52z"/>
	<circle class="st2" cx="217" cy="65" r="10"/>
	<circle class="st2" cx="151" cy="65" r="10"/>
	<path class="st3" d="M253,141c0,0-4-22-18.1-24l-50.9-6l-50.9,6c-14.6,2-18.1,24-18.1,24H253z"/>
	<path class="st5" d="M161,114.5c0-4.1,10.3-4.5,23-4.5s23,0.4,23,4.5s-10.3,7.5-23,7.5S161,118.6,161,114.5"/>
	<polyline class="st2" points="171,120 171,89 197,89 197,120 	"/>
	<g>
		<path class="st6" d="M94,225.5c-1.1,0-2-0.9-2-2v-3.8c0-3.4,2.8-6.2,6.2-6.2h171.5c3.4,0,6.2,2.8,6.2,6.2v3.8c0,1.1-0.9,2-2,2H94z
			"/>
		<g>
			<path class="st7" d="M269.8,215.5c2.3,0,4.2,1.9,4.2,4.2v3.8H94v-3.8c0-2.3,1.9-4.2,4.2-4.2H269.8 M269.8,211.5H98.2
				c-4.5,0-8.2,3.7-8.2,8.2v3.8c0,2.2,1.8,4,4,4h180c2.2,0,4-1.8,4-4v-3.8C278,215.2,274.3,211.5,269.8,211.5L269.8,211.5z"/>
		</g>
	</g>
	<line class="st15" x1="4" y1="231" x2="364" y2="231"/>
	<g>
		<path class="st16" d="M107.1,225c-2.3,0-4.1-1.9-4.1-4.1v-83.6c0-3.4,2.8-6.2,6.2-6.2h149.5c3.4,0,6.2,2.8,6.2,6.2v83.6
			c0,2.3-1.9,4.1-4.1,4.1H107.1z"/>
		<path class="st7" d="M258.8,133c2.3,0,4.2,1.9,4.2,4.2v83.6c0,1.2-1,2.1-2.1,2.1H107.1c-1.2,0-2.1-1-2.1-2.1v-83.6
			c0-2.3,1.9-4.2,4.2-4.2H258.8 M258.8,129H109.2c-4.5,0-8.2,3.7-8.2,8.2v83.6c0,3.4,2.7,6.1,6.1,6.1h153.8c3.4,0,6.1-2.7,6.1-6.1
			v-83.6C267,132.7,263.3,129,258.8,129L258.8,129z"/>
	</g>
	<g>
		<circle class="st6" cx="184" cy="178" r="10"/>
	</g>
	<g>
		<path class="st25" d="M32.9,175c0,2.6-3,2.6-3,5.2s3,2.6,3,5.2"/>
		<path class="st25" d="M41.8,168.8c0,2.6-3,2.6-3,5.2s3,2.6,3,5.2"/>
		<path class="st25" d="M50.7,175c0,2.6-3,2.6-3,5.2s3,2.6,3,5.2"/>
	</g>
	<path class="st2" d="M185,106h-2c-17.7,0-32-14.3-32-32V26h66v48C217,91.7,202.7,106,185,106z"/>
	<circle class="st7" cx="171" cy="65" r="4"/>
	<circle class="st7" cx="197" cy="65" r="4"/>
	<line class="st29" x1="167" y1="56" x2="175" y2="56"/>
	<line class="st29" x1="193" y1="56" x2="201" y2="56"/>
	<path class="st29" d="M197.5,87c0,3.9-6,7-13.5,7"/>
	<g>
		<path class="st29" d="M58.5,198c4.7,0,8.5,3.7,8.5,8.3v1.4c0,4.6-3.8,8.3-8.5,8.3H57"/>
		<path class="st50" d="M47,225H37c-5.5,0-10-4.5-10-10v-22h30v22C57,220.5,52.5,225,47,225z"/>
		<path class="st7" d="M48.6,209.2l-0.7-2.2c0,0,0,0,0,0l-1.4-4.4c-0.1-0.4-0.4-0.6-0.8-0.6c0,0,0,0,0,0c-0.4,0-0.7,0.2-0.8,0.6
			l-1.3,3.9h-3.8l-1.3-3.9c-0.1-0.4-0.4-0.6-0.8-0.6c0,0,0,0,0,0c-0.4,0-0.7,0.2-0.8,0.6l-1.4,4.4c0,0,0,0,0,0l-0.7,2.2
			c-0.1,0.5,0,1,0.4,1.2l6.2,4.5c0,0,0,0,0.1,0c0,0,0,0,0,0c0,0,0,0,0,0c0,0,0,0,0,0c0,0,0,0,0,0c0,0,0,0,0.1,0c0,0,0,0,0.1,0
			c0,0,0.1,0,0.1,0c0,0,0,0,0,0c0,0,0.1,0,0.1,0c0,0,0,0,0,0c0,0,0,0,0,0c0,0,0,0,0,0c0,0,0,0,0,0c0,0,0,0,0,0c0,0,0,0,0,0
			c0,0,0,0,0,0l6.2-4.5C48.6,210.1,48.8,209.6,48.6,209.2z"/>
	</g>
	<path class="st34" d="M338,225h-32c-2.2,0-4-1.8-4-4v-12h40v12C342,223.2,340.2,225,338,225z"/>
	<path class="st53" d="M323.8,206.7c-5.6-3.6,6.8-23,12.4-19.3S329.4,210.3,323.8,206.7z"/>
	<path class="st53" d="M320.2,206.7c5.6-3.6-6.8-23-12.4-19.3S314.6,210.3,320.2,206.7z"/>
	<path class="st53" d="M322,195.5c-6.7,0-6.7-23,0-23S328.7,195.5,322,195.5z"/>
	<g>
		<path class="st36" d="M231.7,179.5l-16.2-11.8c-1.1-0.8-1.6-2.2-1.1-3.5l5.2-16c0.4-1.1,1.4-1.8,2.5-1.8c1.1,0,2.1,0.7,2.4,1.8
			l3,9.2h8.6l3-9.2c0.4-1.1,1.3-1.8,2.4-1.8c0,0,0,0,0,0c1.1,0,2.1,0.7,2.4,1.8l5.2,16c0.4,1.3,0,2.7-1.2,3.5L231.7,179.5z"/>
		<g id="g48_8_" transform="translate(155.197863, 1.160267)" sketch:type="MSLayerGroup">
			<path id="path50_10_" sketch:type="MSShapeGroup" class="st47" d="M76.5,175.9L76.5,175.9l5.7-17.6H70.8L76.5,175.9L76.5,175.9z"
				/>
		</g>
		<g id="g56_8_" transform="translate(28.531199, 1.160800)" sketch:type="MSLayerGroup">
			<path id="path58_10_" sketch:type="MSShapeGroup" class="st9" d="M203.2,175.9l-5.7-17.6h-8L203.2,175.9L203.2,175.9z"/>
		</g>
		<g id="g64_8_" transform="translate(0.088533, 0.255867)" sketch:type="MSLayerGroup">
			<path id="path66_10_" sketch:type="MSShapeGroup" class="st40" d="M217.9,159.2L217.9,159.2l-1.7,5.3c-0.2,0.5,0,1,0.4,1.3
				l15,10.9L217.9,159.2L217.9,159.2z"/>
		</g>
		<g id="g72_8_" transform="translate(29.421866, 280.255593)" sketch:type="MSLayerGroup">
			<path id="path74_10_" sketch:type="MSShapeGroup" class="st47" d="M188.5-120.8h8l-3.4-10.6c-0.2-0.5-0.9-0.5-1.1,0L188.5-120.8
				L188.5-120.8z"/>
		</g>
		<g id="g76_8_" transform="translate(247.197860, 1.160800)" sketch:type="MSLayerGroup">
			<path id="path78_10_" sketch:type="MSShapeGroup" class="st9" d="M-15.5,175.9l5.7-17.6h8L-15.5,175.9L-15.5,175.9z"/>
		</g>
		<g id="g80_8_" transform="translate(246.307061, 0.255867)" sketch:type="MSLayerGroup">
			<path id="path82_10_" sketch:type="MSShapeGroup" class="st40" d="M-0.9,159.2L-0.9,159.2l1.7,5.3c0.2,0.5,0,1-0.4,1.3l-15,10.9
				L-0.9,159.2L-0.9,159.2z"/>
		</g>
		<g id="g84_8_" transform="translate(336.973725, 280.255593)" sketch:type="MSLayerGroup">
			<path id="path86_10_" sketch:type="MSShapeGroup" class="st47" d="M-91.6-120.8h-8l3.4-10.6c0.2-0.5,0.9-0.5,1.1,0L-91.6-120.8
				L-91.6-120.8z"/>
		</g>
	</g>
	<path class="st1" d="M196,15c13-2,21,5.2,21,12.2V52c-15-4-23-18-23-18c-12,15-43,18-43,18V26c0-9.9,11.2-18,25-18s25,8.1,25,18"/>
</g>
</svg>
