<?xml version="1.0" encoding="utf-8"?>
<!-- Generator: Adobe Illustrator 22.0.1, SVG Export Plug-In . SVG Version: 6.00 Build 0)  -->
<svg version="1.1" xmlns="http://www.w3.org/2000/svg" xmlns:xlink="http://www.w3.org/1999/xlink" x="0px" y="0px"
	 viewBox="0 0 1280 720" style="enable-background:new 0 0 1280 720;" xml:space="preserve">
<style type="text/css">
	.st0{fill:#ECE8F6;}
	.st1{fill:#FBD2AA;stroke:#4D4D4D;stroke-width:4;stroke-linecap:round;stroke-linejoin:round;stroke-miterlimit:10;}
	.st2{fill:#9F94C4;stroke:#4D4D4D;stroke-width:4.0073;stroke-linecap:round;stroke-linejoin:round;stroke-miterlimit:10;}
	.st3{fill:#635793;stroke:#4D4D4D;stroke-width:4;stroke-linecap:round;stroke-linejoin:round;stroke-miterlimit:10;}
	.st4{fill:#B3B3B3;}
	.st5{fill:#4D4D4D;}
	.st6{fill:#CF251A;}
	.st7{fill:#F7561E;}
	.st8{fill:#5A2FBE;}
	.st9{fill:#2A0062;}
	.st10{fill:#F88F1B;}
	.st11{fill:url(#SVGID_1_);}
	.st12{fill:url(#SVGID_2_);}
	.st13{fill:none;stroke:#4D4D4D;stroke-width:8;stroke-linecap:round;stroke-linejoin:round;stroke-miterlimit:10;}
	.st14{fill:#E6E6E6;}
	.st15{fill:#D72D20;stroke:#000000;stroke-width:4;stroke-linecap:round;stroke-linejoin:round;stroke-miterlimit:10;}
	.st16{fill:#F7561E;stroke:#000000;stroke-width:4;stroke-linecap:round;stroke-linejoin:round;stroke-miterlimit:10;}
	.st17{fill:#F8911E;stroke:#000000;stroke-width:4;stroke-linecap:round;stroke-linejoin:round;stroke-miterlimit:10;}
	.st18{fill:#FFFFFF;stroke:#000000;stroke-width:4;stroke-linecap:round;stroke-linejoin:round;stroke-miterlimit:10;}
	.st19{fill:none;stroke:#000000;stroke-width:4;stroke-linecap:round;stroke-linejoin:round;stroke-miterlimit:10;}
	.st20{stroke:#000000;stroke-linecap:round;stroke-linejoin:round;stroke-miterlimit:10;}
	.st21{opacity:0.15;}
	.st22{fill:none;stroke:#000000;stroke-width:2;stroke-linecap:round;stroke-linejoin:round;stroke-miterlimit:10;}
	.st23{fill:none;stroke:#E6E6E6;stroke-width:4;stroke-linecap:round;stroke-linejoin:round;stroke-miterlimit:10;}
	
		.st24{fill-rule:evenodd;clip-rule:evenodd;fill:none;stroke:#000000;stroke-width:2;stroke-linecap:round;stroke-linejoin:round;stroke-miterlimit:10;}
	.st25{opacity:0.15;fill:none;stroke:#000000;stroke-width:2;stroke-linecap:round;stroke-linejoin:round;stroke-miterlimit:10;}
	.st26{opacity:0.1;}
	.st27{fill:none;stroke:#4D4D4D;stroke-width:4;stroke-linecap:round;stroke-linejoin:round;stroke-miterlimit:10;}
	.st28{fill:#9E6D4C;}
	.st29{fill:#AA866B;stroke:#4D4D4D;stroke-width:4;stroke-linecap:round;stroke-linejoin:round;stroke-miterlimit:10;}
	.st30{fill:#ED6265;stroke:#4D4D4D;stroke-width:4.0073;stroke-linecap:round;stroke-linejoin:round;stroke-miterlimit:10;}
	.st31{fill:#AA3541;stroke:#4D4D4D;stroke-width:4;stroke-linecap:round;stroke-linejoin:round;stroke-miterlimit:10;}
	.st32{fill:#91D6E0;stroke:#4D4D4D;stroke-width:4;stroke-linecap:round;stroke-linejoin:round;stroke-miterlimit:10;}
	.st33{fill:#FFFFFF;stroke:#4D4D4D;stroke-width:4;stroke-linecap:round;stroke-linejoin:round;stroke-miterlimit:10;}
	.st34{fill:#B6A7DC;}
	.st35{fill:#FFFFFF;}
	.st36{fill:none;stroke:#4D4D4D;stroke-width:3.8644;stroke-linecap:round;stroke-linejoin:round;stroke-miterlimit:10;}
	.st37{fill:#333333;}
	.st38{fill:none;stroke:#4D4D4D;stroke-width:4.0073;stroke-linecap:round;stroke-linejoin:round;stroke-miterlimit:10;}
	.st39{fill:#9E6D4C;stroke:#4D4D4D;stroke-width:4.0073;stroke-linecap:round;stroke-linejoin:round;stroke-miterlimit:10;}
	.st40{fill:#F8911E;}
	.st41{fill:#2A2E37;}
	.st42{fill:#2A373E;}
	.st43{fill:#5737AC;}
	.st44{fill:#E9E9E9;}
	.st45{fill:url(#SVGID_3_);}
	.st46{fill:#433175;}
	.st47{fill:#D72D20;}
	.st48{fill:url(#SVGID_4_);}
	.st49{fill:url(#SVGID_5_);}
	.st50{fill:#FBB03B;stroke:#4D4D4D;stroke-width:4;stroke-linecap:round;stroke-linejoin:round;stroke-miterlimit:10;}
	.st51{fill:#333333;stroke:#4D4D4D;stroke-width:4;stroke-linecap:round;stroke-linejoin:round;stroke-miterlimit:10;}
	.st52{fill:#A3CC6C;stroke:#4D4D4D;stroke-width:4;stroke-linecap:round;stroke-linejoin:round;stroke-miterlimit:10;}
	.st53{fill-rule:evenodd;clip-rule:evenodd;fill:#FFFFFF;}
	.st54{fill-rule:evenodd;clip-rule:evenodd;fill:#131212;}
	.st55{fill:#1F6BFF;}
	.st56{fill:url(#SVGID_6_);}
	.st57{fill:url(#SVGID_7_);}
	.st58{fill:#C52327;}
	.st59{fill:#E7252D;}
	.st60{fill:#1A1718;}
	.st61{fill:#EBCCA8;}
	.st62{fill:#273F4E;}
	.st63{fill:#5A585A;}
	.st64{fill:#D3CFCE;}
	.st65{fill:#F3DDC1;}
	.st66{fill:#3A5E78;}
	.st67{fill:none;stroke:#C52327;stroke-width:0.1758;}
	.st68{fill:#6F9FB6;}
	.st69{fill:#161313;}
	.st70{fill:#344150;}
	.st71{fill:#ED7708;}
	.st72{fill:#FBB03B;}
	.st73{fill:none;stroke:#FBB03B;stroke-width:4;stroke-linecap:round;stroke-linejoin:round;stroke-miterlimit:10;}
	.st74{fill:none;stroke:#FFFFFF;stroke-width:4;stroke-linecap:round;stroke-linejoin:round;stroke-miterlimit:10;}
	.st75{fill:#FFFFFF;stroke:#CCCCCC;stroke-width:2;stroke-miterlimit:10;}
	.st76{fill:#030303;}
	.st77{fill:none;stroke:#23A960;stroke-width:8;stroke-linecap:round;stroke-linejoin:round;stroke-miterlimit:10;}
	.st78{fill:none;stroke:#F8911E;stroke-width:8;stroke-linecap:round;stroke-miterlimit:10;}
	.st79{fill:none;stroke:#D72D20;stroke-width:8;stroke-linecap:round;stroke-linejoin:round;stroke-miterlimit:10;}
	.st80{fill:none;stroke:#5737AC;stroke-width:8;stroke-linecap:round;stroke-miterlimit:10;}
</style>
<g id="Layer_2">
	<rect class="st0" width="640" height="720"/>
</g>
<g id="Layer_1">
	<circle class="st1" cx="994" cy="443" r="10"/>
	<circle class="st1" cx="928" cy="443" r="10"/>
	<path class="st2" d="M1030,519c0,0-4-22-18.1-24l-50.9-6l-50.9,6c-14.6,2-18.1,24-18.1,24H1030z"/>
	<path class="st3" d="M938,492.5c0-4.1,10.3-4.5,23-4.5s23,0.4,23,4.5s-10.3,7.5-23,7.5S938,496.6,938,492.5"/>
	<polyline class="st1" points="948,498 948,467 974,467 974,498 	"/>
	<g>
		<path class="st4" d="M870,603.5c-1.1,0-2-0.9-2-2v-3.8c0-3.4,2.8-6.2,6.2-6.2h171.5c3.4,0,6.2,2.8,6.2,6.2v3.8c0,1.1-0.9,2-2,2
			H870z"/>
		<g>
			<path class="st5" d="M1045.8,593.5c2.3,0,4.2,1.9,4.2,4.2v3.8H870v-3.8c0-2.3,1.9-4.2,4.2-4.2H1045.8 M1045.8,589.5H874.2
				c-4.5,0-8.2,3.7-8.2,8.2v3.8c0,2.2,1.8,4,4,4h180c2.2,0,4-1.8,4-4v-3.8C1054,593.2,1050.3,589.5,1045.8,589.5L1045.8,589.5z"/>
		</g>
	</g>
	<line class="st13" x1="780" y1="609" x2="1140" y2="609"/>
	<g>
		<path class="st14" d="M883.1,603c-2.3,0-4.1-1.9-4.1-4.1v-83.6c0-3.4,2.8-6.2,6.2-6.2h149.5c3.4,0,6.2,2.8,6.2,6.2v83.6
			c0,2.3-1.9,4.1-4.1,4.1H883.1z"/>
		<path class="st5" d="M1034.8,511c2.3,0,4.2,1.9,4.2,4.2v83.6c0,1.2-1,2.1-2.1,2.1H883.1c-1.2,0-2.1-1-2.1-2.1v-83.6
			c0-2.3,1.9-4.2,4.2-4.2H1034.8 M1034.8,507H885.2c-4.5,0-8.2,3.7-8.2,8.2v83.6c0,3.4,2.7,6.1,6.1,6.1h153.8c3.4,0,6.1-2.7,6.1-6.1
			v-83.6C1043,510.7,1039.3,507,1034.8,507L1034.8,507z"/>
	</g>
	<g>
		<circle class="st4" cx="960" cy="556" r="10"/>
	</g>
	<g>
		<polyline class="st23" points="1045.5,427.2 1045.5,403.8 1063,399.5 1063,422 		"/>
		<line class="st23" x1="1045.5" y1="409" x2="1063" y2="404.7"/>
		<ellipse class="st23" cx="1040.2" cy="427.2" rx="5.2" ry="4.3"/>
		<ellipse class="st23" cx="1057.8" cy="422" rx="5.2" ry="4.3"/>
	</g>
	<g>
		<polyline class="st23" points="1103.1,388.8 1112.5,367.4 1130.3,370.6 1121.2,391.1 		"/>
		<line class="st23" x1="1110.4" y1="372.2" x2="1128.2" y2="375.3"/>
		
			<ellipse transform="matrix(0.4055 -0.9141 0.9141 0.4055 299.4996 1233.7605)" class="st23" cx="1098.3" cy="386.6" rx="4.3" ry="5.2"/>
		
			<ellipse transform="matrix(0.4055 -0.9141 0.9141 0.4055 308.1095 1251.7052)" class="st23" cx="1116.4" cy="389" rx="4.3" ry="5.2"/>
	</g>
	<g>
		<polyline class="st23" points="1085.5,439.2 1085.5,415.8 1095,413.5 1095,418.7 1085.5,421 		"/>
		<ellipse class="st23" cx="1080.2" cy="439.2" rx="5.2" ry="4.3"/>
	</g>
	<g>
		<polyline class="st23" points="862.8,443.2 862.8,419.8 880.3,415.5 880.3,438 		"/>
		<line class="st23" x1="862.8" y1="425" x2="880.3" y2="420.7"/>
		<ellipse class="st23" cx="857.5" cy="443.2" rx="5.2" ry="4.3"/>
		<ellipse class="st23" cx="875" cy="438" rx="5.2" ry="4.3"/>
	</g>
	<g>
		<polyline class="st23" points="826.8,457.2 826.8,433.8 836.3,431.5 836.3,436.7 826.8,439 		"/>
		<ellipse class="st23" cx="821.5" cy="457.2" rx="5.2" ry="4.3"/>
	</g>
	<g>
		<path class="st23" d="M808.9,553c0,2.6-3,2.6-3,5.2s3,2.6,3,5.2"/>
		<path class="st23" d="M817.8,546.8c0,2.6-3,2.6-3,5.2s3,2.6,3,5.2"/>
		<path class="st23" d="M826.7,553c0,2.6-3,2.6-3,5.2s3,2.6,3,5.2"/>
	</g>
	<path class="st1" d="M962,484h-2c-17.7,0-32-14.3-32-32v-48h66v48C994,469.7,979.7,484,962,484z"/>
	<circle class="st5" cx="948" cy="443" r="4"/>
	<circle class="st5" cx="974" cy="443" r="4"/>
	<line class="st27" x1="944" y1="434" x2="952" y2="434"/>
	<line class="st27" x1="970" y1="434" x2="978" y2="434"/>
	<path class="st28" d="M976,415c0,0,11.7,5.7,12,25l4-1v-34L976,415z"/>
	<path class="st28" d="M940.5,419.8c-3.1,3.8-6.3,10.1-6.5,20.2l-4-2v-17L940.5,419.8z"/>
	<path class="st27" d="M974.5,465c0,3.9-6,7-13.5,7"/>
	<circle class="st29" cx="354" cy="443" r="10"/>
	<circle class="st29" cx="288" cy="443" r="10"/>
	<path class="st30" d="M390,519c0,0-4-22-18.1-24l-50.9-6l-50.9,6c-14.6,2-18.1,24-18.1,24H390z"/>
	<path class="st31" d="M344,491.5c0,4.1-10.3,7.5-23,7.5s-23-3.4-23-7.5s10.3-3.5,23-3.5S344,487.4,344,491.5z"/>
	<polyline class="st29" points="308,497 308,466 334,466 334,497 	"/>
	<g>
		<path class="st4" d="M230,603.5c-1.1,0-2-0.9-2-2v-3.8c0-3.4,2.8-6.2,6.2-6.2h171.5c3.4,0,6.2,2.8,6.2,6.2v3.8c0,1.1-0.9,2-2,2
			H230z"/>
		<g>
			<path class="st5" d="M405.8,593.5c2.3,0,4.2,1.9,4.2,4.2v3.8H230v-3.8c0-2.3,1.9-4.2,4.2-4.2H405.8 M405.8,589.5H234.2
				c-4.5,0-8.2,3.7-8.2,8.2v3.8c0,2.2,1.8,4,4,4h180c2.2,0,4-1.8,4-4v-3.8C414,593.2,410.3,589.5,405.8,589.5L405.8,589.5z"/>
		</g>
	</g>
	<line class="st13" x1="140" y1="609" x2="500" y2="609"/>
	<g>
		<path class="st14" d="M243.1,603c-2.3,0-4.1-1.9-4.1-4.1v-83.6c0-3.4,2.8-6.2,6.2-6.2h149.5c3.4,0,6.2,2.8,6.2,6.2v83.6
			c0,2.3-1.9,4.1-4.1,4.1H243.1z"/>
		<g>
			<path class="st5" d="M394.8,511c2.3,0,4.2,1.9,4.2,4.2v83.6c0,1.2-1,2.1-2.1,2.1H243.1c-1.2,0-2.1-1-2.1-2.1v-83.6
				c0-2.3,1.9-4.2,4.2-4.2H394.8 M394.8,507H245.2c-4.5,0-8.2,3.7-8.2,8.2v83.6c0,3.4,2.7,6.1,6.1,6.1h153.8c3.4,0,6.1-2.7,6.1-6.1
				v-83.6C403,510.7,399.3,507,394.8,507L394.8,507z"/>
		</g>
	</g>
	<g>
		<circle class="st4" cx="320" cy="556" r="10"/>
	</g>
	<path class="st32" d="M183,604h-18c-2.2,0-4-1.8-4-4v-48h26v48C187,602.2,185.2,604,183,604z"/>
	<rect x="161" y="544" class="st33" width="26" height="8"/>
	<path class="st27" d="M187,552h10v20c0,3.3-2.7,6-6,6h-3"/>
	<path class="st29" d="M322,484h-2c-17.7,0-32-14.3-32-32v-48h66v48C354,469.7,339.7,484,322,484z"/>
	<circle class="st5" cx="308" cy="443" r="4"/>
	<circle class="st5" cx="334" cy="443" r="4"/>
	<line class="st27" x1="304" y1="434" x2="312" y2="434"/>
	<line class="st27" x1="330" y1="434" x2="338" y2="434"/>
	<g>
		<g>
			<path class="st5" d="M835.1,664.2c0-4.8,3.2-7.5,7-7.5c2.1,0,3.6,0.9,4.5,1.9l-1.7,2.1c-0.7-0.7-1.5-1.1-2.7-1.1
				c-2.2,0-3.8,1.7-3.8,4.6c0,2.9,1.3,4.7,4,4.7c0.6,0,1.2-0.2,1.5-0.4v-2.5h-2.4v-2.6h5.3v6.6c-1,1-2.7,1.7-4.7,1.7
				C838.2,671.5,835.1,669,835.1,664.2z"/>
			<path class="st5" d="M852,656.9h3.2v14.3H852V656.9z"/>
			<path class="st5" d="M863.7,659.6h-3.9v-2.7h11.1v2.7h-3.9v11.6h-3.2V659.6z"/>
			<path class="st5" d="M875.3,656.9h3.2v11.6h5.7v2.7h-8.9V656.9z"/>
			<path class="st5" d="M891.6,656.9h3.9l4.5,14.3h-3.4l-1.9-7.3c-0.4-1.4-0.8-3.1-1.2-4.6h-0.1c-0.3,1.5-0.7,3.2-1.1,4.6l-1.9,7.3
				h-3.3L891.6,656.9z M890,665.3h6.9v2.5H890V665.3z"/>
			<path class="st5" d="M903.7,656.9h4.9c3,0,5.3,0.8,5.3,3.6c0,1.3-0.7,2.7-1.9,3.1v0.1c1.5,0.4,2.6,1.5,2.6,3.4
				c0,2.9-2.5,4.2-5.6,4.2h-5.3V656.9z M908.5,662.7c1.6,0,2.3-0.7,2.3-1.7c0-1.1-0.7-1.5-2.2-1.5h-1.5v3.2H908.5z M908.8,668.8
				c1.8,0,2.7-0.6,2.7-1.9c0-1.3-0.9-1.8-2.7-1.8h-1.8v3.7H908.8z"/>
			<path class="st5" d="M928.5,656.9h3.9l4.5,14.3h-3.4l-1.9-7.3c-0.4-1.4-0.8-3.1-1.2-4.6h-0.1c-0.3,1.5-0.7,3.2-1.1,4.6l-1.9,7.3
				H924L928.5,656.9z M927,665.3h6.9v2.5H927V665.3z"/>
			<path class="st5" d="M940.5,664.6v-7.7h3.2v8c0,2.8,0.9,3.8,2.5,3.8c1.6,0,2.5-1,2.5-3.8v-8h3.1v7.7c0,4.8-2,6.9-5.7,6.9
				C942.6,671.5,940.5,669.4,940.5,664.6z"/>
			<path class="st5" d="M960.2,659.6h-3.9v-2.7h11.1v2.7h-3.9v11.6h-3.2V659.6z"/>
			<path class="st5" d="M971.2,664c0-4.7,2.6-7.4,6.5-7.4c3.9,0,6.5,2.7,6.5,7.4c0,4.7-2.6,7.5-6.5,7.5
				C973.8,671.5,971.2,668.7,971.2,664z M980.9,664c0-2.9-1.2-4.6-3.2-4.6c-2,0-3.2,1.7-3.2,4.6s1.2,4.7,3.2,4.7
				C979.7,668.7,980.9,666.9,980.9,664z"/>
			<path class="st5" d="M995.7,656.9h4.1c4.4,0,7.2,2.2,7.2,7.1s-2.8,7.2-7,7.2h-4.2V656.9z M999.6,668.6c2.4,0,4.1-1.2,4.1-4.6
				s-1.6-4.5-4.1-4.5H999v9.1H999.6z"/>
			<path class="st5" d="M1011.9,656.9h9v2.7h-5.7v2.9h4.9v2.7h-4.9v3.3h6v2.7h-9.2V656.9z"/>
			<path class="st5" d="M1024.3,656.9h3.4l1.7,6.7c0.4,1.6,0.7,3,1.1,4.6h0.1c0.4-1.6,0.7-3,1.1-4.6l1.7-6.7h3.3l-4.3,14.3h-3.9
				L1024.3,656.9z"/>
			<path class="st5" d="M1039.9,664c0-4.7,2.6-7.4,6.5-7.4c3.9,0,6.5,2.7,6.5,7.4c0,4.7-2.6,7.5-6.5,7.5
				C1042.5,671.5,1039.9,668.7,1039.9,664z M1049.6,664c0-2.9-1.2-4.6-3.2-4.6c-2,0-3.2,1.7-3.2,4.6s1.2,4.7,3.2,4.7
				C1048.4,668.7,1049.6,666.9,1049.6,664z"/>
			<path class="st5" d="M1057.8,656.9h4.9c3.2,0,5.7,1.1,5.7,4.6c0,3.4-2.6,4.9-5.6,4.9h-1.8v4.9h-3.2V656.9z M1062.7,663.8
				c1.8,0,2.6-0.8,2.6-2.3c0-1.5-1-2-2.7-2h-1.5v4.3H1062.7z"/>
			<path class="st5" d="M1072.2,669.5l1.9-2.2c1,0.9,2.3,1.5,3.5,1.5c1.4,0,2-0.5,2-1.4c0-0.9-0.8-1.2-2.1-1.7l-1.9-0.8
				c-1.5-0.6-2.9-1.8-2.9-3.9c0-2.4,2.1-4.3,5.1-4.3c1.7,0,3.4,0.7,4.6,1.9l-1.6,2c-0.9-0.7-1.8-1.1-3-1.1c-1.1,0-1.8,0.5-1.8,1.3
				c0,0.9,0.9,1.2,2.2,1.7l1.8,0.7c1.8,0.7,2.8,1.9,2.8,3.9c0,2.4-2,4.4-5.4,4.4C1075.7,671.5,1073.7,670.8,1072.2,669.5z"/>
		</g>
	</g>
	<g>
		<g>
			<path class="st5" d="M834.6,185.1c0-3.5,2.3-5.5,4.9-5.5c1.3,0,2.4,0.6,3.1,1.4l-1.2,1.5c-0.5-0.5-1.1-0.8-1.8-0.8
				c-1.4,0-2.6,1.3-2.6,3.4c0,2.1,1,3.4,2.5,3.4c0.9,0,1.5-0.4,2-1l1.2,1.5c-0.9,1-2,1.5-3.4,1.5
				C836.8,190.5,834.6,188.6,834.6,185.1z"/>
			<path class="st5" d="M844.7,185c0-3.4,1.9-5.4,4.7-5.4s4.7,2,4.7,5.4c0,3.4-1.9,5.5-4.7,5.5S844.7,188.4,844.7,185z M851.8,185
				c0-2.1-0.9-3.3-2.3-3.3c-1.4,0-2.3,1.2-2.3,3.3s0.9,3.4,2.3,3.4C850.9,188.4,851.8,187.1,851.8,185z"/>
			<path class="st5" d="M857,179.8h2.9c3.2,0,5.2,1.6,5.2,5.2c0,3.6-2.1,5.3-5.1,5.3H857V179.8z M859.8,188.4c1.8,0,3-0.9,3-3.4
				s-1.2-3.3-3-3.3h-0.4v6.6H859.8z"/>
			<path class="st5" d="M867.9,179.8h6.5v2h-4.2v2.1h3.6v2h-3.6v2.4h4.3v2h-6.7V179.8z"/>
			<path class="st5" d="M881.5,179.8h2.4v10.4h-2.4V179.8z"/>
			<path class="st5" d="M889.2,181.8h-2.9v-2h8.1v2h-2.9v8.5h-2.4V181.8z"/>
			<path class="st5" d="M900.8,185.4v-5.6h2.4v5.8c0,2,0.6,2.7,1.8,2.7c1.2,0,1.8-0.7,1.8-2.7v-5.8h2.3v5.6c0,3.5-1.4,5-4.1,5
				S900.8,188.9,900.8,185.4z"/>
			<path class="st5" d="M912.3,179.8h3.6c2.3,0,4.1,0.8,4.1,3.4c0,2.5-1.9,3.5-4.1,3.5h-1.3v3.5h-2.4V179.8z M915.8,184.8
				c1.3,0,1.9-0.6,1.9-1.7c0-1.1-0.7-1.5-2-1.5h-1.1v3.1H915.8z"/>
		</g>
	</g>
	<g>
		<g>
			<path class="st5" d="M213.3,656.9h3.3l3.7,7.1l1.4,3.2h0.1c-0.2-1.5-0.4-3.5-0.4-5.2v-5.1h3.1v14.3h-3.3l-3.7-7.2L216,661h-0.1
				c0.2,1.6,0.4,3.5,0.4,5.2v5.1h-3.1V656.9z"/>
			<path class="st5" d="M229.4,664c0-4.7,2.6-7.4,6.5-7.4c3.9,0,6.5,2.7,6.5,7.4c0,4.7-2.6,7.5-6.5,7.5
				C232.1,671.5,229.4,668.7,229.4,664z M239.1,664c0-2.9-1.2-4.6-3.2-4.6c-2,0-3.2,1.7-3.2,4.6s1.2,4.7,3.2,4.7
				C237.9,668.7,239.1,666.9,239.1,664z"/>
			<path class="st5" d="M250.1,659.6h-3.9v-2.7h11.1v2.7h-3.9v11.6h-3.2V659.6z"/>
			<path class="st5" d="M271,656.9h3.9l4.5,14.3H276l-1.9-7.3c-0.4-1.4-0.8-3.1-1.2-4.6h-0.1c-0.3,1.5-0.7,3.2-1.1,4.6l-1.9,7.3
				h-3.3L271,656.9z M269.5,665.3h6.9v2.5h-6.9V665.3z"/>
			<path class="st5" d="M283.1,664.6v-7.7h3.2v8c0,2.8,0.9,3.8,2.5,3.8c1.6,0,2.5-1,2.5-3.8v-8h3.1v7.7c0,4.8-2,6.9-5.7,6.9
				C285.1,671.5,283.1,669.4,283.1,664.6z"/>
			<path class="st5" d="M302.8,659.6h-3.9v-2.7H310v2.7H306v11.6h-3.2V659.6z"/>
			<path class="st5" d="M313.8,664c0-4.7,2.6-7.4,6.5-7.4c3.9,0,6.5,2.7,6.5,7.4c0,4.7-2.6,7.5-6.5,7.5
				C316.4,671.5,313.8,668.7,313.8,664z M323.5,664c0-2.9-1.2-4.6-3.2-4.6c-2,0-3.2,1.7-3.2,4.6s1.2,4.7,3.2,4.7
				C322.2,668.7,323.5,666.9,323.5,664z"/>
			<path class="st5" d="M338.3,656.9h4.1c4.4,0,7.2,2.2,7.2,7.1s-2.8,7.2-7,7.2h-4.2V656.9z M342.1,668.6c2.4,0,4.1-1.2,4.1-4.6
				s-1.6-4.5-4.1-4.5h-0.6v9.1H342.1z"/>
			<path class="st5" d="M354.4,656.9h9v2.7h-5.7v2.9h4.9v2.7h-4.9v3.3h6v2.7h-9.2V656.9z"/>
			<path class="st5" d="M366.8,656.9h3.4l1.7,6.7c0.4,1.6,0.7,3,1.1,4.6h0.1c0.4-1.6,0.7-3,1.1-4.6l1.7-6.7h3.3l-4.3,14.3h-3.9
				L366.8,656.9z"/>
			<path class="st5" d="M382.5,664c0-4.7,2.6-7.4,6.5-7.4c3.9,0,6.5,2.7,6.5,7.4c0,4.7-2.6,7.5-6.5,7.5
				C385.1,671.5,382.5,668.7,382.5,664z M392.2,664c0-2.9-1.2-4.6-3.2-4.6c-2,0-3.2,1.7-3.2,4.6s1.2,4.7,3.2,4.7
				C390.9,668.7,392.2,666.9,392.2,664z"/>
			<path class="st5" d="M400.4,656.9h4.9c3.2,0,5.7,1.1,5.7,4.6c0,3.4-2.6,4.9-5.6,4.9h-1.8v4.9h-3.2V656.9z M405.2,663.8
				c1.8,0,2.6-0.8,2.6-2.3c0-1.5-1-2-2.7-2h-1.5v4.3H405.2z"/>
			<path class="st5" d="M414.8,669.5l1.9-2.2c1,0.9,2.3,1.5,3.5,1.5c1.4,0,2-0.5,2-1.4c0-0.9-0.8-1.2-2.1-1.7l-1.9-0.8
				c-1.5-0.6-2.9-1.8-2.9-3.9c0-2.4,2.1-4.3,5.1-4.3c1.7,0,3.4,0.7,4.6,1.9l-1.6,2c-0.9-0.7-1.8-1.1-3-1.1c-1.1,0-1.8,0.5-1.8,1.3
				c0,0.9,0.9,1.2,2.2,1.7l1.8,0.7c1.8,0.7,2.8,1.9,2.8,3.9c0,2.4-2,4.4-5.4,4.4C418.2,671.5,416.2,670.8,414.8,669.5z"/>
			<path class="st5" d="M211.6,673.5v-1.1h48.5v1.1H211.6z"/>
		</g>
	</g>
	<g>
		<g>
			<path class="st34" d="M384.2,411.1c-0.7-2.8,0.4-4.8,2.4-5.3c2-0.5,3.9,0.8,4.6,3.6c0.7,2.8-0.4,4.8-2.4,5.3
				C386.8,415.2,384.9,413.9,384.2,411.1z M389,409.9c-0.5-2-1.2-2.5-1.9-2.3c-0.7,0.2-1.1,1-0.6,3c0.5,2,1.2,2.6,1.9,2.4
				C389.1,412.8,389.5,411.9,389,409.9z M394.6,403.9l1.8-0.4l-4,16.3l-1.8,0.4L394.6,403.9z M395.9,414.2c-0.7-2.8,0.4-4.8,2.4-5.3
				c2-0.5,3.9,0.8,4.6,3.6c0.7,2.8-0.4,4.8-2.4,5.3C398.4,418.3,396.5,417,395.9,414.2z M400.6,413c-0.5-2-1.2-2.5-1.9-2.3
				c-0.7,0.2-1.1,1-0.6,3c0.5,2,1.2,2.6,1.9,2.4C400.7,415.8,401.1,415,400.6,413z"/>
			<path class="st34" d="M407,414.4l0.9-2.5c1.3,0.6,2.3,0.8,3.4,0.5c1.2-0.3,1.6-0.9,1.4-1.9c-0.5-2.2-6.2-0.8-7.1-4.6
				c-0.6-2.5,0.7-4.5,3.4-5.1c1.8-0.4,3.3,0,4.5,0.8l-1.1,2.2c-0.9-0.5-1.7-0.7-2.6-0.5c-1,0.3-1.5,0.8-1.3,1.8
				c0.5,2,6.1,0.5,7.1,4.6c0.6,2.5-0.6,4.6-3.7,5.4C410.5,415.3,408.5,415.2,407,414.4z M407.2,399l2.1-0.5l0.8,3.1L408,402
				L407.2,399z M410.9,413.9l2.1-0.5l0.8,3.4l-2.1,0.5L410.9,413.9z"/>
			<path class="st34" d="M419.3,400.7l-0.8-2.8l3.2-0.8l0.6,2.9l1.2,6.6l-2.1,0.5L419.3,400.7z M421.3,410.6
				c-0.3-1.1,0.3-2.2,1.4-2.4c1.1-0.3,2.1,0.4,2.4,1.5c0.3,1.1-0.3,2.2-1.4,2.4C422.5,412.4,421.5,411.7,421.3,410.6z"/>
			<path class="st34" d="M430.7,405.9l-1.6,0.4l-0.5-2l1.8-0.4l-0.3-2.4l-1.7,0.4l-0.5-2l1.9-0.5l-0.4-3.6l1.8-0.4l0.4,3.6l2.2-0.5
				l-0.4-3.6l1.8-0.4l0.4,3.6l1.7-0.4l0.5,2L436,400l0.3,2.4l1.8-0.4l0.5,2l-2,0.5l0.5,4.1l-1.8,0.4l-0.5-4.1l-2.2,0.5l0.5,4.1
				l-1.8,0.4L430.7,405.9z M434.5,402.9l-0.3-2.4L432,401l0.3,2.4L434.5,402.9z"/>
		</g>
	</g>
	<g>
		<g>
			<path class="st34" d="M185,456.8c0.1-0.9-0.5-1.4-1.3-1.5c-0.8-0.1-1.4,0.3-2.1,0.8l-1.6-1.8c1.1-1.1,2.7-1.7,4.4-1.6
				c2.4,0.2,4,1.6,3.8,4.2c-0.3,2.7-3.6,3.2-3.6,5.8l-2.8-0.3C181.5,459.3,184.8,458.4,185,456.8z M180.8,465.6
				c0.1-1.1,1-1.9,2.1-1.8c1.1,0.1,1.9,1.1,1.7,2.2c-0.1,1.1-1,1.9-2.1,1.8C181.4,467.7,180.7,466.8,180.8,465.6z"/>
			<path class="st34" d="M191.6,463.9c0.6-6.1,5.5-9.7,10.9-9.2c4.7,0.5,7.4,4,7,8.6c-0.4,4-3.3,5.7-5.6,5.5
				c-1.3-0.1-2.2-0.8-2.4-1.9l0,0c-0.7,0.8-1.9,1.3-2.8,1.2c-1.7-0.2-2.8-1.6-2.6-3.6c0.3-2.7,2.4-5.2,5-4.9
				c0.7,0.1,1.3,0.4,1.6,1.3l0,0l0.4-0.9l2,0.2l-1.5,4.7c-0.4,1.2-0.2,1.9,0.8,2c1.3,0.1,2.8-1.3,3-3.7c0.3-3.1-1.1-6.1-5.4-6.5
				c-3.7-0.4-7.8,2.5-8.2,7.4c-0.4,4.3,2.4,6.7,5.8,7c1.1,0.1,2.5-0.1,3.4-0.5l0.5,1.8c-1.4,0.6-2.8,0.8-4.4,0.6
				C194.7,472.6,191.1,469.5,191.6,463.9z M201.2,465.3l0.8-2.9c-0.2-0.4-0.5-0.7-1-0.7c-1.3-0.1-2.3,1.6-2.4,2.9
				c-0.1,1,0.3,1.5,1,1.6C200.1,466.2,200.5,466,201.2,465.3z"/>
			<path class="st34" d="M214.8,462.1l1.5-2.1l-2.3-1.3l0.7-1.5l2.5,0.8l0.5-2.6l1.7,0.2l0,2.6l2.6-0.3l0.4,1.6l-2.5,0.8l1.1,2.4
				l-1.4,0.8l-1.6-2.1l-2,1.8L214.8,462.1z"/>
			<path class="st34" d="M225.2,467.9c0.5-4.7,7.1-4,7.4-6.8c0.1-0.7-0.2-1.1-0.9-1.2c-0.7-0.1-1.4,0.5-1.5,1.5
				c-0.2,2.3,2.6,5.7,5.3,7.7c1.1,0.8,2.2,1.5,3.1,1.7l-1,2.5c-1.4-0.4-2.9-1.2-4.2-2.4c-3.3-2.7-6.1-6.9-5.8-9.8
				c0.2-2,1.9-3.6,4.3-3.3c2.1,0.2,3.4,1.6,3.2,3.6c-0.4,3.8-6.5,4.1-6.8,6.7c-0.1,1.1,0.7,1.9,1.9,2c1,0.1,2.1-0.4,3.1-1.2
				c1.2-1,2.3-2.4,3-4.2l2.9,0.3c-0.9,2.1-2.1,3.9-3.8,5.5c-1.5,1.3-3.4,2.1-5.8,1.9C226.4,472.2,224.9,470.1,225.2,467.9z"/>
		</g>
	</g>
	<g>
		<circle class="st35" cx="640" cy="360" r="27"/>
		<g>
			<path class="st5" d="M640,335c13.8,0,25,11.2,25,25s-11.2,25-25,25s-25-11.2-25-25S626.2,335,640,335 M640,331c-16,0-29,13-29,29
				s13,29,29,29s29-13,29-29S656,331,640,331L640,331z"/>
		</g>
	</g>
	<g>
		<g>
			<path class="st5" d="M628.4,355h3.2l1.4,5.2c0.3,1.1,0.6,2.2,0.8,3.4h0.1c0.3-1.1,0.6-2.3,0.8-3.4l1.4-5.2h3.1l-3.6,10.9h-3.7
				L628.4,355z"/>
			<path class="st5" d="M642.3,364.7l1.5-2c1,0.7,1.9,1.1,2.8,1.1c1,0,1.4-0.4,1.4-0.9c0-0.7-1.1-1-2.2-1.5
				c-1.3-0.5-2.9-1.4-2.9-3.2c0-2,1.7-3.4,4.2-3.4c1.7,0,2.9,0.7,3.8,1.4l-1.4,1.9c-0.8-0.6-1.5-0.9-2.3-0.9c-0.8,0-1.2,0.3-1.2,0.9
				c0,0.7,1,1,2.2,1.4c1.4,0.5,2.9,1.3,2.9,3.3c0,2-1.6,3.5-4.5,3.5C645.1,366.2,643.4,365.6,642.3,364.7z"/>
		</g>
	</g>
	<line class="st36" x1="313" y1="469" x2="327" y2="469"/>
	<polygon class="st37" points="342,418 348,441 352,441 352.1,410.4 	"/>
	<polygon class="st37" points="299,420 294,441 290,441 290,411 	"/>
	<path class="st38" d="M940.5,419.8c-3.1,3.8-6.3,10.1-6.5,20.2l-6-2"/>
	<path class="st38" d="M976,415c0,0,11.7,5.7,12,25l6-2"/>
	<path class="st39" d="M941.4,419.2c-2.5-0.1-4.7,1.8-7.4,1.8c-8.8,0-16-7.2-16-16s7.2-16,16-16c3.2,0,6.2,0.9,8.7,2.5
		c0,0,29.3,19.5,59.3,1.5C1002,393,988.7,421.4,941.4,419.2z"/>
	<g>
		<path class="st27" d="M834.5,576c4.7,0,8.5,3.7,8.5,8.3v1.4c0,4.6-3.8,8.3-8.5,8.3H833"/>
		<path class="st50" d="M823,603h-10c-5.5,0-10-4.5-10-10v-22h30v22C833,598.5,828.5,603,823,603z"/>
		<path class="st5" d="M824.6,587.2l-0.7-2.2c0,0,0,0,0,0l-1.4-4.4c-0.1-0.4-0.4-0.6-0.8-0.6c0,0,0,0,0,0c-0.4,0-0.7,0.2-0.8,0.6
			l-1.3,3.9h-3.8l-1.3-3.9c-0.1-0.4-0.4-0.6-0.8-0.6c0,0,0,0,0,0c-0.4,0-0.7,0.2-0.8,0.6l-1.4,4.4c0,0,0,0,0,0l-0.7,2.2
			c-0.1,0.5,0,1,0.4,1.2l6.2,4.5c0,0,0,0,0.1,0c0,0,0,0,0,0c0,0,0,0,0,0c0,0,0,0,0,0c0,0,0,0,0,0c0,0,0,0,0.1,0c0,0,0,0,0.1,0
			c0,0,0.1,0,0.1,0c0,0,0,0,0,0c0,0,0.1,0,0.1,0c0,0,0,0,0,0c0,0,0,0,0,0c0,0,0,0,0,0c0,0,0,0,0,0c0,0,0,0,0,0c0,0,0,0,0,0
			c0,0,0,0,0,0l6.2-4.5C824.6,588.1,824.8,587.6,824.6,587.2z"/>
	</g>
	<polyline class="st27" points="300,418 294,441 288,441 	"/>
	<polyline class="st27" points="342,418 348,441 354,441 	"/>
	<path class="st51" d="M338,401c0-9.9-11.2-18-25-18s-25,8.1-25,18v3c0,9.9,14.8,18,33,18s33-8.1,33-18v-1.8c0-7-8-14.2-21-12.2"/>
	<circle class="st5" cx="174" cy="571" r="5.5"/>
	<path class="st33" d="M1114,603h-32c-2.2,0-4-1.8-4-4v-12h40v12C1118,601.2,1116.2,603,1114,603z"/>
	<path class="st52" d="M1099.8,584.7c-5.6-3.6,6.8-23,12.4-19.3C1117.8,568.9,1105.4,588.3,1099.8,584.7z"/>
	<path class="st52" d="M1096.2,584.7c5.6-3.6-6.8-23-12.4-19.3C1078.2,568.9,1090.6,588.3,1096.2,584.7z"/>
	<path class="st52" d="M1098,573.5c-6.7,0-6.7-23,0-23S1104.7,573.5,1098,573.5z"/>
	<path class="st50" d="M481.5,570.2c5.5,0,5.5-19.1,0-19.1C475.9,551,475.9,570.2,481.5,570.2z"/>
	<path class="st50" d="M501,550.6c0-5.5-19.1-5.5-19.1,0C481.9,556.2,501,556.1,501,550.6z"/>
	<path class="st50" d="M478.7,549.2c-4.9-2.5-13.6,14.6-8.7,17.1C475,568.7,483.7,551.7,478.7,549.2z"/>
	<path class="st50" d="M497,539.1c-2.6-4.9-19.5,4-16.9,8.9C482.6,552.9,499.5,544,497,539.1z"/>
	<path class="st27" d="M480.5,548c0,0-25.4-15.2-27.8,24.3"/>
	<path class="st33" d="M442.3,603h20.5c2.6,0,4.7-2.1,4.7-4.7V573h-30v25.3C437.5,600.9,439.6,603,442.3,603z"/>
	<path class="st50" d="M464,601.3c1,5.5,19.8,2,18.8-3.5C481.9,592.4,463,595.9,464,601.3z"/>
	<g>
		<path class="st35" d="M1007.7,557.5l-16.2-11.8c-1.1-0.8-1.6-2.2-1.1-3.5l5.2-16c0.4-1.1,1.4-1.8,2.5-1.8c1.1,0,2.1,0.7,2.4,1.8
			l3,9.2h8.6l3-9.2c0.4-1.1,1.3-1.8,2.4-1.8c0,0,0,0,0,0c1.1,0,2.1,0.7,2.4,1.8l5.2,16c0.4,1.3,0,2.7-1.2,3.5L1007.7,557.5z"/>
		<g id="g48_13_" transform="translate(155.197863, 1.160267)" sketch:type="MSLayerGroup">
			<path id="path50_13_" sketch:type="MSShapeGroup" class="st47" d="M852.5,553.9L852.5,553.9l5.7-17.6h-11.4L852.5,553.9
				L852.5,553.9z"/>
		</g>
		<g id="g56_12_" transform="translate(28.531199, 1.160800)" sketch:type="MSLayerGroup">
			<path id="path58_12_" sketch:type="MSShapeGroup" class="st7" d="M979.2,553.9l-5.7-17.6h-8L979.2,553.9L979.2,553.9z"/>
		</g>
		<g id="g64_13_" transform="translate(0.088533, 0.255867)" sketch:type="MSLayerGroup">
			<path id="path66_13_" sketch:type="MSShapeGroup" class="st40" d="M993.9,537.2L993.9,537.2l-1.7,5.3c-0.2,0.5,0,1,0.4,1.3
				l15,10.9L993.9,537.2L993.9,537.2z"/>
		</g>
		<g id="g72_13_" transform="translate(29.421866, 280.255593)" sketch:type="MSLayerGroup">
			<path id="path74_13_" sketch:type="MSShapeGroup" class="st47" d="M964.5,257.2h8l-3.4-10.6c-0.2-0.5-0.9-0.5-1.1,0L964.5,257.2
				L964.5,257.2z"/>
		</g>
		<g id="g76_12_" transform="translate(247.197860, 1.160800)" sketch:type="MSLayerGroup">
			<path id="path78_12_" sketch:type="MSShapeGroup" class="st7" d="M760.5,553.9l5.7-17.6h8L760.5,553.9L760.5,553.9z"/>
		</g>
		<g id="g80_13_" transform="translate(246.307061, 0.255867)" sketch:type="MSLayerGroup">
			<path id="path82_13_" sketch:type="MSShapeGroup" class="st40" d="M775.1,537.2L775.1,537.2l1.7,5.3c0.2,0.5,0,1-0.4,1.3
				l-15,10.9L775.1,537.2L775.1,537.2z"/>
		</g>
		<g id="g84_13_" transform="translate(336.973725, 280.255593)" sketch:type="MSLayerGroup">
			<path id="path86_13_" sketch:type="MSShapeGroup" class="st47" d="M684.4,257.2h-8l3.4-10.6c0.2-0.5,0.9-0.5,1.1,0L684.4,257.2
				L684.4,257.2z"/>
		</g>
	</g>
	<g>
		<circle class="st53" cx="263.2" cy="533.8" r="14.2"/>
		<path class="st54" d="M263.2,521.1c-6.9,0-12.5,5.6-12.5,12.5c0,5.5,3.6,10.2,8.6,11.9c0.6,0.1,0.9-0.3,0.9-0.6c0-0.3,0-1.1,0-2.1
			c-3.5,0.8-4.2-1.7-4.2-1.7c-0.6-1.4-1.4-1.8-1.4-1.8c-1.1-0.8,0.1-0.8,0.1-0.8c1.3,0.1,1.9,1.3,1.9,1.3c1.1,1.9,2.9,1.4,3.6,1
			c0.1-0.8,0.4-1.4,0.8-1.7c-2.8-0.3-5.7-1.4-5.7-6.2c0-1.4,0.5-2.5,1.3-3.4c-0.1-0.3-0.6-1.6,0.1-3.3c0,0,1.1-0.3,3.4,1.3
			c1-0.3,2.1-0.4,3.1-0.4c1.1,0,2.1,0.1,3.1,0.4c2.4-1.6,3.4-1.3,3.4-1.3c0.7,1.7,0.3,3,0.1,3.3c0.8,0.9,1.3,2,1.3,3.4
			c0,4.8-2.9,5.9-5.7,6.2c0.4,0.4,0.9,1.2,0.9,2.3c0,1.7,0,3,0,3.4c0,0.3,0.2,0.7,0.9,0.6c5-1.7,8.6-6.4,8.6-11.9
			C275.8,526.7,270.2,521.1,263.2,521.1z"/>
	</g>
	<g>
		<path class="st35" d="M343.8,597c-1.3,0-2.3-0.2-3.2-0.4l-0.8-0.3l-0.3-0.8c-0.2-0.6-0.4-1.2-0.6-1.8c-0.8-0.2-1.5-0.5-2-0.8
			c-0.2-0.1-0.3-0.2-0.5-0.2c0,0-0.1,0-0.1-0.1c-0.4-0.2-1.2-0.4-1.6-1.3c-0.2-0.5-0.3-1.1-0.3-1.5c0-0.1,0-0.2,0-0.3
			c0,0-0.1-0.1-0.1-0.1c-2.2-2.3-3.4-5.3-3.4-8.4s1.2-6.2,3.4-8.4c0.1-0.1,0.2-0.2,0.3-0.3c0.2-1.2,0.7-1.9,1.2-2.4
			c0.6-1.3,1.8-2,2.7-2.5c0.2-0.1,0.3-0.2,0.5-0.3c0.5-0.3,1-0.5,1.5-0.7l0.1-0.1c0.9-0.3,1.9-0.5,2.9-0.5c1,0,2.9,0.2,4.4,1.3
			c0.7,0.5,1.9,1.7,2.4,2.7c0.4,0.8,0.6,1.7,0.8,2.8c2.1,2.2,3.2,5.2,3.2,8.2c0,1.7-0.4,3.4-1,4.9c0,0,0,0,0,0
			c0.3,0.6,0.6,1.5,0.7,2c0.3,1.2-0.1,3.7-2,4.4c-0.5,0.2-1,0.2-1.5,0.2l0,0c-0.3,0-0.7,0-1-0.1c0.1,0.3,0.1,0.7,0,1.1
			c-0.2,0.8-0.6,1.3-1.1,1.5c-0.3,1-1.2,1.6-2.4,1.8C345.5,596.9,344.7,597,343.8,597z"/>
		<g id="g3393">
			<path id="path22" inkscape:connector-curvature="0" class="st58" d="M352.3,581c0,5.4-4.3,9.8-9.6,9.8c-5.3,0-9.6-4.4-9.6-9.8
				c0-5.4,4.3-9.8,9.6-9.8C348,571.1,352.3,575.5,352.3,581"/>
			<path id="path24" inkscape:connector-curvature="0" class="st59" d="M333.4,583.4c0,0-0.7-10.3,8.8-10.5l-0.7-1.1l-5.1,1.7
				l-1.5,1.7l-1.3,2.5l-0.7,2.9l0.2,1.9"/>
			<path id="path26" inkscape:connector-curvature="0" class="st60" d="M336.1,574.3c-1.7,1.7-2.7,4.1-2.7,6.7l0,0
				c0,2.6,1,5,2.7,6.7l0,0c1.7,1.7,4,2.8,6.6,2.8l0,0c2.6,0,4.9-1.1,6.6-2.8l0,0c1.7-1.7,2.7-4.1,2.7-6.7l0,0c0-2.6-1-5-2.7-6.7l0,0
				c-1.7-1.7-4-2.8-6.6-2.8l0,0C340.1,571.5,337.8,572.5,336.1,574.3L336.1,574.3z M335.7,588.2c-1.8-1.8-2.9-4.4-2.9-7.2l0,0
				c0-2.8,1.1-5.3,2.9-7.2l0,0c1.8-1.8,4.3-3,7-3l0,0c2.7,0,5.2,1.1,7,3l0,0c1.8,1.8,2.9,4.4,2.9,7.2l0,0c0,2.8-1.1,5.3-2.9,7.2l0,0
				c-1.8,1.8-4.3,3-7,3l0,0C339.9,591.1,337.4,590,335.7,588.2L335.7,588.2"/>
			<path id="path28" inkscape:connector-curvature="0" class="st61" d="M346.7,581l-1.5,0.2l-2,0.2l-1.3,0l-1.2,0l-1-0.3l-0.8-0.9
				l-0.7-1.9l-0.1-0.4l-0.9-0.3l-0.5-0.8l-0.4-1.2l0.4-1.1l1-0.3l0.8,0.4l0.4,0.8l0.4-0.1l0.1-0.2l-0.1-0.8l0-1.1l0.2-1.5l0-0.8
				l0.7-1.1l1.2-0.8l2.1-0.9l2.3,0.3l2,1.4l0.9,1.5l0.6,1.1l0.1,2.6l-0.4,2.3l-0.8,2l-0.8,1.1"/>
			<path id="path30" inkscape:connector-curvature="0" class="st62" d="M345.5,587.4l-5.2,0.2v0.9l0.4,3.1l-0.2,0.3l-3.7-1.2
				l-0.3-0.4l-0.4-4.1l-0.8-2.5l-0.2-0.6l2.9-2l0.9-0.4l0.8,1l0.7,0.6l0.8,0.3l0.4,0.1l0.4,1.9l0.3,0.4l0.8-0.3l-0.6,1.1l3.2,1.5
				L345.5,587.4"/>
			<path id="path32" inkscape:connector-curvature="0" class="st63" d="M336.8,574.6l1-0.3l0.8,0.4l0.4,0.8l0.4-0.1l0.1-0.4
				l-0.2-0.8l0.2-2l-0.2-1.1l0.7-0.8l1.4-1.1l-0.4-0.5l-2,1l-0.8,0.7l-0.5,1l-0.7,1l-0.2,1.2L336.8,574.6"/>
			<path id="path34" inkscape:connector-curvature="0" class="st64" d="M338.3,571.1c0,0,0.5-1.4,2.7-2s0.1-0.5,0.1-0.5l-2.4,0.9
				l-0.9,0.9l-0.4,0.7L338.3,571.1"/>
			<path id="path36" inkscape:connector-curvature="0" class="st64" d="M337.2,574.3c0,0-0.8-2.6,2.2-2.9l-0.1-0.4l-2,0.5l-0.6,1.9
				l0.1,1.2L337.2,574.3"/>
			<path id="path38" inkscape:connector-curvature="0" class="st65" d="M338.4,577.7l0.5-0.5c0,0,0.2,0,0.3,0.3
				c0,0.3,0.1,2.6,1.7,3.8c0.1,0.1-1.2-0.2-1.2-0.2l-1.2-1.8"/>
			<path id="path40" inkscape:connector-curvature="0" class="st65" d="M345.1,577c0,0,0.1-1.1,0.4-1s0.3,0.4,0.3,0.4
				S345.1,576.9,345.1,577"/>
			<path id="path42" inkscape:connector-curvature="0" class="st65" d="M348.1,573c0,0-0.6,0.1-0.7,0.7c-0.1,0.5,0.7,0.1,0.8,0.1"/>
			<path id="path44" inkscape:connector-curvature="0" class="st65" d="M343.7,573c0,0-0.8,0.1-0.8,0.6c0,0.5,0.9,0.5,1.2,0.3"/>
			<path id="path46" inkscape:connector-curvature="0" class="st65" d="M338.7,575.4c0,0-1.4-0.8-1.5,0c-0.1,0.8-0.5,1.4,0.2,2.2
				l-0.5-0.1l-0.4-1.1l-0.1-1.1l0.8-0.9l1,0.1l0.5,0.4L338.7,575.4"/>
			<path id="path48" inkscape:connector-curvature="0" class="st65" d="M339.4,573.1c0,0,0.6-3.2,3.8-3.8c2.6-0.5,4,0.1,4.5,0.7
				c0,0-2.3-2.7-4.5-1.9c-2.2,0.8-3.8,2.4-3.8,3.4C339.4,573.1,339.4,573.1,339.4,573.1"/>
			<path id="path50" inkscape:connector-curvature="0" class="st65" d="M347.9,570.3c0,0-1.1,0-1.1,0.9c0,0,0,0.1,0.1,0.3
				c0,0,0.8-1,1.4-0.4"/>
			<path id="path52" inkscape:connector-curvature="0" class="st65" d="M343.2,571.6c0,0-0.2-1.5-1.4-0.6c-0.8,0.5-0.7,1.3-0.6,1.5
				c0.1,0.1,0.1,0.4,0.2,0.2c0.1-0.2,0.1-0.9,0.5-1C342.3,571.5,343,571.3,343.2,571.6"/>
			<path id="path54" inkscape:connector-curvature="0" class="st66" d="M339.8,581.5l-3.4,1.5c0,0,1.4,5.7,0.7,7.4l-0.5-0.2l0-2.2
				l-1-4.1l-0.4-1.1l3.6-2.4L339.8,581.5"/>
			<path id="path56" inkscape:connector-curvature="0" class="st66" d="M340.1,584.6l0.5,0.6v2.2H340c0,0-0.1-1.5-0.1-1.7
				c0-0.2,0.1-0.8,0.1-0.8"/>
			<path id="path58" inkscape:connector-curvature="0" class="st66" d="M340.2,587.8l-1.6,0.1l0.5,0.3l1.2,0.2"/>
			<path id="path60" inkscape:connector-curvature="0" class="st62" d="M345.8,587.4l1.4,0l0.3,3.4l-1.4,0.2L345.8,587.4"/>
			<path id="path62" inkscape:connector-curvature="0" class="st62" d="M346.2,587.4l2.1-0.1c0,0,0.8-2.1,0.8-2.2
				c0-0.1,0.7-3.1,0.7-3.1l-1.6-1.7l-0.3-0.3l-0.9,0.9v3.4L346.2,587.4"/>
			<path id="path64" inkscape:connector-curvature="0" class="st66" d="M347.1,587.1l-1.3,0.3l0.2,1c0.5,0.2,1.3-0.4,1.3-0.4"/>
			<path id="path66" inkscape:connector-curvature="0" class="st66" d="M347.1,580.7l2.6,1.9l0.1-0.9l-1.9-1.8L347.1,580.7"/>
			<path id="path68" inkscape:connector-curvature="0" class="st35" d="M341.4,594.6l-0.8-3.1l-0.4-2.3l-0.1-1.7l3.4-0.2l2.1,0
				l-0.2,3.8l0.3,3l0,0.5l-2.8,0.2L341.4,594.6"/>
			<path id="path70" inkscape:connector-curvature="0" class="st64" d="M345.3,587.4c0,0-0.2,3.8,0.4,6.5c0,0-1.1,0.7-2.7,0.9
				l3.1-0.1l0.4-0.2l-0.4-6l-0.1-1.3"/>
			<path id="path72" inkscape:connector-curvature="0" class="st35" d="M347.5,590.4l1.4-0.4l2.7-0.1l0.4-1.2l-0.7-2.2l-0.8-0.1
				l-1.2,0.4l-1.1,0.5l-0.6-0.1l-0.5,0.2"/>
			<path id="path74" inkscape:connector-curvature="0" class="st64" d="M347.5,589.7c0,0,1-0.4,1.1-0.4l-0.4-2l0.5-0.2
				c0,0,0.3,1.9,0.3,2.1c0,0,2.1,0.1,2.2,0.1c0,0,0.4-0.8,0.3-1.7l0.4,1.2l0,0.7l-0.6,0.9l-0.7,0.1l-1.1,0l-0.4-0.5l-1.3,0.2
				l-0.4,0.1"/>
			<path id="path76" inkscape:connector-curvature="0" class="st35" d="M346.1,587.1l-0.8-2.1l-0.8-1.2c0,0,0.2-0.5,0.4-0.5
				s0.8,0,0.8,0l0.8,0.3l-0.1,1.4L346.1,587.1"/>
			<path id="path78" inkscape:connector-curvature="0" class="st64" d="M346.2,586.4c0,0-1-2-1-2.3c0,0,0.2-0.4,0.4-0.3
				c0.3,0.1,0.8,0.4,0.8,0.4v-0.7l-1.2-0.3l-0.8,0.1l1.4,3.4l0.3,0"/>
			<path id="path80" inkscape:connector-curvature="0" class="st35" d="M341.8,581.6l-1-0.1l-1-0.3v0.3l0.5,0.5l1.5,0.7"/>
			<path id="path82" inkscape:connector-curvature="0" class="st64" d="M340.1,581.7c0,0,1.1,0.5,1.5,0.4l0,0.4l-1-0.2l-0.6-0.4
				L340.1,581.7"/>
			<path id="path84" inkscape:connector-curvature="0" class="st58" d="M347.5,583.5c-0.6,0-1.2-0.1-1.7-0.2c0-0.2,0-0.4,0-0.5
				c0.1-0.1,0.4-0.1,0.6-0.1c-0.2-0.1-0.4-0.1-0.6-0.1c0-0.1-0.1-0.2-0.1-0.3c0.3-0.1,1.2-0.9,1.6-0.7c0.2,0.1,0.3,0.9,0.3,1.2
				C347.7,583,347.7,583.3,347.5,583.5"/>
			<path id="path86" inkscape:connector-curvature="0" class="st67" d="M347.5,583.5c-0.6,0-1.2-0.1-1.7-0.2c0-0.2,0-0.4,0-0.5
				c0.1-0.1,0.4-0.1,0.6-0.1c-0.2-0.1-0.4-0.1-0.6-0.1c0-0.1-0.1-0.2-0.1-0.3c0.3-0.1,1.2-0.9,1.6-0.7c0.2,0.1,0.3,0.9,0.3,1.2
				C347.7,583,347.7,583.3,347.5,583.5z"/>
			<path id="path88" inkscape:connector-curvature="0" class="st58" d="M344.6,582.4c0,0,0,0.1,0,0.1c-0.2,0.1-0.5,0.1-0.7,0.2
				c0.3,0,0.6,0.1,0.8,0.2c0,0.1,0,0.2,0,0.4c-0.4,0.2-0.7,0.6-1.1,0.8c-0.2,0.1-0.9,0.4-1.1,0.3c-0.1,0-0.1-0.2-0.2-0.3
				c-0.1-0.3-0.3-0.8-0.4-1.2c0-0.6-0.1-1.5,0.5-1.4c0.5,0.1,1.1,0.3,1.4,0.5C344.1,582.3,344.2,582.4,344.6,582.4"/>
			<path id="path90" inkscape:connector-curvature="0" class="st67" d="M344.6,582.4c0,0,0,0.1,0,0.1c-0.2,0.1-0.5,0.1-0.7,0.2
				c0.3,0,0.6,0.1,0.8,0.2c0,0.1,0,0.2,0,0.4c-0.4,0.2-0.7,0.6-1.1,0.8c-0.2,0.1-0.9,0.4-1.1,0.3c-0.1,0-0.1-0.2-0.2-0.3
				c-0.1-0.3-0.3-0.8-0.4-1.2c0-0.6-0.1-1.5,0.5-1.4c0.5,0.1,1.1,0.3,1.4,0.5C344.1,582.3,344.2,582.4,344.6,582.4z"/>
			<path id="path92" inkscape:connector-curvature="0" class="st58" d="M344.9,583.1c-0.1-0.3-0.1-0.4-0.1-0.7
				C345.7,581.9,345.8,583.4,344.9,583.1"/>
			<path id="path94" inkscape:connector-curvature="0" class="st67" d="M344.9,583.1c-0.1-0.3-0.1-0.4-0.1-0.7
				C345.7,581.9,345.8,583.4,344.9,583.1z"/>
			<path id="path96" inkscape:connector-curvature="0" class="st59" d="M346.1,583.4c0,0-0.3-0.4-0.1-0.5c0.2-0.1,0.4,0,0.5-0.2
				c0.1-0.2,0-0.3,0-0.5s0.2-0.3,0.4-0.3c0.2,0,0.7-0.1,0.8,0.1l-0.2-0.7l-0.4-0.1l-1.4,0.8l-0.1,0.4v0.8"/>
			<path id="path98" inkscape:connector-curvature="0" class="st59" d="M342.3,584.6c0-0.6-0.1-1.1-0.1-1.7
				c-0.1-0.9,0.2-0.7,0.9-0.7c0.1,0,0.7,0.1,0.7,0.2c0.2,0.4-0.3,0.3,0.2,0.6c0.5,0.3,1.3-0.2,1.1-0.7c-0.1-0.1-0.6,0-0.7-0.1
				c-0.3-0.1-0.6-0.3-0.9-0.4c-0.4-0.2-1.2-0.5-1.6-0.2c-1,0.7,0.1,2.3,0.4,3"/>
			<path id="path100" inkscape:connector-curvature="0" class="st60" d="M343.2,571.6c-1-0.2-1.5,0.4-1.8,1.1
				c-0.3-0.1-0.2-0.4-0.1-0.6c0.2-0.5,0.9-1.1,1.5-1.1C343.1,571,343.4,571.3,343.2,571.6"/>
			<path id="path102" inkscape:connector-curvature="0" class="st60" d="M348.1,572.7C348.1,572.7,348.1,572.7,348.1,572.7
				c0.3,0.5,0.5,1,0.8,1.4c-0.2,0.4-1.4,0.8-1.4,0c0.3-0.1,0.7,0,1-0.2C348.3,573.6,348.1,573.3,348.1,572.7"/>
			<path id="path104" inkscape:connector-curvature="0" class="st60" d="M343.7,572.7c0.2,0.4,0.3,0.8,0.6,1.1
				c0.1,0.1,0.4,0.3,0.3,0.7c0,0.1-0.3,0.3-0.4,0.3c-0.5,0.1-1.6,0-1.2-0.6c0.4,0,0.9,0.3,1.2,0C344,573.9,343.6,573.2,343.7,572.7"
				/>
			<path id="path106" inkscape:connector-curvature="0" class="st60" d="M347.9,576.7c-0.7,0.5-1.5,1-2.7,0.8
				c-0.3-0.2-0.3-0.7-0.1-1c0.1,0.2,0,0.6,0.4,0.7c0.7,0.1,1.4-0.4,1.9-0.6c0.3-0.5,0-0.7-0.3-1c-0.5-0.7-1.3-1.5-1.3-2.5
				c0.2-0.2,0.2,0.2,0.3,0.3c0.3,0.7,1,1.5,1.5,2.1c0.1,0.1,0.3,0.3,0.4,0.4C348.1,576.2,347.9,576.6,347.9,576.7"/>
			<path id="path108" inkscape:connector-curvature="0" class="st60" d="M338.5,576.2c-0.2-0.1-0.3-0.7-0.5-0.7
				c-0.4,0-0.3,0.7-0.3,1.2c-0.3-0.2-0.3-1-0.1-1.3c-0.2-0.1-0.3,0.1-0.4,0.2C337.2,574.5,338.7,575.1,338.5,576.2"/>
			<path id="path110" inkscape:connector-curvature="0" class="st60" d="M348.4,577.2c-0.3,0.6-0.8,1.3-1.8,1.4c0-0.2,0-0.5,0-0.6
				C347.3,577.8,347.8,577.5,348.4,577.2"/>
			<path id="path112" inkscape:connector-curvature="0" class="st60" d="M343.7,577.6c0.6,0.3,1.8,0.4,2.6,0.3c0,0.2,0,0.4,0,0.6
				C345.3,578.6,344,578.4,343.7,577.6"/>
			<path id="path114" inkscape:connector-curvature="0" class="st60" d="M343.6,578.2c0.4,1.1,1.9,1,3.2,0.9
				c-0.1,0.1-0.2,0.3-0.3,0.4c-0.4,0.2-1.5,0.3-2.1,0c-0.4-0.2-0.6-0.6-0.8-0.9C343.5,578.5,343,578.2,343.6,578.2"/>
			<path id="path116" inkscape:connector-curvature="0" class="st68" d="M347.9,584.2c-0.5,0.9-1,1.8-1.6,2.5c0.3-0.7,0.4-2,0.4-2.9
				C347.2,583.6,347.7,583.9,347.9,584.2"/>
			<path id="path118" inkscape:connector-curvature="0" class="st60" d="M350.6,587.3c-0.6,0.1-1,0.7-1.5,0.6
				C349.4,587.5,349.9,587.3,350.6,587.3"/>
			<path id="path120" inkscape:connector-curvature="0" class="st60" d="M350.8,588.2c-0.5,0-1,0.1-1.5,0.1
				C349.6,588,350.4,588.1,350.8,588.2"/>
			<path id="path122" inkscape:connector-curvature="0" class="st60" d="M351,589c-0.5,0-1.2,0-1.7,0
				C349.6,588.6,350.7,588.8,351,589"/>
			<path id="path124" inkscape:connector-curvature="0" class="st64" d="M346.9,591.1c0.1,0.7,0.3,1.3,0.3,2
				c-0.3,0.1-0.5,0.2-0.8,0.2c0-0.6-0.1-1.5-0.1-2.1C346.5,591.2,346.7,591,346.9,591.1"/>
			<path id="path126" inkscape:connector-curvature="0" class="st61" d="M346.1,581.5c-0.3,0.2-0.5,0.4-0.7,0.6
				c-0.6,0-0.9,0-1.3-0.4c0,0,0,0,0,0C344.7,581.9,345.5,581.5,346.1,581.5"/>
			<path id="path128" inkscape:connector-curvature="0" class="st68" d="M342.9,585.5c0.2-0.7,0.8-1.1,1.4-1.5
				c0.6,0.8,1,1.7,1.4,2.7C344.7,586.4,343.8,586,342.9,585.5"/>
			<path id="path130" inkscape:connector-curvature="0" class="st60" d="M346.3,591.2c0,0.6,0.1,1.5,0.1,2.1c0.4,0,0.5-0.1,0.8-0.2
				c0-0.7-0.2-1.4-0.3-2C346.7,591,346.5,591.2,346.3,591.2z M340.3,587.9c0.3,2.3,0.6,4.3,1.3,6.4c1.5,0.5,3.3,0.5,4.6,0.1
				c-0.2-1.2-0.1-2.6-0.3-3.8c-0.1-0.9-0.1-1.9-0.2-2.8C344.1,587.3,341.9,587.6,340.3,587.9z M346.1,587.7c0,1,0,2,0.1,3
				c0.4-0.1,0.6-0.1,1-0.2c-0.1-1-0.1-2.1-0.3-2.9C346.6,587.6,346.4,587.6,346.1,587.7z M348,587.5c-0.2,0-0.4,0-0.6,0
				c0.1,0.8,0.3,1.7,0.4,2.6c0.3,0,0.4-0.1,0.6-0.2C348.5,589.2,348.4,588.1,348,587.5L348,587.5z M351,590.2
				c0.6-0.1,0.9-0.8,0.8-1.6c-0.1-0.5-0.3-1.4-0.5-1.7c-0.2-0.2-0.6-0.5-0.9-0.3c-0.5,0.3-1.5,0.4-1.9,0.9c0.2,0.6,0.3,1.5,0.3,2.4
				c0.7,0,1.5-0.2,2,0.1c-0.4,0.1-0.9,0.1-1.2,0.3C349.9,590.3,350.6,590.3,351,590.2L351,590.2z M345.7,586.7
				c-0.4-0.9-0.8-1.9-1.4-2.7c-0.6,0.4-1.2,0.8-1.4,1.5C343.8,586,344.7,586.4,345.7,586.7z M346.7,583.8c0,0.9-0.1,2.2-0.4,2.9
				c0.6-0.8,1.1-1.7,1.6-2.5C347.7,583.9,347.2,583.6,346.7,583.8z M345.6,583.4c-0.2,0-0.4,0.3-0.7,0.1c-0.1,0.1-0.1,0.2-0.2,0.2
				c0.7,0.8,1,1.9,1.5,2.8c0.3-0.9,0.2-1.9,0.3-2.8C346,583.8,345.8,583.4,345.6,583.4z M344.8,582.4c0,0.3,0,0.4,0.1,0.7
				C345.8,583.4,345.7,581.9,344.8,582.4z M343.8,582.1c-0.4-0.2-1-0.4-1.4-0.5c-0.6-0.1-0.6,0.8-0.5,1.4c0,0.4,0.3,0.9,0.4,1.2
				c0,0.1,0.1,0.3,0.2,0.3c0.2,0,0.9-0.2,1.1-0.3c0.4-0.2,0.7-0.6,1.1-0.8c0-0.1,0-0.2,0-0.4c-0.2-0.1-0.5-0.2-0.8-0.2
				c0.2-0.1,0.5-0.1,0.7-0.2c0,0,0-0.1,0-0.1C344.2,582.4,344.1,582.3,343.8,582.1z M340.2,581.5c-0.3,0.3,0.9,0.8,1.3,0.8
				c0-0.2,0.1-0.4,0.1-0.5C341.1,581.6,340.5,581.7,340.2,581.5z M344.1,581.6C344.1,581.6,344.1,581.6,344.1,581.6
				c0.4,0.4,0.7,0.4,1.2,0.4c0.3-0.2,0.5-0.4,0.7-0.6C345.5,581.5,344.7,581.9,344.1,581.6z M347.7,582.7c0-0.4-0.1-1.1-0.3-1.2
				c-0.5-0.3-1.3,0.5-1.6,0.7c0,0.1,0.1,0.2,0.1,0.3c0.2-0.1,0.5,0,0.6,0.1c-0.2,0-0.4,0-0.6,0.1c-0.1,0.1,0,0.3,0,0.5
				c0.5,0.1,1.1,0.2,1.7,0.2C347.7,583.3,347.7,583,347.7,582.7z M339.7,581.8c-0.1-0.1-0.8-0.9-0.9-0.9c-1.2,0.5-2.4,1.3-3.4,2.1
				c1,2.1,1.4,4.6,1.4,7.1c1.1,0.5,2.1,1.3,3.6,1.3c-0.2-1.2-0.3-2.3-0.4-3.5c-0.4-0.2-0.9,0-1.3,0c0-0.4,0.5-0.2,0.6-0.5
				c0-0.2-0.3-0.2-0.2-0.6c0.3,0.1,0.4,0.3,0.7,0.4c0.3-0.6,0-1.6,0-2.1c0-0.1,0-0.5,0.3-0.4c0.2,0.1,0,1.1,0,1.6
				c0,0.4-0.1,0.8,0.1,1.1c1.5-0.2,2.9-0.3,4.5-0.4c-0.3-0.1-0.8-0.3-1.2-0.5c-0.2-0.1-1-0.4-1.1-0.7c-0.1-0.4,0.3-0.6,0.4-0.9
				c-0.7,0.4-0.9-0.4-1.1-0.9c-0.2-0.5-0.2-0.9-0.3-1.2C340.9,582.5,340.2,582.2,339.7,581.8L339.7,581.8z M347,581
				c1-0.5,1.2,1.8,0.8,2.6c0.1,0.2,0.3,0.3,0.4,0.5c-0.6,1-1.2,2-1.8,3c0.4-0.3,1,0,1.6-0.2c0.2-0.1,0.3-0.5,0.5-0.8
				c0.4-0.9,0.8-2.1,1-3c0-0.2,0.2-0.6,0.1-0.8c0-0.3-0.5-0.6-0.7-0.8c-0.4-0.4-0.7-0.7-1.1-1C347.6,580.6,347.2,580.8,347,581
				L347,581z M337.3,572c-0.5,0.5-0.4,1.5-0.3,2.2c0.9-0.6,2,0,2,1c0.4,0,0.2-0.5,0.1-0.9c-0.2-1.1,0.4-2.2,0-3.2
				C338.4,571.2,337.8,571.5,337.3,572L337.3,572z M340.8,568.9c-1.1,0.3-2.5,1.1-3,2.1c0.3-0.1,0.6-0.2,0.9-0.2
				c0.1,0,0.3,0.1,0.4,0c0.3-0.1,0.5-0.7,0.8-1c0.2-0.2,0.5-0.3,0.7-0.6c0.1-0.1,0.3-0.1,0.3-0.2
				C340.9,568.9,340.9,568.9,340.8,568.9z M346.5,569.2c-1.1-0.6-3.1-1.1-4.3-0.5c-1,0.5-2.3,1.3-2.7,2.3c0.4,1-0.1,1.9-0.2,2.9
				c0,0.5,0.3,1,0.3,1.6c-0.1,0.2-0.6,0.3-0.9,0.3c-0.1-0.5-0.3-1.1-0.8-1.1c-0.7-0.1-1.3,0.5-1.3,1.2c0,0.8,0.6,2,1.5,1.9
				c0.3,0,0.4-0.4,0.8-0.4c0.2,0.4-0.3,0.5-0.4,0.8c0,0.1,0,0.4,0.1,0.5c0.2,0.7,0.5,1.5,0.9,2c0.4,0.6,1.3,0.7,2.3,0.8
				c0.2-0.4,0.8-0.3,1.2-0.2c-0.5-0.2-0.9-0.7-1.3-1.1c-0.4-0.5-0.9-1-0.9-1.6c0.8,1.1,1.5,2.1,3,2.6c1.1,0.4,2.4-0.2,3.3-0.8
				c0.4-0.3,0.6-0.6,0.8-1c0.9-1.4,1.4-3.3,1.3-5.2c0-0.8,0-1.6-0.3-2.1c-0.3-0.5-1.2-1-1.7-0.5c-0.1-0.5,0.4-0.9,1.1-0.7
				C347.6,570.2,347.2,569.5,346.5,569.2L346.5,569.2z M348.6,586.7c0.9-0.4,2.5-1.2,3.1,0c0.2,0.4,0.4,1.2,0.6,1.6
				c0.2,0.6-0.2,2-0.8,2.2c-0.6,0.2-1.3,0.2-2,0c-0.1-0.1-0.2-0.2-0.2-0.3c-0.5,0-1,0-1.4,0.2c0,0.4-0.2,0.4-0.4,0.5
				c-0.2,0.7,0.3,1.6,0.2,2.2c-0.1,0.4-0.6,0.5-1,0.6c0,0.2,0,0.5,0,0.7c-0.1,0.3-0.5,0.5-0.9,0.6c-1.3,0.2-3.3,0.2-4.5-0.2
				c-0.3-0.9-0.6-1.9-0.9-2.9c-1.2,0.1-2.2-0.5-3.1-1c-0.3-0.1-0.8-0.2-0.9-0.5c-0.1-0.2-0.1-0.7-0.1-1.2c-0.1-1.1-0.1-2.2-0.4-3.4
				c-0.1-0.5-0.4-1-0.5-1.5c-0.2-0.5-0.4-1-0.5-1.5c-0.1-0.7,0.5-0.7,1-1c0.6-0.5,1.1-0.7,1.8-1.1c0.2-0.1,0.8-0.4,0.9-0.6
				c0.1-0.3-0.2-0.7-0.3-0.9c-0.2-0.4-0.2-0.7-0.3-1c-0.6-0.1-1-0.4-1.3-0.8c-0.4-0.6-0.8-1.9-0.4-2.8c0-0.1,0.2-0.2,0.2-0.3
				c0-0.2-0.1-0.5-0.1-0.7c0-1.2,0.2-2.2,1-2.6c0.3-1.3,1.5-1.7,2.6-2.4c0.4-0.2,0.9-0.4,1.3-0.6c1.7-0.6,4.2-0.5,5.6,0.5
				c0.6,0.4,1.5,1.4,1.9,2.1c0.9,1.8,0.8,4.8,0.2,7c-0.1,0.3-0.2,0.7-0.4,1.1c-0.1,0.2-0.5,0.7-0.4,1c0,0.2,0.8,0.8,1,1
				c0.3,0.3,0.9,0.7,0.9,1.1c0.1,0.4-0.2,0.9-0.3,1.3C349.4,584.4,349.1,585.6,348.6,586.7"/>
			<path id="path132" inkscape:connector-curvature="0" class="st65" d="M342.7,577.9c0-0.1,0.3-0.2,0.7,0c0,0-0.4,0.1-0.4,0.8
				l-0.2,0C342.8,578.7,342.6,578,342.7,577.9"/>
			<path id="path134" inkscape:connector-curvature="0" class="st69" d="M345.9,584.2c0,0.1-0.1,0.2-0.2,0.2c-0.1,0-0.2-0.1-0.2-0.2
				s0.1-0.2,0.2-0.2C345.8,584,345.9,584.1,345.9,584.2"/>
			<path id="path136" inkscape:connector-curvature="0" class="st69" d="M346.1,585.1c0,0.1-0.1,0.2-0.2,0.2c-0.1,0-0.2-0.1-0.2-0.2
				s0.1-0.2,0.2-0.2C346,584.9,346.1,585,346.1,585.1"/>
		</g>
	</g>
	<g>
		<circle class="st35" cx="275.4" cy="584.6" r="12.4"/>
		<g>
			<path id="path16" class="st70" d="M275.4,589.5c-2.7,0-4.9-2.2-4.9-4.9c0-2.7,2.2-4.9,4.9-4.9c2.2,0,4.1,1.5,4.7,3.6h1.9
				c-0.6-3.1-3.4-5.4-6.6-5.4c-3.7,0-6.8,3-6.8,6.8c0,3.7,3,6.8,6.8,6.8c3.3,0,6-2.3,6.6-5.4h-1.9
				C279.5,588,277.7,589.5,275.4,589.5"/>
			<path id="path18" class="st70" d="M272.1,587.9c0.8,0.8,2,1.4,3.3,1.4v-2c-0.8,0-1.4-0.3-1.9-0.8L272.1,587.9L272.1,587.9z"/>
			<path id="path20" class="st71" d="M270.7,584.6c0,0.7,0.1,1.3,0.4,1.9l1.8-0.8c-0.1-0.3-0.2-0.7-0.2-1.1c0-1.5,1.2-2.7,2.7-2.7
				v-2C272.8,579.9,270.7,582,270.7,584.6"/>
			<path id="path22_1_" class="st70" d="M277.1,580.3l-0.7,1.8c0.6,0.2,1.1,0.6,1.4,1.2h2.1C279.5,581.9,278.4,580.8,277.1,580.3"/>
			<path id="path24_1_" class="st71" d="M276.4,587.2l0.7,1.8c1.3-0.5,2.4-1.6,2.8-3h-2.1C277.5,586.5,277,586.9,276.4,587.2"/>
			<path id="path26_1_" class="st70" d="M266.7,587.3c0-0.1-0.1-0.2-0.1-0.3c0,0,0,0,0,0c0-0.1,0-0.2-0.1-0.3c0,0,0,0,0-0.1
				c0-0.1,0-0.2-0.1-0.3c0,0,0-0.1,0-0.1c0-0.1,0-0.1,0-0.2c0-0.1,0-0.1,0-0.2c-0.1-0.4-0.1-0.8-0.1-1.2h-1.9c0,0.4,0,0.9,0.1,1.3
				l0,0c0,0,0,0,0,0c0,0.1,0,0.2,0,0.4c0,0,0,0.1,0,0.1c0,0.1,0,0.2,0.1,0.3c0,0.1,0,0.1,0,0.2c0,0.1,0,0.2,0,0.2c0,0.1,0,0.1,0,0.2
				c0,0.1,0,0.1,0,0.2c0,0.1,0,0.2,0.1,0.2c0,0,0,0.1,0,0.1h0c0.1,0.4,0.3,0.8,0.5,1.2l1.7-0.7C267,587.9,266.8,587.6,266.7,587.3
				L266.7,587.3L266.7,587.3z"/>
			<path id="path28_1_" class="st71" d="M275.4,593.7c-2.5,0-4.8-1-6.4-2.7l-1.3,1.3c2,2,4.7,3.2,7.7,3.2c5.6,0,10.2-4.2,10.8-9.6
				h-1.9C283.7,590.3,279.9,593.7,275.4,593.7"/>
			<path id="path30_1_" class="st71" d="M275.4,575.6c2,0,3.9,0.7,5.4,1.8l1.1-1.5c-1.8-1.4-4.1-2.2-6.5-2.2c-4.6,0-8.6,2.9-10.2,7
				l1.7,0.7C268.3,578,271.6,575.6,275.4,575.6"/>
			<path id="path32_1_" class="st70" d="M284.4,583.3h1.9c-0.2-1.6-0.7-3.1-1.6-4.4l-1.6,1C283.7,580.9,284.2,582,284.4,583.3"/>
			<path id="path34_1_" class="st71" d="M282.3,583.3h1.9c-0.5-3.1-2.6-5.7-5.5-6.9l-0.7,1.7C280.1,579,281.8,580.9,282.3,583.3"/>
			<path id="path36_1_" class="st70" d="M275.4,577.6L275.4,577.6l0-1.8h0c-3.7,0-6.9,2.3-8.2,5.6l1.7,0.7
				C269.9,579.5,272.5,577.6,275.4,577.6"/>
			<path id="path38_1_" class="st71" d="M268.4,584.6L268.4,584.6h-1.8c0,3.7,2.3,6.9,5.6,8.2l0.7-1.7
				C270.2,590.1,268.4,587.6,268.4,584.6"/>
			<path id="path40_1_" class="st70" d="M275.4,591.6v1.8c4.4,0,8.1-3.2,8.7-7.5h-1.9C281.6,589.2,278.8,591.6,275.4,591.6"/>
		</g>
	</g>
	<g>
		<circle class="st72" cx="1194" cy="86" r="20"/>
		<line class="st73" x1="1220" y1="86" x2="1240" y2="86"/>
		<line class="st73" x1="1148" y1="86" x2="1168" y2="86"/>
		<line class="st73" x1="1194" y1="112" x2="1194" y2="132"/>
		<line class="st73" x1="1194" y1="40" x2="1194" y2="60"/>
		<line class="st73" x1="1212.4" y1="104.4" x2="1226.5" y2="118.5"/>
		<line class="st73" x1="1161.5" y1="53.5" x2="1175.6" y2="67.6"/>
		<line class="st73" x1="1212.4" y1="67.6" x2="1226.5" y2="53.5"/>
		<line class="st73" x1="1161.5" y1="118.5" x2="1175.6" y2="104.4"/>
	</g>
	<g>
		<path class="st74" d="M30,102h30c0-11,9-20,20-20c5.2,0,9.9,2,13.5,5.2l0.3,0.2C98.9,78.2,108.7,72,120,72c16.6,0,30,13.4,30,30"
			/>
		<path class="st74" d="M110.9,60c0-11,9-20,20-20c7.5,0,14.1,4.2,17.5,10.3l0.2-0.1c2.4-2.2,5.5-3.5,9-3.5c7.4,0,13.3,6,13.3,13.3
			H192"/>
	</g>
	<path class="st75" d="M1109,284H811c-3.3,0-6-2.7-6-6v-72c0-3.3,2.7-6,6-6h298c3.3,0,6,2.7,6,6v72C1115,281.3,1112.3,284,1109,284z
		"/>
	<path class="st72" d="M34,50c0-11.8,6.8-22,16.7-26.9c1.6-0.8,1-3.1-0.7-3.1c-1.2,0-2.3,0.1-3.5,0.2C31.9,22,20.6,34.2,20,48.8
		C19.3,65.9,33,80,50,80c0,0,0,0,0.1,0c1.7,0,2.2-2.3,0.7-3.1C40.8,72,34,61.8,34,50z"/>
	<g>
		<line class="st74" x1="86" y1="31.5" x2="86" y2="39.5"/>
		<line class="st74" x1="90" y1="35.5" x2="82" y2="35.5"/>
	</g>
	<g>
		<line class="st74" x1="66" y1="51.5" x2="66" y2="59.5"/>
		<line class="st74" x1="70" y1="55.5" x2="62" y2="55.5"/>
	</g>
	<g>
		<line class="st74" x1="176" y1="81.5" x2="176" y2="89.5"/>
		<line class="st74" x1="180" y1="85.5" x2="172" y2="85.5"/>
	</g>
	<g>
		<path class="st35" d="M377.4,561c-0.9,0-1.7-0.1-2.6-0.1c-2.1,0-4.4-0.1-6.7-0.4c-1-0.1-1.7-0.5-2.4-1.2c-0.8-0.9-1.4-1.9-1.8-2.9
			c-0.9-2.5-1.3-4.6-1.2-6.7l0-0.2c0-0.6,0.1-2,1.4-2.7c0.4-0.2,0.8-0.3,1.3-0.3c0.9,0,1.5,0.4,2,0.7c0.2,0.1,0.3,0.2,0.5,0.3
			l0.1,0.1c0.6,0.5,1.3,0.8,2.1,0.8c0.4,0,0.9-0.1,1.4-0.2c0.3-0.1,0.6-0.1,0.9-0.2c-0.7-0.9-1.2-2-1.5-3.3c-0.5-2.3-0.1-4.8,1-6.5
			c1.2-1.8,3.1-2.9,5.2-2.9c1.6,0,3.1,0.6,4.3,1.8c0.3,0.3,0.6,0.6,0.9,0.9c0.2-0.1,0.4-0.2,0.5-0.4c0.2-0.2,0.5-0.4,0.7-0.7
			c0.2-0.2,0.7-0.6,1.4-0.6c0.3,0,0.7,0.1,1,0.3c0.8,0.5,0.9,1.4,0.9,1.7l0,0.1c0.1,0.9-0.2,1.7-0.4,2.4c0.1,0,0.2,0.1,0.3,0.1
			c1.2,0.3,1.5,1,1.7,1.6c0.1,0.6,0,1.5-1,2.2l-1.6,1.2c-0.4,0.3-0.7,0.8-0.9,1.5c0.4,0.2,0.8,0.5,1.2,0.7c3,1.8,4.3,4.9,3.5,8.6
			c-0.4,2.1-2.1,3.6-4.4,3.7c-2.3,0.1-4.5,0.2-7.1,0.2L377.4,561z"/>
		<path class="st76" d="M377.4,559.4c-2.8-0.1-5.9,0-9.1-0.5c-0.6-0.1-1-0.3-1.4-0.7c-0.6-0.7-1.2-1.5-1.5-2.4c-0.7-2-1.2-4-1.1-6.1
			c0-0.6,0-1.2,0.6-1.5c0.6-0.3,1.2,0,1.7,0.4c0.1,0.1,0.2,0.1,0.3,0.2c1.5,1.3,3.1,1.4,4.9,0.9c0.9-0.2,1.8-0.3,2.7-0.1
			c0.3,0.1,0.6,0,0.8-0.3c0.2-0.3,0-0.6-0.1-0.8c-0.1-0.1-0.3-0.3-0.4-0.3c-3-1.9-3.2-6.7-1.7-9.1c1.7-2.5,5-2.9,7.1-0.8
			c0.4,0.4,0.8,0.8,1.1,1.2c0.4,0.4,0.8,0.5,1.3,0.2c0.4-0.2,0.8-0.5,1.2-0.8c0.2-0.2,0.4-0.4,0.7-0.6c0.2-0.1,0.4-0.3,0.6-0.2
			c0.2,0.1,0.2,0.4,0.2,0.6c0.1,1-0.4,1.9-0.6,2.8c-0.2,0.6,0,0.8,0.5,0.9c0.4,0,0.7,0.1,1.1,0.3c0.2,0.1,0.5,0.1,0.6,0.4
			s-0.2,0.5-0.4,0.6c-0.5,0.4-1.1,0.8-1.6,1.3c-0.9,0.7-1.3,1.7-1.5,2.7c-0.1,0.6,0.1,1,0.6,1.3c0.5,0.3,0.9,0.6,1.4,0.8
			c2.8,1.6,3.3,4.4,2.8,6.9c-0.3,1.5-1.5,2.3-3,2.4C382.8,559.3,380.3,559.4,377.4,559.4z"/>
	</g>
	<g>
		<path class="st35" d="M339.6,547.2c-1,0-1.6-0.7-1.8-1c-0.4-0.5-0.7-1-0.9-1.4l-0.1-0.1c-0.5-0.8-0.9-1.5-1.3-2.3l-0.1-0.2
			c-0.4-0.6-0.7-1.3-1-1.9l-0.2-0.3c-0.6-1.2-1.3-2.5-1.7-4l-0.4,0.4l-0.8,0c-0.1,0-0.3,0-0.4,0c-0.2,0-0.4-0.1-0.6-0.1
			c-0.3,0-0.6,0-0.9,0.1c-0.2,0.1-0.3,0.1-0.5,0.2c-0.6,0.2-1.3,0.5-2.2,0.5l-0.1,0c-0.3,0-0.6,0-1-0.1l-3.8-1.1
			c-0.1,0-0.1,0-0.2-0.1l-1.2-0.4c-0.5-0.2-0.8-0.8-0.5-1.3l0.7-1.1c0.1-0.1,0.1-0.2,0.2-0.3c-1.2-0.1-2.3-0.4-3.1-0.6c0,0,0,0,0,0
			c-0.1,0-0.1,0.1-0.2,0.1l-1.8,0.7l-0.4,0c-1.2,0-2-1.1-2.2-1.7c-0.3-1-0.2-2.2,0.4-3.1c0.4-0.7,1.1-1.3,1.8-1.7
			c0.1,0,0.2-0.1,0.2-0.2c0.8-1.9,2.5-3.3,4.5-3.8c0.3-0.1,0.5-0.2,0.7-0.4c0.7-0.9,1.9-1.5,3-1.6c0.5-0.1,1-0.1,1.3-0.1l0.9,0
			c0.2,0,0.4,0,0.6,0c0.2,0,1.6-1,1.9-1.3c0.2-0.2,1.6-0.9,1.9-0.8c0,0,0,0,0,0c0,0,0.8,0.8,1.1,0.9c0.5,0.3,0.7,0.4,0.8,0.5
			l0.7,0.5c0.4,0.3,0.5,0.8,0.2,1.1l-0.4,0.6c0.1,0,0.1,0.1,0.2,0.1c1.3,0.9,2.4,1.9,3.3,3c1.1,1.4,1.9,3.1,2.2,4.7
			c0.2,1,0.1,1.9,0,2.7c-0.1,0.7-0.1,1.3,0,1.8c0.1,0.6,0.7,1.2,1.3,1.8l3.3,3.5c1.5,1.6,0.5,3.2,0.2,3.9l-0.1,0.2
			c-0.3,0.5-0.6,1-0.9,1.4l-0.3,0.4c-0.2,0.3-0.4,0.6-0.6,0.9C341.2,546.5,340.6,547.2,339.6,547.2L339.6,547.2z"/>
		<g id="o0vaul.tif">
			
				<image style="overflow:visible;" width="300" height="279" id="Layer_0_15_" xlink:href="7837AAC874E33ACC.png"  transform="matrix(9.142122e-02 0 0 9.142122e-02 314.8441 519.9023)">
			</image>
		</g>
	</g>
	<g>
		<g>
			<path class="st34" d="M154.1,379.3l-0.4-2.9l3.2-0.3l0.2,2.9l0.2,6.7l-2.1,0.2L154.1,379.3z M154.7,389.3
				c-0.1-1.1,0.6-2.1,1.7-2.2c1.1-0.1,2,0.7,2.2,1.8c0.1,1.1-0.6,2.1-1.7,2.2C155.7,391.2,154.8,390.4,154.7,389.3z"/>
			<path class="st34" d="M163.3,385.7c-0.6-6.1,3.5-10.6,8.8-11.2c4.7-0.5,8.1,2.4,8.5,7c0.4,4-2.1,6.3-4.4,6.5
				c-1.3,0.1-2.4-0.4-2.7-1.4l0,0c-0.5,0.9-1.6,1.6-2.5,1.7c-1.7,0.2-3-1-3.2-3c-0.3-2.7,1.4-5.6,3.9-5.8c0.7-0.1,1.3,0.2,1.8,0.9
				l0,0l0.2-0.9l2-0.2l-0.5,4.9c-0.2,1.3,0.2,1.9,1.2,1.8c1.3-0.1,2.5-1.8,2.2-4.2c-0.3-3.1-2.3-5.8-6.6-5.3c-3.7,0.4-7.1,4-6.6,8.9
				c0.4,4.3,3.6,6.1,7,5.7c1.1-0.1,2.4-0.6,3.2-1.2l0.9,1.7c-1.3,0.9-2.6,1.3-4.2,1.5C168.1,393.5,163.9,391.2,163.3,385.7z
				 M172.9,385.1l0.2-3c-0.3-0.4-0.6-0.6-1.1-0.5c-1.3,0.1-1.9,2-1.8,3.3c0.1,1,0.6,1.4,1.3,1.3C172,386.2,172.5,385.9,172.9,385.1z
				"/>
			<path class="st34" d="M186.6,383.7l-1.6,0.2l-0.2-2.1l1.9-0.2l0.1-2.4l-1.7,0.2l-0.2-2.1l2-0.2l0.1-3.7l1.8-0.2l-0.1,3.7l2.3-0.2
				l0.1-3.7l1.8-0.2l-0.1,3.7l1.7-0.2l0.2,2.1l-2,0.2l-0.1,2.4l1.8-0.2l0.2,2.1l-2.1,0.2l-0.1,4.1l-1.9,0.2l0.1-4.1l-2.3,0.2
				l-0.1,4.1l-1.9,0.2L186.6,383.7z M190.8,381.2l0.1-2.5l-2.3,0.2l-0.1,2.5L190.8,381.2z"/>
			<path class="st34" d="M199.1,385.1l1.2-2.3c1.2,0.7,2.2,1.1,3.3,1c1.2-0.1,1.7-0.7,1.6-1.7c-0.2-2.3-6-1.6-6.4-5.6
				c-0.3-2.5,1.3-4.3,4.1-4.6c1.9-0.2,3.2,0.5,4.4,1.4l-1.4,2c-0.9-0.6-1.6-1-2.5-0.9c-1.1,0.1-1.6,0.6-1.5,1.6
				c0.2,2.1,6,1.3,6.4,5.5c0.3,2.5-1.2,4.5-4.4,4.8C202.4,386.5,200.4,386.1,199.1,385.1z M201.4,369.8l2.1-0.2l0.3,3.2l-2.1,0.2
				L201.4,369.8z M203,385.1l2.1-0.2l0.4,3.5l-2.1,0.2L203,385.1z"/>
		</g>
	</g>
	<g>
		<line class="st77" x1="830" y1="235" x2="1090" y2="235"/>
		<line class="st77" x1="830" y1="251" x2="1030" y2="251"/>
		<line class="st77" x1="1046" y1="251" x2="1090" y2="251"/>
		<line class="st78" x1="830" y1="267" x2="890" y2="267"/>
		<line class="st79" x1="962" y1="267" x2="982" y2="267"/>
		<line class="st80" x1="906" y1="267" x2="946" y2="267"/>
		<line class="st77" x1="1038" y1="219" x2="1090" y2="219"/>
		<line class="st78" x1="922" y1="219" x2="1022" y2="219"/>
		<line class="st79" x1="830" y1="219" x2="850" y2="219"/>
		<line class="st80" x1="866" y1="219" x2="906" y2="219"/>
	</g>
	<circle class="st75" cx="795" cy="190" r="30"/>
	<g>
		<g>
			<polyline class="st27" points="786.7,193.9 780,190 786.7,186.1 			"/>
			<polyline class="st27" points="803.3,186.1 810,190 803.3,193.9 			"/>
			<line class="st27" x1="792" y1="198.8" x2="798" y2="181.2"/>
		</g>
	</g>
	<g>
		<g>
			<path class="st5" d="M194.6,185.1c0-3.5,2.3-5.5,4.9-5.5c1.3,0,2.4,0.6,3.1,1.4l-1.2,1.5c-0.5-0.5-1.1-0.8-1.8-0.8
				c-1.4,0-2.6,1.3-2.6,3.4c0,2.1,1,3.4,2.5,3.4c0.9,0,1.5-0.4,2-1l1.2,1.5c-0.9,1-2,1.5-3.4,1.5
				C196.8,190.5,194.6,188.6,194.6,185.1z"/>
			<path class="st5" d="M204.7,185c0-3.4,1.9-5.4,4.7-5.4s4.7,2,4.7,5.4c0,3.4-1.9,5.5-4.7,5.5S204.7,188.4,204.7,185z M211.8,185
				c0-2.1-0.9-3.3-2.3-3.3c-1.4,0-2.3,1.2-2.3,3.3s0.9,3.4,2.3,3.4C210.9,188.4,211.8,187.1,211.8,185z"/>
			<path class="st5" d="M217,179.8h2.9c3.2,0,5.2,1.6,5.2,5.2c0,3.6-2.1,5.3-5.1,5.3H217V179.8z M219.8,188.4c1.8,0,3-0.9,3-3.4
				s-1.2-3.3-3-3.3h-0.4v6.6H219.8z"/>
			<path class="st5" d="M227.9,179.8h6.5v2h-4.2v2.1h3.6v2h-3.6v2.4h4.3v2h-6.7V179.8z"/>
			<path class="st5" d="M241.5,179.8h2.4v10.4h-2.4V179.8z"/>
			<path class="st5" d="M249.2,181.8h-2.9v-2h8.1v2h-2.9v8.5h-2.4V181.8z"/>
			<path class="st5" d="M260.8,185.4v-5.6h2.4v5.8c0,2,0.6,2.7,1.8,2.7c1.2,0,1.8-0.7,1.8-2.7v-5.8h2.3v5.6c0,3.5-1.4,5-4.1,5
				S260.8,188.9,260.8,185.4z"/>
			<path class="st5" d="M272.3,179.8h3.6c2.3,0,4.1,0.8,4.1,3.4c0,2.5-1.9,3.5-4.1,3.5h-1.3v3.5h-2.4V179.8z M275.8,184.8
				c1.3,0,1.9-0.6,1.9-1.7c0-1.1-0.7-1.5-2-1.5h-1.1v3.1H275.8z"/>
		</g>
	</g>
	<path class="st75" d="M469,284H171c-3.3,0-6-2.7-6-6v-72c0-3.3,2.7-6,6-6h298c3.3,0,6,2.7,6,6v72C475,281.3,472.3,284,469,284z"/>
	<g>
		<line class="st77" x1="190" y1="235" x2="450" y2="235"/>
		<line class="st77" x1="190" y1="251" x2="390" y2="251"/>
		<line class="st77" x1="406" y1="251" x2="450" y2="251"/>
		<line class="st78" x1="190" y1="267" x2="250" y2="267"/>
		<line class="st79" x1="322" y1="267" x2="342" y2="267"/>
		<line class="st80" x1="266" y1="267" x2="306" y2="267"/>
		<line class="st77" x1="398" y1="219" x2="450" y2="219"/>
		<line class="st78" x1="282" y1="219" x2="382" y2="219"/>
		<line class="st79" x1="190" y1="219" x2="210" y2="219"/>
		<line class="st80" x1="226" y1="219" x2="266" y2="219"/>
	</g>
	<circle class="st75" cx="155" cy="190" r="30"/>
	<g>
		<g>
			<polyline class="st27" points="146.7,193.9 140,190 146.7,186.1 			"/>
			<polyline class="st27" points="163.3,186.1 170,190 163.3,193.9 			"/>
			<line class="st27" x1="152" y1="198.8" x2="158" y2="181.2"/>
		</g>
	</g>
</g>
</svg>
