<?xml version="1.0" encoding="utf-8"?>
<!-- Generator: Adobe Illustrator 21.0.2, SVG Export Plug-In . SVG Version: 6.00 Build 0)  -->
<svg version="1.1" id="Layer_1" xmlns="http://www.w3.org/2000/svg" xmlns:xlink="http://www.w3.org/1999/xlink" x="0px" y="0px"
	 viewBox="0 0 2500 2500" style="enable-background:new 0 0 2500 2500;" xml:space="preserve">
<style type="text/css">
	.st0{fill:#B44C56;}
</style>
<g>
	<path class="st0" d="M1360.9,839.1c-25.5,0,4.8,13.3,37.6,18.2c9.7-7.3,17-14.5,25.5-20.6C1403.3,841.5,1381.5,841.5,1360.9,839.1z
		 M1496.6,805.2c14.5-20.6,25.5-42.4,29.1-66.7c-3.6,17-12.1,31.5-20.6,47.3c-47.3,29.1-4.8-18.2,0-36.4
		C1454.2,813.7,1497.9,788.2,1496.6,805.2L1496.6,805.2z M1546.3,675.5c2.4-44.8-9.7-30.3-13.3-13.3
		C1537.9,664.6,1541.5,693.7,1546.3,675.5z M1265.2,57.4c14.5,2.4,29.1,3.6,27.9,7.3C1307.6,61,1310,58.6,1265.2,57.4z M1293,64.6
		l-9.7,1.2h8.5L1293,64.6z"/>
	<path class="st0" d="M1711.2,693.7c1.2,40-12.1,59.4-24.2,94.5l-21.8,10.9c-17,35.1,2.4,21.8-10.9,49.7
		c-27.9,24.2-83.6,77.6-101.8,82.4c-13.3-1.2,8.5-15.8,12.1-21.8c-37.6,25.4-30.3,38.8-87.3,53.3l-1.2-3.6
		c-140.6,66.7-335.7-64.2-333.3-242.4c-1.2,10.9-3.6,8.5-7.3,12.1c-7.3-90.9,42.4-183,126.1-220.6c82.4-41.2,178.2-24.2,236.3,30.3
		c-31.5-42.4-95.8-87.3-172.1-82.4c-73.9,1.2-144.2,48.5-167.3,99.4c-37.6,24.2-42.4,92.1-59.4,105.4
		c-21.8,163.6,42.4,235.1,151.5,318.8c17,10.9,4.9,13.3,7.3,21.8c-36.4-17-69.1-42.4-97-73.9c14.6,21.8,30.3,42.4,50.9,58.2
		c-35.1-12.1-80-82.4-93.3-86.1c58.2,105.4,238.8,185.4,332.1,145.4c-43.6,1.2-98.2,1.2-147.9-17c-20.6-10.9-48.5-32.7-43.6-36.4
		c129.7,47.3,261.8,36.4,373.3-53.3c27.9-21.8,59.4-59.4,67.9-59.4c-13.3,19.4,2.4,9.7-8.5,26.7c29.1-44.8-12.1-18.2,29.1-77.6
		l15.8,20.6c-6.1-37.6,47.3-83.6,41.2-143c12.1-18.2,13.3,19.4,1.2,61.8c18.2-47.3,4.9-54.5,9.7-93.3c4.9,13.3,10.9,26.7,14.5,41.2
		c-12.1-46.1,10.9-76.4,17-103c-6.1-2.4-18.2,20.6-20.6-32.7c1.2-23,7.3-12.1,8.5-18.2c-3.6-2.4-15.8-19.4-23-53.3
		c4.8-8.5,13.3,20.6,20.6,21.8c-3.6-27.9-12.1-48.5-12.1-69.1c-20.6-43.6-7.3,6.1-24.2-18.2c-23-69.1,18.2-17,20.6-47.3
		c33.9,48.5,53.3,123.6,61.8,155.1c-7.3-38.8-17-75.1-30.3-111.5c9.7,4.9-17-77.6,13.3-23c-32.7-117.6-136.9-226.6-232.7-277.6
		c12.1,10.9,26.7,24.2,21.8,26.7c-48.5-29.1-40-31.5-46.1-42.4c-38.8-15.8-41.2,1.2-67.9,0c-72.7-38.8-87.3-35.1-153.9-59.4
		l2.4,14.5c-48.5-17-55.8,6.1-109.1,0c-2.4-2.4,17-9.7,33.9-12.1c-47.3,6.1-44.8-8.5-90.9,2.4c10.9-8.5,23-13.3,35.1-20.6
		c-37.6,2.4-90.9,23-75.1,4.9c-61.8,27.9-172.1,66.7-235.1,124.8l-1.2-13.3C887,198,791.3,267.1,784,310.7l-7.3,2.4
		c-15.8,24.2-25.5,53.3-36.4,78.8c-19.4,32.7-29.1,12.1-25.4,18.2c-38.8,77.6-58.2,141.8-73.9,195.1c12.1,17,0,105.4,4.9,174.5
		c-19.4,346.6,242.4,682.4,528.4,759.9c42.4,14.5,104.2,14.5,157.6,15.8c-63-18.2-70.3-9.7-132.1-30.3
		c-43.6-21.8-53.3-44.9-84.8-71.5l13.3,21.8c-61.8-21.8-36.4-27.9-86.1-42.4l13.3-18.2c-19.4-1.2-52.1-32.7-61.8-50.9l-20.6,1.2
		c-26.7-32.7-40-55.8-38.8-73.9l-7.3,13.3c-8.5-13.3-95.7-121.2-50.9-95.8c-8.5-7.3-19.4-12.1-31.5-35.1l9.7-10.9
		c-21.8-27.9-41.2-64.2-40-76.4c12.1,15.8,20.6,19.4,27.9,21.8c-54.5-137-58.2-7.3-99.4-139.4l8.5-1.2c-7.3-9.7-10.9-21.8-17-32.7
		l4.9-37.6c-40-46.1-12.1-196.3-6.1-278.8c3.6-32.7,33.9-69.1,55.7-124.8l-13.3-2.4c25.4-44.8,147.9-181.8,204.8-174.5
		c26.7-33.9-6.1,0-10.9-8.5c60.6-63,78.8-44.8,120-55.8c43.6-25.4-37.6,9.7-17-9.7c75.1-19.4,53.3-43.6,152.7-53.3
		c9.7,4.9-24.2,8.5-32.7,15.8c63-30.3,198.8-23,288.5,18.2c103,47.3,218.2,190.3,223,323.6l4.8,1.2c-2.4,53.3,8.5,115.1-10.9,172.1
		L1711.2,693.7L1711.2,693.7z"/>
	<path class="st0" d="M1087,874.3l-3.6,17c15.8,23,29.1,47.3,50.9,64.2C1118.5,926.4,1107.6,914.3,1087,874.3L1087,874.3z
		 M1125.8,871.9c-8.5-9.7-14.5-20.6-19.4-32.7c4.9,20.6,17,38.8,26.7,55.8L1125.8,871.9z M1816.6,721.6l-3.6,9.7
		c-6,48.7-20.8,95.9-43.6,139.4C1794.8,824.6,1810.6,773.7,1816.6,721.6L1816.6,721.6z M1271.2,45.3c17-6.1,41.2-3.6,59.4-8.5
		c-23,2.4-47.3,3.6-70.3,6.1L1271.2,45.3L1271.2,45.3z M673.7,362.8c3.6,36.4-27.9,49.7,7.3,25.4C699.1,347,673.7,377.3,673.7,362.8
		z M633.7,530.1c7.3-24.2,8.5-38.8,12.1-52.1C624,505.8,636.1,511.9,633.7,530.1z"/>
</g>
</svg>
