<?xml version="1.0" encoding="utf-8"?>
<!-- Generator: Adobe Illustrator 22.0.1, SVG Export Plug-In . SVG Version: 6.00 Build 0)  -->
<svg version="1.1" id="Layer_1" xmlns="http://www.w3.org/2000/svg" xmlns:xlink="http://www.w3.org/1999/xlink" x="0px" y="0px"
	 viewBox="0 0 487 428" style="enable-background:new 0 0 487 428;" xml:space="preserve">
<style type="text/css">
	.st0{fill:#C9E9F4;}
	.st1{fill:#67BBE2;}
	.st2{fill:#9BDDF8;}
	.st3{fill:#666666;}
	.st4{fill:#333333;}
	.st5{fill:#1E1E1E;}
	.st6{fill:#FFFFFF;}
	.st7{fill:#CCCCCC;}
	.st8{fill:#AAAAAA;}
	.st9{fill:#EB2B2B;}
</style>
<title>forrester-ci-wave-graphic copy</title>
<desc>Created with Sketch.</desc>
<g id="Page-1">
	<g id="forrester-ci-wave-graphic-copy">
		<path id="Shape" class="st0" d="M172.6,29.2H79.9C79.9,220.7,235.2,376,426.7,376v-92.7C286.3,283.2,172.6,169.5,172.6,29.2"/>
		<path id="Shape_1_" class="st1" d="M426.7,189.6V29.1H266.2C266.2,117.7,338,189.6,426.7,189.6"/>
		<path id="Shape_2_" class="st2" d="M266.2,29.1h-93.6c0,140.3,113.7,254.1,254,254.1v-93.6C338,189.6,266.2,117.7,266.2,29.1"/>
		<path id="Shape_3_" class="st3" d="M426.2,29.6v376.6H49.6V29.6H426.2z M426.7,29.1H49.1v377.6h377.6V29.1z"/>
		<path id="Shape_4_" class="st4" d="M87.2,21.6c0,0.6,0.2,1.2,0.6,1.6c0.4,0.4,1.1,0.6,2.1,0.6c0.9,0,1.6-0.2,2-0.6
			c0.4-0.4,0.7-0.9,0.7-1.5c0-0.6-0.2-1-0.6-1.3c-0.3-0.2-0.8-0.4-1.6-0.5l-0.7-0.2c-0.3-0.1-0.6-0.2-0.7-0.3
			c-0.3-0.2-0.4-0.4-0.4-0.7c0-0.3,0.1-0.5,0.3-0.6c0.2-0.1,0.5-0.2,0.9-0.2c0.6,0,1.1,0.1,1.3,0.4c0.2,0.2,0.2,0.4,0.3,0.7h1
			c0-0.4-0.1-0.8-0.4-1.2c-0.4-0.6-1.1-0.8-2.1-0.8c-0.7,0-1.3,0.2-1.8,0.6c-0.4,0.4-0.7,0.9-0.7,1.5c0,0.5,0.2,0.9,0.7,1.2
			c0.3,0.2,0.7,0.3,1.2,0.5l0.9,0.2c0.5,0.1,0.8,0.2,0.9,0.3c0.2,0.1,0.4,0.4,0.4,0.6c0,0.4-0.2,0.6-0.5,0.8
			c-0.3,0.2-0.7,0.3-1.1,0.3c-0.7,0-1.2-0.2-1.4-0.5c-0.2-0.2-0.2-0.5-0.3-0.8h-1V21.6z M83.5,23.6h1.1v-3.7c0-0.5,0.1-0.9,0.4-1.2
			c0.3-0.3,0.7-0.5,1.2-0.5h0.2h0.2v-1.1c-0.1,0-0.2,0-0.2,0h-0.1c-0.4,0-0.8,0.2-1.1,0.5c-0.3,0.3-0.5,0.6-0.6,0.8v-1.1h-1
			L83.5,23.6L83.5,23.6z M77.5,19.9c0-0.5,0.2-1,0.5-1.4s0.7-0.5,1.2-0.5c0.7,0,1.2,0.3,1.5,0.8c0.2,0.3,0.3,0.7,0.3,1.1H77.5z
			 M79.3,17c-0.9,0-1.6,0.3-2.2,1c-0.6,0.6-0.8,1.5-0.8,2.5s0.3,1.9,0.8,2.4c0.6,0.6,1.2,0.9,2,0.9c0.3,0,0.6,0,0.9-0.1
			c0.5-0.1,0.9-0.3,1.2-0.6c0.2-0.2,0.4-0.4,0.5-0.7c0.2-0.3,0.3-0.6,0.3-0.8h-1c-0.1,0.3-0.2,0.5-0.4,0.8c-0.3,0.4-0.8,0.6-1.3,0.6
			c-0.6,0-1-0.2-1.3-0.6s-0.4-0.9-0.5-1.6h4.7c0-0.6,0-1.1-0.1-1.4c-0.1-0.4-0.2-0.8-0.4-1.1c-0.2-0.3-0.5-0.6-1-0.8
			C80.2,17.1,79.8,17,79.3,17z M74,20.3c0,0.5-0.1,1-0.3,1.4c-0.3,0.7-0.9,1-1.6,1c-0.5,0-0.9-0.2-1.2-0.6c-0.3-0.4-0.4-0.9-0.4-1.6
			c0-0.6,0.1-1.1,0.2-1.5c0.3-0.7,0.8-1.1,1.5-1.1c0.5,0,0.9,0.2,1.2,0.6C73.9,19,74,19.6,74,20.3z M72.1,17.1
			c-0.7,0-1.4,0.3-1.9,0.9s-0.8,1.4-0.8,2.5s0.3,2,0.8,2.4c0.5,0.5,1.1,0.7,1.8,0.7c0.5,0,0.9-0.1,1.2-0.2c0.3-0.2,0.6-0.4,0.8-0.7
			c0,0.9-0.1,1.5-0.2,1.8c-0.3,0.6-0.8,0.9-1.6,0.9c-0.5,0-0.9-0.1-1.1-0.4c-0.2-0.2-0.3-0.4-0.3-0.7h-1.1c0.1,0.7,0.3,1.1,0.8,1.5
			c0.5,0.3,1,0.5,1.7,0.5c1.2,0,2.1-0.4,2.5-1.3c0.2-0.5,0.4-1.1,0.4-1.9v-5.8h-1V18c-0.2-0.3-0.4-0.5-0.6-0.6
			C73,17.2,72.6,17.1,72.1,17.1z M63,23.6h1.1v-3.4c0-0.4,0-0.7,0.1-1c0.1-0.2,0.2-0.4,0.4-0.7c0.2-0.3,0.5-0.4,0.8-0.5
			c0.2-0.1,0.4-0.1,0.6-0.1c0.5,0,0.8,0.2,1,0.6c0.1,0.2,0.2,0.6,0.2,0.9v4h1.1v-4.1c0-0.6-0.1-1.1-0.3-1.5c-0.3-0.6-0.9-1-1.8-1
			c-0.4,0-0.8,0.1-1.1,0.2c-0.3,0.2-0.7,0.4-1,0.8v-0.9h-1L63,23.6L63,23.6z M57,19.9c0-0.5,0.2-1,0.5-1.4s0.7-0.5,1.2-0.5
			c0.7,0,1.2,0.3,1.5,0.8c0.2,0.3,0.3,0.7,0.3,1.1H57z M58.9,17c-0.9,0-1.6,0.3-2.2,1c-0.6,0.6-0.8,1.5-0.8,2.5s0.3,1.9,0.8,2.4
			c0.6,0.6,1.2,0.9,2,0.9c0.3,0,0.6,0,0.9-0.1c0.5-0.1,0.9-0.3,1.2-0.6c0.2-0.2,0.4-0.4,0.5-0.7c0.2-0.3,0.3-0.6,0.3-0.8h-1.1
			c-0.1,0.3-0.2,0.5-0.4,0.8c-0.3,0.4-0.8,0.6-1.3,0.6c-0.6,0-1-0.2-1.3-0.6s-0.4-0.9-0.5-1.6h4.7c0-0.6,0-1.1-0.1-1.4
			c-0.1-0.4-0.2-0.8-0.4-1.1c-0.2-0.3-0.5-0.6-1-0.8C59.8,17.1,59.3,17,58.9,17z M53.5,23.6h1.1v-8.8h-1.1V23.6z M50.8,23.6h1.1
			v-8.8h-1.1V23.6z M45.7,19.9c-0.6,0.1-1.1,0.3-1.5,0.6c-0.4,0.3-0.6,0.8-0.6,1.4c0,0.5,0.2,1,0.6,1.4c0.4,0.4,0.9,0.5,1.5,0.5
			c0.5,0,0.9-0.1,1.4-0.3s0.7-0.5,0.9-0.7c0,0.3,0.1,0.5,0.2,0.6c0.2,0.3,0.4,0.4,0.8,0.4c0.2,0,0.3,0,0.4,0c0.1,0,0.2,0,0.4-0.1
			v-0.8h-0.2h-0.2c-0.1,0-0.2,0-0.3-0.1C49,22.7,49,22.6,49,22.5v-3.7c0-0.6-0.2-1.1-0.7-1.3c-0.5-0.3-1.1-0.4-1.8-0.4
			c-0.6,0-1.2,0.2-1.7,0.5c-0.5,0.3-0.7,0.9-0.8,1.7h1c0-0.3,0.1-0.6,0.3-0.8c0.2-0.3,0.6-0.5,1.2-0.5c0.5,0,0.9,0.1,1.1,0.2
			c0.3,0.2,0.4,0.4,0.4,0.8c0,0.2,0,0.3-0.1,0.4c-0.1,0.2-0.2,0.3-0.5,0.3L45.7,19.9z M44.8,21.9c0-0.4,0.2-0.7,0.5-0.9
			c0.2-0.1,0.5-0.2,0.9-0.2l0.7-0.1c0.2,0,0.4-0.1,0.6-0.1c0.2-0.1,0.4-0.1,0.5-0.2v0.9c0,0.7-0.3,1.1-0.9,1.4
			C46.7,22.9,46.4,23,46,23c-0.3,0-0.6-0.1-0.8-0.3C44.9,22.4,44.8,22.2,44.8,21.9z M37.2,23.6h1.1v-3.4c0-0.9,0.2-1.4,0.5-1.7
			c0.4-0.3,0.8-0.5,1.2-0.5c0.5,0,0.9,0.2,1.1,0.5c0.1,0.2,0.2,0.6,0.2,1v4h1.1v-4.1c0-0.6-0.1-1.1-0.3-1.5c-0.3-0.6-1-1-1.9-1
			c-0.5,0-1,0.1-1.3,0.3c-0.2,0.1-0.4,0.4-0.7,0.7v-3.3h-1.1v9H37.2z M32.1,14.5c-1.3,0-2.3,0.5-3,1.4c-0.7,0.8-1,1.9-1,3.2
			c0,1.7,0.5,3,1.4,3.8c0.7,0.6,1.5,0.9,2.5,0.9c1.2,0,2.1-0.4,2.8-1.1c0.6-0.6,0.9-1.4,1-2.3h-1.2c-0.1,0.6-0.3,1-0.5,1.4
			c-0.5,0.7-1.1,1-2,1c-0.9,0-1.6-0.3-2.1-1c-0.5-0.6-0.7-1.5-0.7-2.5c0-1.3,0.3-2.2,0.8-2.8s1.2-0.9,2.1-0.9c0.7,0,1.2,0.2,1.6,0.5
			c0.4,0.3,0.6,0.8,0.8,1.3h1.2c-0.1-0.7-0.4-1.4-1-2C34.2,14.8,33.2,14.5,32.1,14.5z"/>
		<path id="Shape_5_" class="st4" d="M166.2,21.6c0,0.6,0.2,1.2,0.6,1.6c0.4,0.4,1.1,0.6,2.1,0.6c0.9,0,1.6-0.2,2-0.6
			c0.4-0.4,0.7-0.9,0.7-1.5c0-0.6-0.2-1-0.6-1.3c-0.3-0.2-0.8-0.4-1.6-0.5l-0.7-0.2c-0.3-0.1-0.6-0.2-0.7-0.3
			c-0.3-0.2-0.4-0.4-0.4-0.7c0-0.3,0.1-0.5,0.3-0.6c0.2-0.1,0.5-0.2,0.9-0.2c0.6,0,1.1,0.1,1.3,0.4c0.2,0.2,0.2,0.4,0.3,0.7h1
			c0-0.4-0.1-0.8-0.4-1.2c-0.4-0.6-1.1-0.8-2.1-0.8c-0.7,0-1.3,0.2-1.8,0.6c-0.4,0.4-0.7,0.9-0.7,1.5c0,0.5,0.2,0.9,0.7,1.2
			c0.3,0.2,0.7,0.3,1.2,0.5l0.9,0.2c0.5,0.1,0.8,0.2,0.9,0.3c0.2,0.1,0.4,0.4,0.4,0.6c0,0.4-0.2,0.6-0.5,0.8
			c-0.3,0.2-0.7,0.3-1.1,0.3c-0.7,0-1.2-0.2-1.4-0.5c-0.2-0.2-0.2-0.5-0.3-0.8h-1V21.6z M162.6,23.6h1.1v-3.7c0-0.5,0.1-0.9,0.4-1.2
			c0.3-0.3,0.7-0.5,1.2-0.5h0.2h0.2v-1.1c-0.1,0-0.2,0-0.2,0h-0.1c-0.4,0-0.8,0.2-1.1,0.5c-0.3,0.3-0.5,0.6-0.6,0.8v-1.1h-1
			L162.6,23.6L162.6,23.6z M156.5,19.9c0-0.5,0.2-1,0.5-1.4s0.7-0.5,1.2-0.5c0.7,0,1.2,0.3,1.5,0.8c0.2,0.3,0.3,0.7,0.3,1.1H156.5z
			 M158.4,17c-0.9,0-1.6,0.3-2.2,1c-0.6,0.6-0.8,1.5-0.8,2.5s0.3,1.9,0.8,2.4c0.6,0.6,1.2,0.9,2,0.9c0.3,0,0.6,0,0.9-0.1
			c0.5-0.1,0.9-0.3,1.2-0.6c0.2-0.2,0.4-0.4,0.5-0.7c0.2-0.3,0.3-0.6,0.3-0.8H160c-0.1,0.3-0.2,0.5-0.4,0.8
			c-0.3,0.4-0.8,0.6-1.3,0.6c-0.6,0-1-0.2-1.3-0.6s-0.4-0.9-0.5-1.6h4.7c0-0.6,0-1.1-0.1-1.4c-0.1-0.4-0.2-0.8-0.4-1.1
			c-0.2-0.3-0.5-0.6-1-0.8C159.2,17.1,158.8,17,158.4,17z M151.2,17.1c-0.9,0-1.6,0.3-2,1c-0.5,0.7-0.7,1.5-0.7,2.4
			c0,1,0.3,1.8,0.8,2.4s1.1,0.9,1.8,0.9c0.4,0,0.8-0.1,1.2-0.3c0.3-0.2,0.6-0.5,0.9-0.9v0.9h1v-8.8h-1V18c-0.2-0.3-0.5-0.5-0.6-0.6
			C152.1,17.2,151.7,17.1,151.2,17.1z M149.6,20.4c0-0.8,0.2-1.4,0.5-1.8c0.3-0.4,0.8-0.6,1.3-0.6s0.9,0.2,1.2,0.6
			c0.3,0.4,0.5,1,0.5,1.8c0,0.8-0.2,1.4-0.5,1.8c-0.3,0.4-0.7,0.6-1.2,0.6c-0.6,0-1.1-0.2-1.4-0.7C149.7,21.7,149.6,21.1,149.6,20.4
			z M142.1,23.6h1.1v-3.4c0-0.4,0-0.7,0.1-1c0.1-0.2,0.2-0.4,0.4-0.7s0.5-0.4,0.8-0.5c0.2-0.1,0.4-0.1,0.6-0.1c0.5,0,0.8,0.2,1,0.6
			c0.1,0.2,0.2,0.6,0.2,0.9v4h1.1v-4.1c0-0.6-0.1-1.1-0.3-1.5c-0.3-0.6-0.9-1-1.8-1c-0.4,0-0.8,0.1-1.1,0.2c-0.3,0.2-0.7,0.4-1,0.8
			v-0.9h-1L142.1,23.6L142.1,23.6z M136.1,19.9c0-0.5,0.2-1,0.5-1.4c0.3-0.4,0.7-0.5,1.2-0.5c0.7,0,1.2,0.3,1.5,0.8
			c0.2,0.3,0.3,0.7,0.3,1.1H136.1z M137.9,17c-0.9,0-1.6,0.3-2.2,1c-0.6,0.6-0.8,1.5-0.8,2.5s0.3,1.9,0.8,2.4c0.6,0.6,1.2,0.9,2,0.9
			c0.3,0,0.6,0,0.9-0.1c0.5-0.1,0.9-0.3,1.2-0.6c0.2-0.2,0.4-0.4,0.5-0.7c0.2-0.3,0.3-0.6,0.3-0.8h-1.1c-0.1,0.3-0.2,0.5-0.4,0.8
			c-0.3,0.4-0.8,0.6-1.3,0.6c-0.6,0-1-0.2-1.3-0.6s-0.4-0.9-0.5-1.6h4.7c0-0.6,0-1.1-0.1-1.4c-0.1-0.4-0.2-0.8-0.4-1.1
			c-0.2-0.3-0.5-0.6-1-0.8C138.8,17.1,138.4,17,137.9,17z M132.1,17.2h-0.9V18h0.9v4.2c0,0.4,0.1,0.7,0.3,1c0.2,0.3,0.5,0.4,1,0.4
			c0.2,0,0.3,0,0.4,0c0.1,0,0.3,0,0.4-0.1v-0.9H134h-0.2c-0.2,0-0.3,0-0.4-0.1c-0.2-0.1-0.2-0.2-0.2-0.4V18h1v-0.9h-1v-1.8h-1.1
			V17.2z M125.1,23.6h1.1v-3.4c0-0.4,0-0.7,0.1-1c0.1-0.2,0.2-0.4,0.4-0.7c0.2-0.3,0.5-0.4,0.8-0.5c0.2-0.1,0.4-0.1,0.6-0.1
			c0.5,0,0.8,0.2,1,0.6c0.1,0.2,0.2,0.6,0.2,0.9v4h1.1v-4.1c0-0.6-0.1-1.1-0.3-1.5c-0.3-0.6-0.9-1-1.8-1c-0.4,0-0.8,0.1-1.1,0.2
			c-0.3,0.2-0.7,0.4-1,0.8v-0.9h-1L125.1,23.6L125.1,23.6z M120.8,17c-0.9,0-1.6,0.3-2.2,1c-0.5,0.6-0.8,1.5-0.8,2.6
			c0,1,0.3,1.8,0.8,2.4s1.2,0.9,2.1,0.9c1,0,1.8-0.3,2.3-1c0.5-0.7,0.7-1.5,0.7-2.6c0-1.1-0.3-1.9-0.8-2.4S121.6,17,120.8,17z
			 M120.8,22.9c-0.6,0-1.1-0.2-1.4-0.7c-0.3-0.5-0.4-1-0.4-1.7s0.1-1.3,0.4-1.8c0.3-0.5,0.8-0.8,1.4-0.8c0.7,0,1.2,0.3,1.5,0.9
			c0.2,0.4,0.3,0.9,0.3,1.5c0,0.7-0.1,1.3-0.4,1.8C122,22.6,121.5,22.9,120.8,22.9z M113.2,14.5c-1.3,0-2.3,0.5-3,1.4
			c-0.7,0.8-1,1.9-1,3.2c0,1.7,0.5,3,1.4,3.8c0.7,0.6,1.5,0.9,2.5,0.9c1.2,0,2.1-0.4,2.8-1.1c0.6-0.6,0.9-1.4,1-2.3h-1.2
			c-0.1,0.6-0.3,1-0.5,1.4c-0.5,0.7-1.1,1-2,1c-0.9,0-1.6-0.3-2.1-1c-0.5-0.6-0.7-1.5-0.7-2.5c0-1.3,0.3-2.2,0.8-2.8
			s1.2-0.9,2.1-0.9c0.7,0,1.2,0.2,1.6,0.5c0.4,0.3,0.6,0.8,0.8,1.3h1.2c-0.1-0.7-0.4-1.4-1-2C115.3,14.8,114.3,14.5,113.2,14.5z"/>
		<path id="Shape_6_" class="st4" d="M363,21.6c0,0.6,0.2,1.2,0.6,1.6c0.4,0.4,1.1,0.6,2.1,0.6c0.9,0,1.6-0.2,2-0.6
			c0.4-0.4,0.7-0.9,0.7-1.5c0-0.6-0.2-1-0.6-1.3c-0.3-0.2-0.8-0.4-1.6-0.5l-0.7-0.2c-0.3-0.1-0.6-0.2-0.7-0.3
			c-0.3-0.2-0.4-0.4-0.4-0.7c0-0.3,0.1-0.5,0.3-0.6c0.2-0.1,0.5-0.2,0.9-0.2c0.6,0,1.1,0.1,1.3,0.4c0.2,0.2,0.2,0.4,0.3,0.7h1
			c0-0.4-0.1-0.8-0.4-1.2c-0.4-0.6-1.1-0.8-2.1-0.8c-0.7,0-1.3,0.2-1.8,0.6c-0.4,0.4-0.7,0.9-0.7,1.5c0,0.5,0.2,0.9,0.7,1.2
			c0.3,0.2,0.7,0.3,1.2,0.5L366,21c0.5,0.1,0.8,0.2,0.9,0.3c0.2,0.1,0.4,0.4,0.4,0.6c0,0.4-0.2,0.6-0.5,0.8
			c-0.3,0.2-0.7,0.3-1.1,0.3c-0.7,0-1.2-0.2-1.4-0.5c-0.2-0.2-0.2-0.5-0.3-0.8h-1V21.6z M359.3,23.6h1.1v-3.7c0-0.5,0.1-0.9,0.4-1.2
			c0.3-0.3,0.7-0.5,1.2-0.5h0.2h0.2v-1.1c-0.1,0-0.2,0-0.2,0h-0.1c-0.4,0-0.8,0.2-1.1,0.5c-0.3,0.3-0.5,0.6-0.6,0.8v-1.1h-1v6.3
			H359.3z M353.3,19.9c0-0.5,0.2-1,0.5-1.4c0.3-0.4,0.7-0.5,1.2-0.5c0.7,0,1.2,0.3,1.5,0.8c0.2,0.3,0.3,0.7,0.3,1.1H353.3z
			 M355.1,17c-0.9,0-1.6,0.3-2.2,1c-0.6,0.6-0.8,1.5-0.8,2.5s0.3,1.9,0.8,2.4c0.6,0.6,1.2,0.9,2,0.9c0.3,0,0.6,0,0.9-0.1
			c0.5-0.1,0.9-0.3,1.2-0.6c0.2-0.2,0.4-0.4,0.5-0.7c0.2-0.3,0.3-0.6,0.3-0.8h-1.1c-0.1,0.3-0.2,0.5-0.4,0.8
			c-0.3,0.4-0.8,0.6-1.3,0.6c-0.6,0-1-0.2-1.3-0.6c-0.3-0.4-0.4-0.9-0.5-1.6h4.7c0-0.6,0-1.1-0.1-1.4c-0.1-0.4-0.2-0.8-0.4-1.1
			c-0.2-0.3-0.5-0.6-1-0.8C356,17.1,355.6,17,355.1,17z M347.9,17.1c-0.9,0-1.6,0.3-2,1c-0.5,0.7-0.7,1.5-0.7,2.4
			c0,1,0.3,1.8,0.8,2.4s1.1,0.9,1.8,0.9c0.4,0,0.8-0.1,1.2-0.3c0.3-0.2,0.6-0.5,0.9-0.9v0.9h1v-8.8h-1V18c-0.2-0.3-0.5-0.5-0.6-0.6
			C348.8,17.2,348.4,17.1,347.9,17.1z M346.3,20.4c0-0.8,0.2-1.4,0.5-1.8c0.3-0.4,0.8-0.6,1.3-0.6s0.9,0.2,1.2,0.6
			c0.3,0.4,0.5,1,0.5,1.8c0,0.8-0.2,1.4-0.5,1.8c-0.3,0.4-0.7,0.6-1.2,0.6c-0.6,0-1.1-0.2-1.4-0.7C346.5,21.7,346.3,21.1,346.3,20.4
			z M340.6,19.9c-0.6,0.1-1.1,0.3-1.5,0.6s-0.6,0.8-0.6,1.4c0,0.5,0.2,1,0.6,1.4c0.4,0.4,0.9,0.5,1.5,0.5c0.5,0,0.9-0.1,1.4-0.3
			s0.7-0.5,0.9-0.7c0,0.3,0.1,0.5,0.2,0.6c0.2,0.3,0.4,0.4,0.8,0.4c0.2,0,0.3,0,0.4,0c0.1,0,0.2,0,0.4-0.1v-0.8h-0.2h-0.2
			c-0.1,0-0.2,0-0.3-0.1c-0.1-0.1-0.1-0.2-0.1-0.3v-3.7c0-0.6-0.2-1.1-0.7-1.3c-0.5-0.3-1.1-0.4-1.8-0.4c-0.6,0-1.2,0.2-1.7,0.5
			c-0.5,0.3-0.7,0.9-0.8,1.7h1c0-0.3,0.1-0.6,0.3-0.8c0.2-0.3,0.6-0.5,1.2-0.5c0.5,0,0.9,0.1,1.1,0.2c0.3,0.2,0.4,0.4,0.4,0.8
			c0,0.2,0,0.3-0.1,0.4c-0.1,0.2-0.2,0.3-0.5,0.3L340.6,19.9z M339.7,21.9c0-0.4,0.2-0.7,0.5-0.9c0.2-0.1,0.5-0.2,0.9-0.2l0.7-0.1
			c0.2,0,0.4-0.1,0.6-0.1c0.2-0.1,0.4-0.1,0.5-0.2v0.9c0,0.7-0.3,1.1-0.9,1.4c-0.4,0.2-0.7,0.3-1.1,0.3c-0.3,0-0.6-0.1-0.8-0.3
			C339.8,22.4,339.7,22.2,339.7,21.9z M332.8,19.9c0-0.5,0.2-1,0.5-1.4c0.3-0.4,0.7-0.5,1.2-0.5c0.7,0,1.2,0.3,1.5,0.8
			c0.2,0.3,0.3,0.7,0.3,1.1H332.8z M334.7,17c-0.9,0-1.6,0.3-2.2,1c-0.6,0.6-0.8,1.5-0.8,2.5s0.3,1.9,0.8,2.4c0.6,0.6,1.2,0.9,2,0.9
			c0.3,0,0.6,0,0.9-0.1c0.5-0.1,0.9-0.3,1.2-0.6c0.2-0.2,0.4-0.4,0.5-0.7c0.2-0.3,0.3-0.6,0.3-0.8h-1.1c-0.1,0.3-0.2,0.5-0.4,0.8
			c-0.3,0.4-0.8,0.6-1.3,0.6c-0.6,0-1-0.2-1.3-0.6c-0.3-0.4-0.4-0.9-0.5-1.6h4.7c0-0.6,0-1.1-0.1-1.4c-0.1-0.4-0.2-0.8-0.4-1.1
			c-0.2-0.3-0.5-0.6-1-0.8C335.6,17.1,335.1,17,334.7,17z M325.4,23.6h5.6v-1h-4.4v-7.7h-1.2V23.6z"/>
		<path id="Shape_7_" class="st4" d="M235.3,6.3c0,0.5-0.1,1-0.3,1.4c-0.3,0.7-0.9,1-1.6,1c-0.5,0-0.9-0.2-1.2-0.6
			c-0.3-0.4-0.4-0.9-0.4-1.6c0-0.6,0.1-1.1,0.2-1.5c0.3-0.7,0.8-1.1,1.5-1.1c0.5,0,0.9,0.2,1.2,0.6C235.1,5,235.3,5.6,235.3,6.3z
			 M233.3,3.1c-0.7,0-1.4,0.3-1.9,0.9s-0.8,1.4-0.8,2.5s0.3,2,0.8,2.4c0.5,0.5,1.1,0.7,1.8,0.7c0.5,0,0.9-0.1,1.2-0.2
			c0.3-0.2,0.6-0.4,0.8-0.7c0,0.9-0.1,1.5-0.2,1.8c-0.3,0.6-0.8,0.9-1.6,0.9c-0.5,0-0.9-0.1-1.1-0.4c-0.2-0.2-0.3-0.4-0.3-0.7h-1.1
			c0.1,0.7,0.3,1.1,0.8,1.5c0.5,0.3,1,0.5,1.7,0.5c1.2,0,2.1-0.4,2.5-1.3c0.2-0.5,0.4-1.1,0.4-1.9V3.2h-1V4
			c-0.2-0.3-0.4-0.5-0.6-0.6C234.3,3.2,233.8,3.1,233.3,3.1z M224.3,9.6h1.1V6.2c0-0.4,0-0.7,0.1-1c0.1-0.2,0.2-0.4,0.4-0.7
			c0.2-0.3,0.5-0.4,0.8-0.5c0.2-0.1,0.4-0.1,0.6-0.1c0.5,0,0.8,0.2,1,0.6c0.1,0.2,0.2,0.6,0.2,0.9v4h1.1V5.5c0-0.6-0.1-1.1-0.3-1.5
			c-0.3-0.6-0.9-1-1.8-1c-0.4,0-0.8,0.1-1.1,0.2c-0.3,0.2-0.7,0.4-1,0.8V3.2h-1L224.3,9.6L224.3,9.6z M220,3c-0.9,0-1.6,0.3-2.2,1
			c-0.5,0.6-0.8,1.5-0.8,2.6c0,1,0.3,1.8,0.8,2.4s1.2,0.9,2.1,0.9c1,0,1.8-0.3,2.3-1c0.5-0.7,0.7-1.5,0.7-2.6s-0.3-1.9-0.8-2.4
			S220.9,3,220,3z M220,8.9c-0.6,0-1.1-0.2-1.4-0.7c-0.3-0.5-0.4-1-0.4-1.7s0.1-1.3,0.4-1.8c0.3-0.5,0.8-0.8,1.4-0.8
			c0.7,0,1.2,0.3,1.5,0.9c0.2,0.4,0.3,0.9,0.3,1.5c0,0.7-0.1,1.3-0.4,1.8C221.2,8.6,220.7,8.9,220,8.9z M213.4,9.6h1.1V5.9
			c0-0.5,0.1-0.9,0.4-1.2c0.3-0.3,0.7-0.5,1.2-0.5h0.2h0.2V3.1c-0.1,0-0.2,0-0.2,0h-0.1c-0.4,0-0.8,0.2-1.1,0.5
			c-0.3,0.3-0.5,0.6-0.6,0.8V3.2h-1v6.4H213.4z M210.2,3.2h-0.9V4h0.9v4.2c0,0.4,0.1,0.7,0.3,1s0.5,0.4,1,0.4c0.2,0,0.3,0,0.4,0
			c0.1,0,0.3,0,0.4-0.1V8.7h-0.2h-0.2c-0.2,0-0.3,0-0.4-0.1c-0.2-0.1-0.2-0.2-0.2-0.4V4h1V3.2h-1V1.4h-1.1V3.2z M201.6,6.7
			c0,0.9,0.3,1.7,0.9,2.3s1.4,0.8,2.5,0.8c0.9,0,1.7-0.2,2.4-0.6c0.7-0.4,1-1.1,1-2.1c0-0.8-0.3-1.4-0.8-1.8
			c-0.3-0.2-0.8-0.4-1.3-0.6l-1.2-0.3c-0.8-0.2-1.3-0.4-1.5-0.5c-0.3-0.2-0.5-0.5-0.5-0.9s0.1-0.7,0.4-1s0.8-0.4,1.5-0.4
			c0.8,0,1.4,0.2,1.8,0.7c0.2,0.3,0.3,0.6,0.4,1.1h1.1c0-1-0.3-1.7-0.9-2.1c-0.6-0.4-1.4-0.7-2.3-0.7c-1,0-1.7,0.3-2.3,0.8
			c-0.5,0.5-0.8,1.2-0.8,1.9s0.3,1.3,0.8,1.6c0.3,0.2,0.8,0.4,1.6,0.6l1.2,0.3c0.6,0.1,1.1,0.3,1.4,0.5c0.3,0.2,0.4,0.5,0.4,1
			c0,0.6-0.3,1.1-1,1.3c-0.4,0.1-0.7,0.2-1.2,0.2c-1,0-1.6-0.3-2-0.9c-0.2-0.3-0.3-0.7-0.3-1.2H201.6z"/>
		<path id="Shape_8_" class="st4" d="M244,21.6c0,0.6,0.2,1.2,0.6,1.6c0.4,0.4,1.1,0.6,2.1,0.6c0.9,0,1.6-0.2,2-0.6
			c0.4-0.4,0.7-0.9,0.7-1.5c0-0.6-0.2-1-0.6-1.3c-0.3-0.2-0.8-0.4-1.6-0.5l-0.7-0.2c-0.3-0.1-0.6-0.2-0.7-0.3
			c-0.3-0.2-0.4-0.4-0.4-0.7c0-0.3,0.1-0.5,0.3-0.6s0.5-0.2,0.9-0.2c0.6,0,1.1,0.1,1.3,0.4c0.2,0.2,0.2,0.4,0.3,0.7h1
			c0-0.4-0.1-0.8-0.4-1.2c-0.4-0.6-1.1-0.8-2.1-0.8c-0.7,0-1.3,0.2-1.8,0.6c-0.4,0.4-0.7,0.9-0.7,1.5c0,0.5,0.2,0.9,0.7,1.2
			c0.3,0.2,0.7,0.3,1.2,0.5L247,21c0.5,0.1,0.8,0.2,0.9,0.3c0.2,0.1,0.4,0.4,0.4,0.6c0,0.4-0.2,0.6-0.5,0.8
			c-0.3,0.2-0.7,0.3-1.1,0.3c-0.7,0-1.2-0.2-1.4-0.5c-0.2-0.2-0.2-0.5-0.3-0.8h-1V21.6z M240.3,23.6h1.1v-3.7c0-0.5,0.1-0.9,0.4-1.2
			c0.3-0.3,0.7-0.5,1.2-0.5h0.2h0.2v-1.1c-0.1,0-0.2,0-0.2,0h-0.1c-0.4,0-0.8,0.2-1.1,0.5c-0.3,0.3-0.5,0.6-0.6,0.8v-1.1h-1
			L240.3,23.6L240.3,23.6z M234.3,19.9c0-0.5,0.2-1,0.5-1.4s0.7-0.5,1.2-0.5c0.7,0,1.2,0.3,1.5,0.8c0.2,0.3,0.3,0.7,0.3,1.1H234.3z
			 M236.1,17c-0.9,0-1.6,0.3-2.2,1c-0.6,0.6-0.8,1.5-0.8,2.5s0.3,1.9,0.8,2.4c0.6,0.6,1.2,0.9,2,0.9c0.3,0,0.6,0,0.9-0.1
			c0.5-0.1,0.9-0.3,1.2-0.6c0.2-0.2,0.4-0.4,0.5-0.7c0.2-0.3,0.3-0.6,0.3-0.8h-1.1c-0.1,0.3-0.2,0.5-0.4,0.8
			c-0.3,0.4-0.8,0.6-1.3,0.6c-0.6,0-1-0.2-1.3-0.6s-0.4-0.9-0.5-1.6h4.7c0-0.6,0-1.1-0.1-1.4c-0.1-0.4-0.2-0.8-0.4-1.1
			c-0.2-0.3-0.5-0.6-1-0.8C237,17.1,236.6,17,236.1,17z M223.3,23.6h1.1v-3.4c0-0.8,0.2-1.4,0.5-1.7c0.3-0.3,0.7-0.5,1.1-0.5
			s0.8,0.1,0.9,0.4c0.1,0.2,0.2,0.5,0.2,1v4.2h1.1v-3.7c0-0.7,0.2-1.1,0.5-1.4s0.7-0.4,1.1-0.4c0.3,0,0.6,0.1,0.8,0.2
			c0.2,0.2,0.3,0.5,0.3,0.9v4.5h1.1v-4.3c0-0.6-0.1-1-0.3-1.4c-0.3-0.6-0.9-0.9-1.8-0.9c-0.4,0-0.8,0.1-1.1,0.2
			c-0.3,0.2-0.6,0.4-0.8,0.8c-0.1-0.3-0.3-0.5-0.5-0.6c-0.3-0.3-0.7-0.4-1.2-0.4s-0.9,0.1-1.2,0.4c-0.2,0.1-0.4,0.4-0.7,0.7v-0.9
			h-1.1V23.6z M219.2,23.6h1.1v-3.7c0-0.5,0.1-0.9,0.4-1.2c0.3-0.3,0.7-0.5,1.2-0.5h0.2h0.2v-1.1c-0.1,0-0.2,0-0.2,0H222
			c-0.4,0-0.8,0.2-1.1,0.5c-0.3,0.3-0.5,0.6-0.6,0.8v-1.1h-1v6.3H219.2z M214.9,17c-0.9,0-1.6,0.3-2.2,1c-0.5,0.6-0.8,1.5-0.8,2.6
			c0,1,0.3,1.8,0.8,2.4s1.2,0.9,2.1,0.9c1,0,1.8-0.3,2.3-1c0.5-0.7,0.7-1.5,0.7-2.6c0-1.1-0.3-1.9-0.8-2.4S215.8,17,214.9,17z
			 M214.9,22.9c-0.6,0-1.1-0.2-1.4-0.7s-0.4-1-0.4-1.7s0.1-1.3,0.4-1.8s0.8-0.8,1.4-0.8c0.7,0,1.2,0.3,1.5,0.9
			c0.2,0.4,0.3,0.9,0.3,1.5c0,0.7-0.1,1.3-0.4,1.8C216.1,22.6,215.6,22.9,214.9,22.9z M209.2,16.2v1h-0.9V18h0.9v5.5h1.1V18h1.1
			v-0.8h-1.1c0-0.7,0-1.1,0.1-1.3c0.1-0.2,0.3-0.3,0.6-0.3h0.1c0.1,0,0.1,0,0.2,0v-1c-0.1,0-0.2,0-0.2,0h-0.2
			c-0.7,0-1.2,0.2-1.5,0.5C209.3,15.4,209.3,15.7,209.2,16.2z M204.9,23.6h1.1v-3.7c0-0.5,0.1-0.9,0.4-1.2c0.3-0.3,0.7-0.5,1.2-0.5
			h0.2h0.2v-1.1c-0.1,0-0.2,0-0.2,0h-0.1c-0.4,0-0.8,0.2-1.1,0.5c-0.3,0.3-0.5,0.6-0.6,0.8v-1.1h-1v6.3H204.9z M198.9,19.9
			c0-0.5,0.2-1,0.5-1.4c0.3-0.4,0.7-0.5,1.2-0.5c0.7,0,1.2,0.3,1.5,0.8c0.2,0.3,0.3,0.7,0.3,1.1H198.9z M200.7,17
			c-0.9,0-1.6,0.3-2.2,1c-0.6,0.6-0.8,1.5-0.8,2.5s0.3,1.9,0.8,2.4c0.6,0.6,1.2,0.9,2,0.9c0.3,0,0.6,0,0.9-0.1
			c0.5-0.1,0.9-0.3,1.2-0.6c0.2-0.2,0.4-0.4,0.5-0.7c0.2-0.3,0.3-0.6,0.3-0.8h-1.1c-0.1,0.3-0.2,0.5-0.4,0.8
			c-0.3,0.4-0.8,0.6-1.3,0.6c-0.6,0-1-0.2-1.3-0.6s-0.4-0.9-0.5-1.6h4.7c0-0.6,0-1.1-0.1-1.4c-0.1-0.4-0.2-0.8-0.4-1.1
			c-0.2-0.3-0.5-0.6-1-0.8C201.6,17.1,201.2,17,200.7,17z M195.5,17.3c0,0.6-0.2,1-0.5,1.2s-0.8,0.3-1.3,0.3h-2.4v-3h2.4
			c0.5,0,0.8,0.1,1.1,0.2C195.3,16.2,195.5,16.7,195.5,17.3z M190.2,23.6h1.2v-3.7h2.7c0.9,0,1.5-0.3,2-0.8c0.4-0.5,0.6-1.1,0.6-1.8
			c0-0.8-0.2-1.4-0.7-1.9c-0.5-0.4-1.1-0.7-1.9-0.7h-3.9V23.6z"/>
		<path id="Shape_9_" class="st4" d="M257.4,423.8l-1.7-5.2h-1.2l2.4,6.6c-0.1,0.1-0.1,0.4-0.3,0.7c-0.1,0.3-0.2,0.5-0.2,0.5
			c-0.1,0.1-0.1,0.2-0.2,0.2c-0.1,0.1-0.2,0.1-0.4,0.1h-0.2c-0.1,0-0.2,0-0.4-0.1v1c0.1,0,0.2,0.1,0.3,0.1s0.2,0,0.3,0
			c0.6,0,1.1-0.2,1.3-0.5c0.3-0.4,0.7-1.4,1.3-3c0.3-0.7,0.6-1.6,1-2.7c0.5-1.5,0.9-2.4,1-2.8h-1.2L257.4,423.8z M252.5,421.7
			c0,0.5-0.1,1-0.3,1.4c-0.3,0.7-0.9,1-1.6,1c-0.5,0-0.9-0.2-1.2-0.6c-0.3-0.4-0.4-0.9-0.4-1.6c0-0.6,0.1-1.1,0.2-1.5
			c0.3-0.7,0.8-1.1,1.5-1.1c0.5,0,0.9,0.2,1.2,0.6C252.3,420.3,252.5,420.9,252.5,421.7z M250.6,418.4c-0.7,0-1.4,0.3-1.9,0.9
			c-0.5,0.6-0.8,1.4-0.8,2.5c0,1.1,0.3,2,0.8,2.4c0.5,0.5,1.1,0.7,1.8,0.7c0.5,0,0.9-0.1,1.2-0.2c0.3-0.2,0.6-0.4,0.8-0.7
			c0,0.9-0.1,1.5-0.2,1.8c-0.3,0.6-0.8,0.9-1.6,0.9c-0.5,0-0.9-0.1-1.1-0.4c-0.2-0.2-0.3-0.4-0.3-0.7h-1.1c0.1,0.7,0.3,1.1,0.8,1.5
			c0.5,0.3,1,0.5,1.7,0.5c1.2,0,2.1-0.4,2.5-1.3c0.2-0.5,0.4-1.1,0.4-1.9v-5.8h-1v0.8c-0.2-0.3-0.4-0.5-0.6-0.6
			C251.5,418.6,251.1,418.4,250.6,418.4z M242.3,421.2c0-0.5,0.2-1,0.5-1.4c0.3-0.4,0.7-0.5,1.2-0.5c0.7,0,1.2,0.3,1.5,0.8
			c0.2,0.3,0.3,0.7,0.3,1.1H242.3z M244.2,418.4c-0.9,0-1.6,0.3-2.2,1c-0.6,0.6-0.8,1.5-0.8,2.5s0.3,1.9,0.8,2.4
			c0.6,0.6,1.2,0.9,2,0.9c0.3,0,0.6,0,0.9-0.1c0.5-0.1,0.9-0.3,1.2-0.6c0.2-0.2,0.4-0.4,0.5-0.7c0.2-0.3,0.3-0.6,0.3-0.8h-1.1
			c-0.1,0.3-0.2,0.5-0.4,0.8c-0.3,0.4-0.8,0.6-1.3,0.6c-0.6,0-1-0.2-1.3-0.6c-0.3-0.4-0.4-0.9-0.5-1.6h4.7c0-0.6,0-1.1-0.1-1.4
			c-0.1-0.4-0.2-0.8-0.4-1.1c-0.2-0.3-0.5-0.6-1-0.8C245,418.5,244.6,418.4,244.2,418.4z M238.3,418.5h-0.9v0.9h0.9v4.2
			c0,0.4,0.1,0.7,0.3,1c0.2,0.3,0.5,0.4,1,0.4c0.2,0,0.3,0,0.4,0s0.3,0,0.4-0.1V424h-0.2H240c-0.2,0-0.3,0-0.4-0.1
			c-0.2-0.1-0.2-0.2-0.2-0.4v-4.2h1v-0.9h-1v-1.8h-1.1V418.5z M233,421.3c-0.6,0.1-1.1,0.3-1.5,0.6c-0.4,0.3-0.6,0.8-0.6,1.4
			c0,0.5,0.2,1,0.6,1.4c0.4,0.4,0.9,0.5,1.5,0.5c0.5,0,0.9-0.1,1.4-0.3c0.5-0.2,0.7-0.5,0.9-0.7c0,0.3,0.1,0.5,0.2,0.6
			c0.2,0.3,0.4,0.4,0.8,0.4c0.2,0,0.3,0,0.4,0c0.1,0,0.2,0,0.4-0.1v-0.8h-0.2h-0.2c-0.1,0-0.2,0-0.3-0.1c-0.1-0.1-0.1-0.2-0.1-0.3
			v-3.7c0-0.6-0.2-1.1-0.7-1.3c-0.5-0.3-1.1-0.4-1.8-0.4c-0.6,0-1.2,0.2-1.7,0.5s-0.7,0.9-0.8,1.7h1c0-0.3,0.1-0.6,0.3-0.8
			c0.2-0.3,0.6-0.5,1.2-0.5c0.5,0,0.9,0.1,1.1,0.2c0.3,0.2,0.4,0.4,0.4,0.8c0,0.2,0,0.3-0.1,0.4c-0.1,0.2-0.2,0.3-0.5,0.3L233,421.3
			z M232.1,423.2c0-0.4,0.2-0.7,0.5-0.9c0.2-0.1,0.5-0.2,0.9-0.2l0.7-0.1c0.2,0,0.4-0.1,0.6-0.1c0.2-0.1,0.4-0.1,0.5-0.2v0.9
			c0,0.7-0.3,1.1-0.9,1.4c-0.4,0.2-0.7,0.3-1.1,0.3c-0.3,0-0.6-0.1-0.8-0.3C232.2,423.8,232.1,423.6,232.1,423.2z M227.2,425h1.1
			v-3.7c0-0.5,0.1-0.9,0.4-1.2c0.3-0.3,0.7-0.5,1.2-0.5h0.2h0.2v-1.1c-0.1,0-0.2,0-0.2,0H230c-0.4,0-0.8,0.2-1.1,0.5
			c-0.3,0.3-0.5,0.6-0.6,0.8v-1.1h-1v6.3H227.2z M224,418.5h-0.9v0.9h0.9v4.2c0,0.4,0.1,0.7,0.3,1c0.2,0.3,0.5,0.4,1,0.4
			c0.2,0,0.3,0,0.4,0c0.1,0,0.3,0,0.4-0.1V424h-0.2h-0.2c-0.2,0-0.3,0-0.4-0.1c-0.2-0.1-0.2-0.2-0.2-0.4v-4.2h1v-0.9h-1v-1.8H224
			V418.5z M215.4,422.1c0,0.9,0.3,1.7,0.9,2.3c0.6,0.6,1.4,0.8,2.5,0.8c0.9,0,1.7-0.2,2.4-0.6s1-1.1,1-2.1c0-0.8-0.3-1.4-0.8-1.8
			c-0.3-0.2-0.8-0.4-1.3-0.6l-1.2-0.3c-0.8-0.2-1.3-0.4-1.5-0.5c-0.3-0.2-0.5-0.5-0.5-0.9s0.1-0.7,0.4-1c0.3-0.3,0.8-0.4,1.5-0.4
			c0.8,0,1.4,0.2,1.8,0.7c0.2,0.3,0.3,0.6,0.4,1.1h1.1c0-1-0.3-1.7-0.9-2.1c-0.6-0.4-1.4-0.7-2.3-0.7c-1,0-1.7,0.3-2.3,0.8
			c-0.5,0.5-0.8,1.2-0.8,1.9c0,0.7,0.3,1.3,0.8,1.6c0.3,0.2,0.8,0.4,1.6,0.6l1.2,0.3c0.6,0.1,1.1,0.3,1.4,0.5c0.3,0.2,0.4,0.5,0.4,1
			c0,0.6-0.3,1.1-1,1.3c-0.4,0.1-0.7,0.2-1.2,0.2c-1,0-1.6-0.3-2-0.9c-0.2-0.3-0.3-0.7-0.3-1.2H215.4z"/>
		<path id="Shape_10_" class="st4" d="M81.8,425h1v-2.4l0.9-0.9l2,3.3h1.4l-2.6-4l2.5-2.4h-1.4l-2.8,2.7v-5.1h-1V425z M76.8,421.3
			c-0.6,0.1-1.1,0.3-1.5,0.6c-0.4,0.3-0.6,0.8-0.6,1.4c0,0.5,0.2,1,0.6,1.4c0.4,0.4,0.9,0.5,1.5,0.5c0.5,0,0.9-0.1,1.4-0.3
			c0.5-0.2,0.7-0.5,0.9-0.7c0,0.3,0.1,0.5,0.2,0.6c0.2,0.3,0.4,0.4,0.8,0.4c0.2,0,0.3,0,0.4,0s0.2,0,0.4-0.1v-0.8h-0.2h-0.2
			c-0.1,0-0.2,0-0.3-0.1c-0.1-0.1-0.1-0.2-0.1-0.3v-3.7c0-0.6-0.2-1.1-0.7-1.3c-0.5-0.3-1.1-0.4-1.8-0.4c-0.6,0-1.2,0.2-1.7,0.5
			s-0.7,0.9-0.8,1.7h1c0-0.3,0.1-0.6,0.3-0.8c0.2-0.3,0.6-0.5,1.2-0.5c0.5,0,0.9,0.1,1.1,0.2c0.3,0.2,0.4,0.4,0.4,0.8
			c0,0.2,0,0.3-0.1,0.4c-0.1,0.2-0.2,0.3-0.5,0.3L76.8,421.3z M75.9,423.2c0-0.4,0.2-0.7,0.5-0.9c0.2-0.1,0.5-0.2,0.9-0.2L78,422
			c0.2,0,0.4-0.1,0.6-0.1c0.2-0.1,0.4-0.1,0.5-0.2v0.9c0,0.7-0.3,1.1-0.9,1.4c-0.4,0.2-0.7,0.3-1.1,0.3c-0.3,0-0.6-0.1-0.8-0.3
			C76,423.8,75.9,423.6,75.9,423.2z M69,421.2c0-0.5,0.2-1,0.5-1.4c0.3-0.4,0.7-0.5,1.2-0.5c0.7,0,1.2,0.3,1.5,0.8
			c0.2,0.3,0.3,0.7,0.3,1.1H69z M70.9,418.4c-0.9,0-1.6,0.3-2.2,1c-0.6,0.6-0.8,1.5-0.8,2.5s0.3,1.9,0.8,2.4c0.6,0.6,1.2,0.9,2,0.9
			c0.3,0,0.6,0,0.9-0.1c0.5-0.1,0.9-0.3,1.2-0.6c0.2-0.2,0.4-0.4,0.5-0.7c0.2-0.3,0.3-0.6,0.3-0.8h-1.1c-0.1,0.3-0.2,0.5-0.4,0.8
			c-0.3,0.4-0.8,0.6-1.3,0.6c-0.6,0-1-0.2-1.3-0.6c-0.3-0.4-0.4-0.9-0.5-1.6h4.7c0-0.6,0-1.1-0.1-1.4c-0.1-0.4-0.2-0.8-0.4-1.1
			c-0.2-0.3-0.5-0.6-1-0.8C71.8,418.5,71.3,418.4,70.9,418.4z M56.3,416.2l2.3,8.8h1.3l2-7.3l2,7.3h1.2l2.3-8.8h-1.3l-1.7,7.2
			l-2-7.2h-1.3l-2,7.1l-1.7-7.1H56.3z"/>
		<path id="Shape_11_" class="st4" d="M417.1,421.7c0,0.5-0.1,1-0.3,1.4c-0.3,0.7-0.9,1-1.6,1c-0.5,0-0.9-0.2-1.2-0.6
			s-0.4-0.9-0.4-1.6c0-0.6,0.1-1.1,0.2-1.5c0.3-0.7,0.8-1.1,1.5-1.1c0.5,0,0.9,0.2,1.2,0.6C417,420.3,417.1,420.9,417.1,421.7z
			 M415.2,418.4c-0.7,0-1.4,0.3-1.9,0.9c-0.5,0.6-0.8,1.4-0.8,2.5c0,1.1,0.3,2,0.8,2.4c0.5,0.5,1.1,0.7,1.8,0.7
			c0.5,0,0.9-0.1,1.2-0.2c0.3-0.2,0.6-0.4,0.8-0.7c0,0.9-0.1,1.5-0.2,1.8c-0.3,0.6-0.8,0.9-1.6,0.9c-0.5,0-0.9-0.1-1.1-0.4
			c-0.2-0.2-0.3-0.4-0.3-0.7h-1.1c0.1,0.7,0.3,1.1,0.8,1.5c0.5,0.3,1,0.5,1.7,0.5c1.2,0,2.1-0.4,2.5-1.3c0.2-0.5,0.4-1.1,0.4-1.9
			v-5.8h-1v0.8c-0.2-0.3-0.4-0.5-0.6-0.6C416.2,418.6,415.7,418.4,415.2,418.4z M406.2,425h1.1v-3.4c0-0.4,0-0.7,0.1-1
			c0.1-0.2,0.2-0.4,0.4-0.7c0.2-0.3,0.5-0.4,0.8-0.5c0.2-0.1,0.4-0.1,0.6-0.1c0.5,0,0.8,0.2,1,0.6c0.1,0.2,0.2,0.6,0.2,0.9v4h1.1
			v-4.1c0-0.6-0.1-1.1-0.3-1.5c-0.3-0.6-0.9-1-1.8-1c-0.4,0-0.8,0.1-1.1,0.2c-0.3,0.2-0.7,0.4-1,0.8v-0.9h-1L406.2,425L406.2,425z
			 M401.9,418.4c-0.9,0-1.6,0.3-2.2,1c-0.5,0.6-0.8,1.5-0.8,2.6c0,1,0.3,1.8,0.8,2.4s1.2,0.9,2.1,0.9c1,0,1.8-0.3,2.3-1
			c0.5-0.7,0.7-1.5,0.7-2.6c0-1.1-0.3-1.9-0.8-2.4S402.7,418.4,401.9,418.4z M401.9,424.2c-0.6,0-1.1-0.2-1.4-0.7s-0.4-1-0.4-1.7
			c0-0.7,0.1-1.3,0.4-1.8s0.8-0.8,1.4-0.8c0.7,0,1.2,0.3,1.5,0.9c0.2,0.4,0.3,0.9,0.3,1.5c0,0.7-0.1,1.3-0.4,1.8
			C403.1,424,402.6,424.2,401.9,424.2z M395.3,425h1.1v-3.7c0-0.5,0.1-0.9,0.4-1.2c0.3-0.3,0.7-0.5,1.2-0.5h0.2h0.2v-1.1
			c-0.1,0-0.2,0-0.2,0h-0.1c-0.4,0-0.8,0.2-1.1,0.5s-0.5,0.6-0.6,0.8v-1.1h-1v6.3H395.3z M392.1,418.5h-0.9v0.9h0.9v4.2
			c0,0.4,0.1,0.7,0.3,1c0.2,0.3,0.5,0.4,1,0.4c0.2,0,0.3,0,0.4,0c0.1,0,0.3,0,0.4-0.1V424H394h-0.2c-0.2,0-0.3,0-0.4-0.1
			c-0.2-0.1-0.2-0.2-0.2-0.4v-4.2h1v-0.9h-1v-1.8h-1.1V418.5z M383.5,422.1c0,0.9,0.3,1.7,0.9,2.3s1.4,0.8,2.5,0.8
			c0.9,0,1.7-0.2,2.4-0.6c0.7-0.4,1-1.1,1-2.1c0-0.8-0.3-1.4-0.8-1.8c-0.3-0.2-0.8-0.4-1.3-0.6l-1.2-0.3c-0.8-0.2-1.3-0.4-1.5-0.5
			c-0.3-0.2-0.5-0.5-0.5-0.9s0.1-0.7,0.4-1c0.3-0.3,0.8-0.4,1.5-0.4c0.8,0,1.4,0.2,1.8,0.7c0.2,0.3,0.3,0.6,0.4,1.1h1.1
			c0-1-0.3-1.7-0.9-2.1c-0.6-0.4-1.4-0.7-2.3-0.7c-1,0-1.7,0.3-2.3,0.8c-0.5,0.5-0.8,1.2-0.8,1.9c0,0.7,0.3,1.3,0.8,1.6
			c0.3,0.2,0.8,0.4,1.6,0.6l1.2,0.3c0.6,0.1,1.1,0.3,1.4,0.5c0.3,0.2,0.4,0.5,0.4,1c0,0.6-0.3,1.1-1,1.3c-0.4,0.1-0.7,0.2-1.2,0.2
			c-1,0-1.6-0.3-2-0.9c-0.2-0.3-0.3-0.7-0.3-1.2H383.5z"/>
		<polyline id="Shape_12_" class="st3" points="93.8,421.4 204.9,421.4 204.9,420.9 93.8,420.9 		"/>
		<polyline id="Shape_13_" class="st3" points="269.1,421.4 371.1,421.4 371.1,420.9 269.1,420.9 		"/>
		<polygon id="Shape_14_" class="st3" points="368.6,417.7 368.6,424.6 377.6,421.1 		"/>
		<polyline id="Shape_15_" class="st3" points="20.9,383 20.9,237.4 20.4,237.4 20.4,383 		"/>
		<polyline id="Shape_16_" class="st3" points="20.9,195.9 20.9,60.9 20.4,60.9 20.4,195.9 		"/>
		<polygon id="Shape_17_" class="st3" points="17.2,63.5 24.1,63.5 20.7,54.5 		"/>
		<path id="Shape_18_" class="st4" d="M38.6,209h-0.9v0.9h0.9v4.2c0,0.4,0.1,0.7,0.3,1c0.2,0.3,0.5,0.4,1,0.4c0.2,0,0.3,0,0.4,0
			c0.1,0,0.3,0,0.4-0.1v-0.9h-0.2h-0.2c-0.2,0-0.3,0-0.4-0.1c-0.2-0.1-0.2-0.2-0.2-0.4v-4.2h1V209h-1v-1.8h-1.1V209z M31.6,215.4
			h1.1V212c0-0.4,0-0.7,0.1-1c0.1-0.2,0.2-0.4,0.4-0.7s0.5-0.4,0.8-0.5c0.2-0.1,0.4-0.1,0.6-0.1c0.5,0,0.8,0.2,1,0.6
			c0.1,0.2,0.2,0.6,0.2,0.9v4h1.1v-4.1c0-0.6-0.1-1.1-0.3-1.5c-0.3-0.6-0.9-1-1.8-1c-0.4,0-0.8,0.1-1.1,0.2c-0.3,0.2-0.7,0.4-1,0.8
			V209h-1v6.4H31.6z M25.6,211.7c0-0.5,0.2-1,0.5-1.4c0.3-0.4,0.7-0.5,1.2-0.5c0.7,0,1.2,0.3,1.5,0.8c0.2,0.3,0.3,0.7,0.3,1.1H25.6z
			 M27.4,208.9c-0.9,0-1.6,0.3-2.2,1c-0.6,0.6-0.8,1.5-0.8,2.5s0.3,1.9,0.8,2.4c0.6,0.6,1.2,0.9,2,0.9c0.3,0,0.6,0,0.9-0.1
			c0.5-0.1,0.9-0.3,1.2-0.6c0.2-0.2,0.4-0.4,0.5-0.7c0.2-0.3,0.3-0.6,0.3-0.8H29c-0.1,0.3-0.2,0.5-0.4,0.8c-0.3,0.4-0.8,0.6-1.3,0.6
			c-0.6,0-1-0.2-1.3-0.6c-0.3-0.4-0.4-0.9-0.5-1.6h4.7c0-0.6,0-1.1-0.1-1.4c-0.1-0.4-0.2-0.8-0.4-1.1c-0.2-0.3-0.5-0.6-1-0.8
			C28.3,209,27.8,208.9,27.4,208.9z M20.7,215.4h1.1v-3.7c0-0.5,0.1-0.9,0.4-1.2c0.3-0.3,0.7-0.5,1.2-0.5h0.2h0.2v-1.1
			c-0.1,0-0.2,0-0.2,0h-0.1c-0.4,0-0.8,0.2-1.1,0.5c-0.3,0.3-0.5,0.6-0.6,0.8V209h-1L20.7,215.4L20.7,215.4z M16.6,215.4h1.1v-3.7
			c0-0.5,0.1-0.9,0.4-1.2c0.3-0.3,0.7-0.5,1.2-0.5h0.2h0.2v-1.1c-0.1,0-0.2,0-0.2,0h-0.1c-0.4,0-0.8,0.2-1.1,0.5
			c-0.3,0.3-0.5,0.6-0.6,0.8V209h-1v6.4H16.6z M9.7,209v4.4c0,0.5,0.1,1,0.3,1.3c0.3,0.6,0.9,0.9,1.8,0.9c0.6,0,1.1-0.2,1.5-0.5
			c0.2-0.2,0.4-0.4,0.5-0.6v0.9h1V209h-1.1v3.1c0,0.6-0.1,1.1-0.2,1.5c-0.3,0.7-0.8,1-1.5,1c-0.5,0-0.9-0.2-1-0.6
			c-0.1-0.2-0.2-0.5-0.2-0.8V209H9.7z M4.7,206.4c-1.3,0-2.3,0.5-3,1.4c-0.7,0.8-1,1.9-1,3.2c0,1.7,0.5,3,1.4,3.8
			c0.7,0.6,1.5,0.9,2.5,0.9c1.2,0,2.1-0.4,2.8-1.1c0.6-0.6,0.9-1.4,1-2.3H7.2c-0.1,0.6-0.3,1-0.5,1.4c-0.5,0.7-1.1,1-2,1
			s-1.6-0.3-2.1-1c-0.5-0.6-0.7-1.5-0.7-2.5c0-1.3,0.3-2.2,0.8-2.8c0.5-0.6,1.2-0.9,2.1-0.9c0.7,0,1.2,0.2,1.6,0.5s0.6,0.8,0.8,1.3
			h1.2c-0.1-0.7-0.4-1.4-1-2C6.8,206.7,5.8,206.4,4.7,206.4z"/>
		<path id="Shape_19_" class="st4" d="M38.7,224.7c0,0.5-0.1,1-0.3,1.4c-0.3,0.7-0.9,1-1.6,1c-0.5,0-0.9-0.2-1.2-0.6
			c-0.3-0.4-0.4-0.9-0.4-1.6c0-0.6,0.1-1.1,0.2-1.5c0.3-0.7,0.8-1.1,1.5-1.1c0.5,0,0.9,0.2,1.2,0.6
			C38.6,223.3,38.7,223.9,38.7,224.7z M36.8,221.4c-0.7,0-1.4,0.3-1.9,0.9c-0.5,0.6-0.8,1.4-0.8,2.5c0,1.1,0.3,2,0.8,2.4
			c0.5,0.5,1.1,0.7,1.8,0.7c0.5,0,0.9-0.1,1.2-0.2c0.3-0.2,0.6-0.4,0.8-0.7c0,0.9-0.1,1.5-0.2,1.8c-0.3,0.6-0.8,0.9-1.6,0.9
			c-0.5,0-0.9-0.1-1.1-0.4c-0.2-0.2-0.3-0.4-0.3-0.7h-1.1c0.1,0.7,0.3,1.1,0.8,1.5c0.5,0.3,1,0.5,1.7,0.5c1.2,0,2.1-0.4,2.5-1.3
			c0.2-0.5,0.4-1.1,0.4-1.9v-5.8h-1v0.8c-0.2-0.3-0.4-0.5-0.6-0.6C37.7,221.5,37.3,221.4,36.8,221.4z M27.7,227.9h1.1v-3.4
			c0-0.4,0-0.7,0.1-1c0.1-0.2,0.2-0.4,0.4-0.7c0.2-0.3,0.5-0.4,0.8-0.5c0.2-0.1,0.4-0.1,0.6-0.1c0.5,0,0.8,0.2,1,0.6
			c0.1,0.2,0.2,0.6,0.2,0.9v4H33v-4.1c0-0.6-0.1-1.1-0.3-1.5c-0.3-0.6-0.9-1-1.8-1c-0.4,0-0.8,0.1-1.1,0.2c-0.3,0.2-0.7,0.4-1,0.8
			v-0.9h-1L27.7,227.9L27.7,227.9z M25,220.4h1.1v-1.2H25V220.4z M25,227.9h1.1v-6.4H25V227.9z M21,227.9h1v-3.7
			c0-0.5,0.1-0.9,0.4-1.2c0.3-0.3,0.7-0.5,1.2-0.5h0.2H24v-1.1c-0.1,0-0.2,0-0.2,0h-0.1c-0.4,0-0.8,0.2-1.1,0.5
			c-0.3,0.3-0.5,0.6-0.6,0.8v-1.1h-1V227.9z M14.9,224.2c0-0.5,0.2-1,0.5-1.4c0.3-0.4,0.7-0.5,1.2-0.5c0.7,0,1.2,0.3,1.5,0.8
			c0.2,0.3,0.3,0.7,0.3,1.1H14.9z M16.8,221.4c-0.9,0-1.6,0.3-2.2,1c-0.6,0.6-0.8,1.5-0.8,2.5s0.3,1.9,0.8,2.4
			c0.6,0.6,1.2,0.9,2,0.9c0.3,0,0.6,0,0.9-0.1c0.5-0.1,0.9-0.3,1.2-0.6c0.2-0.2,0.4-0.4,0.5-0.7c0.2-0.3,0.3-0.6,0.3-0.8h-1.1
			c-0.1,0.3-0.2,0.5-0.4,0.8c-0.3,0.4-0.8,0.6-1.3,0.6c-0.6,0-1-0.2-1.3-0.6c-0.3-0.4-0.4-0.9-0.5-1.6h4.7c0-0.6,0-1.1-0.1-1.4
			c-0.1-0.4-0.2-0.8-0.4-1.1c-0.2-0.3-0.5-0.6-1-0.8C17.6,221.5,17.2,221.4,16.8,221.4z M11,220.6v1h-0.9v0.8H11v5.5h1v-5.5h1.1
			v-0.8H12c0-0.7,0-1.1,0.1-1.3c0.1-0.2,0.3-0.3,0.6-0.3h0.1c0.1,0,0.1,0,0.2,0v-1c-0.1,0-0.2,0-0.2,0h-0.2c-0.7,0-1.2,0.2-1.5,0.5
			C11.1,219.8,11,220.1,11,220.6z M7.8,220.6v1H6.9v0.8h0.9v5.5h1.1v-5.5H10v-0.8H8.9c0-0.7,0-1.1,0.1-1.3s0.3-0.3,0.6-0.3h0.1
			c0.1,0,0.1,0,0.2,0v-1c-0.1,0-0.2,0-0.2,0H9.5c-0.7,0-1.2,0.2-1.5,0.5C7.9,219.8,7.8,220.1,7.8,220.6z M3.3,221.3
			c-0.9,0-1.6,0.3-2.2,1c-0.5,0.6-0.8,1.5-0.8,2.6c0,1,0.3,1.8,0.8,2.4c0.5,0.6,1.2,0.9,2.1,0.9c1,0,1.8-0.3,2.3-1s0.7-1.5,0.7-2.6
			c0-1.1-0.3-1.9-0.8-2.4S4.1,221.3,3.3,221.3z M3.2,227.2c-0.6,0-1.1-0.2-1.4-0.7s-0.4-1-0.4-1.7s0.1-1.3,0.4-1.8s0.8-0.8,1.4-0.8
			c0.7,0,1.2,0.3,1.5,0.9c0.2,0.4,0.3,0.9,0.3,1.5c0,0.7-0.1,1.3-0.4,1.8C4.4,227,3.9,227.2,3.2,227.2z"/>
		<path id="Shape_20_" class="st4" d="M31,398.5h1v-2.4l0.9-0.9l2,3.3h1.4l-2.6-4l2.5-2.4h-1.4l-2.8,2.7v-5.1h-1V398.5z M25.9,394.8
			c-0.6,0.1-1.1,0.3-1.5,0.6c-0.4,0.3-0.6,0.8-0.6,1.4c0,0.5,0.2,1,0.6,1.4c0.4,0.4,0.9,0.5,1.5,0.5c0.5,0,0.9-0.1,1.4-0.3
			c0.5-0.2,0.7-0.5,0.9-0.7c0,0.3,0.1,0.5,0.2,0.6c0.2,0.3,0.4,0.4,0.8,0.4c0.2,0,0.3,0,0.4,0s0.2,0,0.4-0.1v-0.8h-0.2h-0.2
			c-0.1,0-0.2,0-0.3-0.1c-0.1-0.1-0.1-0.2-0.1-0.3v-3.7c0-0.6-0.2-1.1-0.7-1.3c-0.5-0.3-1.1-0.4-1.8-0.4c-0.6,0-1.2,0.2-1.7,0.5
			s-0.7,0.9-0.8,1.7h1c0-0.3,0.1-0.6,0.3-0.8c0.2-0.3,0.6-0.5,1.2-0.5c0.5,0,0.9,0.1,1.1,0.2c0.3,0.2,0.4,0.4,0.4,0.8
			c0,0.2,0,0.3-0.1,0.4c-0.1,0.2-0.2,0.3-0.5,0.3L25.9,394.8z M25,396.8c0-0.4,0.2-0.7,0.5-0.9c0.2-0.1,0.5-0.2,0.9-0.2l0.7-0.1
			c0.2,0,0.4-0.1,0.6-0.1c0.2-0.1,0.4-0.1,0.5-0.2v0.9c0,0.7-0.3,1.1-0.9,1.4c-0.4,0.2-0.7,0.3-1.1,0.3c-0.3,0-0.6-0.1-0.8-0.3
			C25.1,397.3,25,397.1,25,396.8z M18.2,394.8c0-0.5,0.2-1,0.5-1.4c0.3-0.4,0.7-0.5,1.2-0.5c0.7,0,1.2,0.3,1.5,0.8
			c0.2,0.3,0.3,0.7,0.3,1.1H18.2z M20,391.9c-0.9,0-1.6,0.3-2.2,1c-0.6,0.6-0.8,1.5-0.8,2.5s0.3,1.9,0.8,2.4c0.6,0.6,1.2,0.9,2,0.9
			c0.3,0,0.6,0,0.9-0.1c0.5-0.1,0.9-0.3,1.2-0.6c0.2-0.2,0.4-0.4,0.5-0.7c0.2-0.3,0.3-0.6,0.3-0.8h-1.1c-0.1,0.3-0.2,0.5-0.4,0.8
			c-0.3,0.4-0.8,0.6-1.3,0.6c-0.6,0-1-0.2-1.3-0.6c-0.3-0.4-0.4-0.9-0.5-1.6h4.7c0-0.6,0-1.1-0.1-1.4c-0.1-0.4-0.2-0.8-0.4-1.1
			c-0.2-0.3-0.5-0.6-1-0.8C20.9,392,20.5,391.9,20,391.9z M5.5,389.7l2.3,8.8H9l2-7.3l2,7.3h1.2l2.3-8.8h-1.3l-1.7,7.2l-2-7.2h-1.3
			l-2,7.1l-1.7-7.1H5.5z"/>
		<path id="Shape_21_" class="st4" d="M36.5,43.8c0,0.5-0.1,1-0.3,1.4c-0.3,0.7-0.9,1-1.6,1c-0.5,0-0.9-0.2-1.2-0.6
			C33.2,45.3,33,44.7,33,44c0-0.6,0.1-1.1,0.2-1.5c0.3-0.7,0.8-1.1,1.5-1.1c0.5,0,0.9,0.2,1.2,0.6C36.4,42.4,36.5,43,36.5,43.8z
			 M34.6,40.5c-0.7,0-1.4,0.3-1.9,0.9c-0.5,0.6-0.8,1.4-0.8,2.5c0,1.1,0.3,2,0.8,2.4c0.5,0.5,1.1,0.7,1.8,0.7c0.5,0,0.9-0.1,1.2-0.2
			c0.3-0.2,0.6-0.4,0.8-0.7c0,0.9-0.1,1.5-0.2,1.8c-0.3,0.6-0.8,0.9-1.6,0.9c-0.5,0-0.9-0.1-1.1-0.4c-0.2-0.2-0.3-0.4-0.3-0.7h-1.1
			c0.1,0.7,0.3,1.1,0.8,1.5c0.5,0.3,1,0.5,1.7,0.5c1.2,0,2.1-0.4,2.5-1.3c0.2-0.5,0.4-1.1,0.4-1.9v-5.8h-1v0.8
			c-0.2-0.3-0.4-0.5-0.6-0.6C35.5,40.6,35.1,40.5,34.6,40.5z M25.5,47h1.1v-3.4c0-0.4,0-0.7,0.1-1c0.1-0.2,0.2-0.4,0.4-0.7
			c0.2-0.3,0.5-0.4,0.8-0.5c0.2-0.1,0.4-0.1,0.6-0.1c0.5,0,0.8,0.2,1,0.6c0.1,0.2,0.2,0.6,0.2,0.9v4h1.1v-4.1c0-0.6-0.1-1.1-0.3-1.5
			c-0.3-0.6-0.9-1-1.8-1c-0.4,0-0.8,0.1-1.1,0.2c-0.3,0.2-0.7,0.4-1,0.8v-0.9h-1V47H25.5z M21.3,40.4c-0.9,0-1.6,0.3-2.2,1
			c-0.5,0.6-0.8,1.5-0.8,2.6c0,1,0.3,1.8,0.8,2.4c0.5,0.6,1.2,0.9,2.1,0.9c1,0,1.8-0.3,2.3-1s0.7-1.5,0.7-2.6c0-1.1-0.3-1.9-0.8-2.4
			S22.1,40.4,21.3,40.4z M21.3,46.3c-0.6,0-1.1-0.2-1.4-0.7c-0.3-0.5-0.4-1-0.4-1.7c0-0.7,0.1-1.3,0.4-1.8c0.3-0.5,0.8-0.8,1.4-0.8
			c0.7,0,1.2,0.3,1.5,0.9c0.2,0.4,0.3,0.9,0.3,1.5c0,0.7-0.1,1.3-0.4,1.8C22.4,46,22,46.3,21.3,46.3z M14.7,47h1.1v-3.7
			c0-0.5,0.1-0.9,0.4-1.2c0.3-0.3,0.7-0.5,1.2-0.5h0.2h0.2v-1.1c-0.1,0-0.2,0-0.2,0h-0.1c-0.4,0-0.8,0.2-1.1,0.5
			c-0.3,0.3-0.5,0.6-0.6,0.8v-1.1h-1V47H14.7z M11.5,40.6h-0.9v0.9h0.9v4.2c0,0.4,0.1,0.7,0.3,1s0.5,0.4,1,0.4c0.2,0,0.3,0,0.4,0
			c0.1,0,0.3,0,0.4-0.1v-0.9h-0.2h-0.2c-0.2,0-0.3,0-0.4-0.1c-0.2-0.1-0.2-0.2-0.2-0.4v-4.2h1v-0.9h-1v-1.8h-1.1V40.6z M2.9,44.2
			c0,0.9,0.3,1.7,0.9,2.3s1.4,0.8,2.5,0.8c0.9,0,1.7-0.2,2.4-0.6c0.7-0.4,1-1.1,1-2.1c0-0.8-0.3-1.4-0.8-1.8
			c-0.3-0.2-0.8-0.4-1.3-0.6l-1.2-0.3c-0.8-0.2-1.3-0.4-1.5-0.5c-0.3-0.2-0.5-0.5-0.5-0.9s0.1-0.7,0.4-1C5,39.2,5.5,39,6.2,39
			C7,39,7.6,39.3,8,39.7c0.2,0.3,0.3,0.6,0.4,1.1h1.1c0-1-0.3-1.7-0.9-2.1C7.9,38.2,7.1,38,6.2,38c-1,0-1.7,0.3-2.3,0.8
			c-0.5,0.5-0.8,1.2-0.8,1.9s0.3,1.3,0.8,1.6c0.3,0.2,0.8,0.4,1.6,0.6l1.2,0.3c0.6,0.1,1.1,0.3,1.4,0.5c0.3,0.2,0.4,0.5,0.4,1
			c0,0.6-0.3,1.1-1,1.3c-0.4,0.1-0.7,0.2-1.2,0.2c-1,0-1.6-0.3-2-0.9C4.1,45.1,4,44.7,4,44.2H2.9z"/>
		<polyline id="Shape_22_" class="st3" points="56.3,344.1 142.3,344.1 142.3,343.6 56.3,343.6 		"/>
		<polygon id="Shape_23_" class="st3" points="139.8,340.4 139.8,347.3 148.8,343.9 		"/>
		<path id="Shape_24_" class="st4" d="M142.4,330c0-0.5,0.2-1,0.5-1.4c0.3-0.4,0.7-0.5,1.2-0.5c0.7,0,1.2,0.3,1.5,0.8
			c0.2,0.3,0.3,0.7,0.3,1.1H142.4z M144.2,327.1c-0.9,0-1.6,0.3-2.2,1c-0.6,0.6-0.8,1.5-0.8,2.5s0.3,1.9,0.8,2.4
			c0.6,0.6,1.2,0.9,2,0.9c0.3,0,0.6,0,0.9-0.1c0.5-0.1,0.9-0.3,1.2-0.6c0.2-0.2,0.4-0.4,0.5-0.7c0.2-0.3,0.3-0.6,0.3-0.8h-1.1
			c-0.1,0.3-0.2,0.5-0.4,0.8c-0.3,0.4-0.8,0.6-1.3,0.6c-0.6,0-1-0.2-1.3-0.6s-0.4-0.9-0.5-1.6h4.7c0-0.6,0-1.1-0.1-1.4
			c-0.1-0.4-0.2-0.8-0.4-1.1c-0.2-0.3-0.5-0.6-1-0.8C145.1,327.2,144.6,327.1,144.2,327.1z M137.9,327.1c-0.8,0-1.5,0.3-2.1,0.9
			c-0.6,0.6-0.8,1.5-0.8,2.6c0,0.9,0.2,1.7,0.7,2.3s1.2,0.9,2,0.9c0.7,0,1.4-0.2,1.8-0.6c0.5-0.4,0.8-1,0.9-1.9h-1
			c-0.1,0.5-0.3,0.8-0.5,1.1c-0.3,0.3-0.6,0.4-1.1,0.4c-0.6,0-1-0.2-1.3-0.7c-0.3-0.4-0.4-1-0.4-1.6s0.1-1.2,0.3-1.6
			c0.3-0.7,0.8-1,1.5-1c0.5,0,0.9,0.1,1.1,0.4c0.2,0.3,0.4,0.6,0.4,1h1c-0.1-0.9-0.4-1.5-0.8-1.8
			C139.2,327.3,138.6,327.1,137.9,327.1z M128.6,333.7h1.1v-3.4c0-0.4,0-0.7,0.1-1c0.1-0.2,0.2-0.4,0.4-0.7c0.2-0.3,0.5-0.4,0.8-0.5
			c0.2-0.1,0.4-0.1,0.6-0.1c0.5,0,0.8,0.2,1,0.6c0.1,0.2,0.2,0.6,0.2,0.9v4h1.1v-4.1c0-0.6-0.1-1.1-0.3-1.5c-0.3-0.6-0.9-1-1.8-1
			c-0.4,0-0.8,0.1-1.1,0.2c-0.3,0.2-0.7,0.4-1,0.8V327h-1L128.6,333.7L128.6,333.7z M122.6,330c0-0.5,0.2-1,0.5-1.4
			c0.3-0.4,0.7-0.5,1.2-0.5c0.7,0,1.2,0.3,1.5,0.8c0.2,0.3,0.3,0.7,0.3,1.1H122.6z M124.4,327.1c-0.9,0-1.6,0.3-2.2,1
			c-0.6,0.6-0.8,1.5-0.8,2.5s0.3,1.9,0.8,2.4c0.6,0.6,1.2,0.9,2,0.9c0.3,0,0.6,0,0.9-0.1c0.5-0.1,0.9-0.3,1.2-0.6
			c0.2-0.2,0.4-0.4,0.5-0.7c0.2-0.3,0.3-0.6,0.3-0.8H126c-0.1,0.3-0.2,0.5-0.4,0.8c-0.3,0.4-0.8,0.6-1.3,0.6c-0.6,0-1-0.2-1.3-0.6
			s-0.4-0.9-0.5-1.6h4.7c0-0.6,0-1.1-0.1-1.4c-0.1-0.4-0.2-0.8-0.4-1.1c-0.2-0.3-0.5-0.6-1-0.8C125.3,327.2,124.9,327.1,124.4,327.1
			z M115.3,331.7c0,0.6,0.2,1.2,0.6,1.6c0.4,0.4,1.1,0.6,2.1,0.6c0.9,0,1.6-0.2,2-0.6c0.4-0.4,0.7-0.9,0.7-1.5c0-0.6-0.2-1-0.6-1.3
			c-0.3-0.2-0.8-0.4-1.6-0.5l-0.7-0.2c-0.3-0.1-0.6-0.2-0.7-0.3c-0.3-0.2-0.4-0.4-0.4-0.7c0-0.3,0.1-0.5,0.3-0.6
			c0.2-0.1,0.5-0.2,0.9-0.2c0.6,0,1.1,0.1,1.3,0.4c0.2,0.2,0.2,0.4,0.3,0.7h1c0-0.4-0.1-0.8-0.4-1.2c-0.4-0.6-1.1-0.8-2.1-0.8
			c-0.7,0-1.3,0.2-1.8,0.6c-0.4,0.4-0.7,0.9-0.7,1.5c0,0.5,0.2,0.9,0.7,1.2c0.3,0.2,0.7,0.3,1.2,0.5l0.9,0.2
			c0.5,0.1,0.8,0.2,0.9,0.3c0.2,0.1,0.4,0.4,0.4,0.6c0,0.4-0.2,0.6-0.5,0.8c-0.3,0.2-0.7,0.3-1.1,0.3c-0.7,0-1.2-0.2-1.4-0.5
			c-0.2-0.2-0.2-0.5-0.3-0.8L115.3,331.7L115.3,331.7z M109.7,330c0-0.5,0.2-1,0.5-1.4c0.3-0.4,0.7-0.5,1.2-0.5
			c0.7,0,1.2,0.3,1.5,0.8c0.2,0.3,0.3,0.7,0.3,1.1H109.7z M111.5,327.1c-0.9,0-1.6,0.3-2.2,1c-0.6,0.6-0.8,1.5-0.8,2.5
			s0.3,1.9,0.8,2.4c0.6,0.6,1.2,0.9,2,0.9c0.3,0,0.6,0,0.9-0.1c0.5-0.1,0.9-0.3,1.2-0.6c0.2-0.2,0.4-0.4,0.5-0.7
			c0.2-0.3,0.3-0.6,0.3-0.8h-1.1c-0.1,0.3-0.2,0.5-0.4,0.8c-0.3,0.4-0.8,0.6-1.3,0.6c-0.6,0-1-0.2-1.3-0.6c-0.3-0.4-0.4-0.9-0.5-1.6
			h4.7c0-0.6,0-1.1-0.1-1.4c-0.1-0.4-0.2-0.8-0.4-1.1c-0.2-0.3-0.5-0.6-1-0.8C112.4,327.2,112,327.1,111.5,327.1z M104.8,333.7h1.1
			V330c0-0.5,0.1-0.9,0.4-1.2c0.3-0.3,0.7-0.5,1.2-0.5h0.2h0.2v-1.1c-0.1,0-0.2,0-0.2,0h-0.1c-0.4,0-0.8,0.2-1.1,0.5
			c-0.3,0.3-0.5,0.6-0.6,0.8v-1.1h-1L104.8,333.7L104.8,333.7z M97.9,336.2H99V333c0.2,0.3,0.5,0.5,0.6,0.6c0.3,0.2,0.7,0.3,1.2,0.3
			c0.6,0,1.2-0.2,1.6-0.6c0.7-0.6,1.1-1.6,1.1-3c0-1-0.3-1.8-0.8-2.4s-1.1-0.8-1.9-0.8c-0.5,0-0.9,0.1-1.3,0.4
			c-0.3,0.2-0.5,0.4-0.7,0.7v-0.8h-1.1v8.8H97.9z M100.7,333c-0.7,0-1.3-0.3-1.5-1c-0.1-0.3-0.2-0.8-0.2-1.3c0-0.6,0.1-1.1,0.2-1.5
			c0.3-0.7,0.8-1.1,1.5-1.1c0.7,0,1.3,0.4,1.5,1.1c0.1,0.4,0.2,0.8,0.2,1.3c0,0.8-0.2,1.5-0.5,1.9C101.6,332.8,101.2,333,100.7,333z
			 M91.4,327.3h-0.9v0.9h0.9v4.2c0,0.4,0.1,0.7,0.3,1c0.2,0.3,0.5,0.4,1,0.4c0.2,0,0.3,0,0.4,0s0.3,0,0.4-0.1v-0.9h-0.2h-0.2
			c-0.2,0-0.3,0-0.4-0.1c-0.2-0.1-0.2-0.2-0.2-0.4v-4.2h1v-0.9h-1v-1.8h-1.1V327.3z M85.2,330c0-0.5,0.2-1,0.5-1.4
			c0.3-0.4,0.7-0.5,1.2-0.5c0.7,0,1.2,0.3,1.5,0.8c0.2,0.3,0.3,0.7,0.3,1.1H85.2z M87,327.1c-0.9,0-1.6,0.3-2.2,1
			c-0.6,0.6-0.8,1.5-0.8,2.5s0.3,1.9,0.8,2.4c0.6,0.6,1.2,0.9,2,0.9c0.3,0,0.6,0,0.9-0.1c0.5-0.1,0.9-0.3,1.2-0.6
			c0.2-0.2,0.4-0.4,0.5-0.7c0.2-0.3,0.3-0.6,0.3-0.8h-1.1c-0.1,0.3-0.2,0.5-0.4,0.8c-0.3,0.4-0.8,0.6-1.3,0.6c-0.6,0-1-0.2-1.3-0.6
			c-0.3-0.4-0.4-0.9-0.5-1.6h4.7c0-0.6,0-1.1-0.1-1.4c-0.1-0.4-0.2-0.8-0.4-1.1c-0.2-0.3-0.5-0.6-1-0.8
			C87.9,327.2,87.4,327.1,87,327.1z M78.2,333.7h1v-2.4l0.9-0.9l2,3.3h1.4l-2.6-4l2.5-2.4H82l-2.8,2.7v-5.1h-1V333.7z M74.2,333.7
			h1.1V330c0-0.5,0.1-0.9,0.4-1.2c0.3-0.3,0.7-0.5,1.2-0.5h0.2h0.2v-1.1c-0.1,0-0.2,0-0.2,0H77c-0.4,0-0.8,0.2-1.1,0.5
			c-0.3,0.3-0.5,0.6-0.6,0.8v-1.1h-1v6.3H74.2z M69.1,330c-0.6,0.1-1.1,0.3-1.5,0.6c-0.4,0.3-0.6,0.8-0.6,1.4c0,0.5,0.2,1,0.6,1.4
			s0.9,0.5,1.5,0.5c0.5,0,0.9-0.1,1.4-0.3c0.5-0.2,0.7-0.5,0.9-0.7c0,0.3,0.1,0.5,0.2,0.6c0.2,0.3,0.4,0.4,0.8,0.4
			c0.2,0,0.3,0,0.4,0c0.1,0,0.2,0,0.4-0.1V333H73h-0.2c-0.1,0-0.2,0-0.3-0.1s-0.1-0.2-0.1-0.3v-3.7c0-0.6-0.2-1.1-0.7-1.3
			c-0.5-0.3-1.1-0.4-1.8-0.4c-0.6,0-1.2,0.2-1.7,0.5c-0.5,0.3-0.7,0.9-0.8,1.7h1c0-0.3,0.1-0.6,0.3-0.8c0.2-0.3,0.6-0.5,1.2-0.5
			c0.5,0,0.9,0.1,1.1,0.2c0.3,0.2,0.4,0.4,0.4,0.8c0,0.2,0,0.3-0.1,0.4c-0.1,0.2-0.2,0.3-0.5,0.3L69.1,330z M68.2,332
			c0-0.4,0.2-0.7,0.5-0.9c0.2-0.1,0.5-0.2,0.9-0.2l0.7-0.1c0.2,0,0.4-0.1,0.6-0.1c0.2-0.1,0.4-0.1,0.5-0.2v0.9
			c0,0.7-0.3,1.1-0.9,1.4c-0.4,0.2-0.7,0.3-1.1,0.3c-0.3,0-0.6-0.1-0.8-0.3C68.3,332.5,68.2,332.3,68.2,332z M57.2,333.7h1.1v-5.2
			c0-0.2,0-0.5,0-1c0-0.4,0-0.8,0-1v-0.3l2.5,7.4H62l2.5-7.4c0,0.5,0,0.9,0,1.3s0,0.7,0,0.9v5.2h1.1v-8.8H64l-2.5,7.4l-2.5-7.4h-1.7
			L57.2,333.7L57.2,333.7z"/>
		<path id="Shape_25_" class="st4" d="M265,368.2h1.1v-3.4c0-0.4,0-0.7,0.1-1c0.1-0.2,0.2-0.4,0.4-0.7c0.2-0.3,0.5-0.4,0.8-0.5
			c0.2-0.1,0.4-0.1,0.6-0.1c0.5,0,0.8,0.2,1,0.6c0.1,0.2,0.2,0.6,0.2,0.9v4h1.1v-4.1c0-0.6-0.1-1.1-0.3-1.5c-0.3-0.6-0.9-1-1.8-1
			c-0.4,0-0.8,0.1-1.1,0.2c-0.3,0.2-0.7,0.4-1,0.8v-0.9h-1v6.7H265z M260.8,361.6c-0.9,0-1.6,0.3-2.2,1c-0.5,0.6-0.8,1.5-0.8,2.6
			c0,1,0.3,1.8,0.8,2.4s1.2,0.9,2.1,0.9c1,0,1.8-0.3,2.3-1s0.7-1.5,0.7-2.6s-0.3-1.9-0.8-2.4S261.6,361.6,260.8,361.6z M260.7,367.5
			c-0.6,0-1.1-0.2-1.4-0.7c-0.3-0.5-0.4-1-0.4-1.7c0-0.7,0.1-1.3,0.4-1.8c0.3-0.5,0.8-0.8,1.4-0.8c0.7,0,1.2,0.3,1.5,0.9
			c0.2,0.4,0.3,0.9,0.3,1.5c0,0.7-0.1,1.3-0.4,1.8C261.9,367.2,261.4,367.5,260.7,367.5z M255.5,360.6h1.1v-1.2h-1.1V360.6z
			 M255.5,368.2h1.1v-6.4h-1.1V368.2z M252.3,361.8h-0.9v0.9h0.9v4.2c0,0.4,0.1,0.7,0.3,1c0.2,0.3,0.5,0.4,1,0.4c0.2,0,0.3,0,0.4,0
			s0.3,0,0.4-0.1v-0.9h-0.2H254c-0.2,0-0.3,0-0.4-0.1c-0.2-0.1-0.2-0.2-0.2-0.4v-4.2h1v-0.9h-1V360h-1.1V361.8z M247,364.5
			c-0.6,0.1-1.1,0.3-1.5,0.6c-0.4,0.3-0.6,0.8-0.6,1.4c0,0.5,0.2,1,0.6,1.4s0.9,0.5,1.5,0.5c0.5,0,0.9-0.1,1.4-0.3
			c0.5-0.2,0.7-0.5,0.9-0.7c0,0.3,0.1,0.5,0.2,0.6c0.2,0.3,0.4,0.4,0.8,0.4c0.2,0,0.3,0,0.4,0c0.1,0,0.2,0,0.4-0.1v-0.8h-0.2h-0.2
			c-0.1,0-0.2,0-0.3-0.1c-0.1-0.1-0.1-0.2-0.1-0.3v-3.7c0-0.6-0.2-1.1-0.7-1.3c-0.5-0.3-1.1-0.4-1.8-0.4c-0.6,0-1.2,0.2-1.7,0.5
			c-0.5,0.3-0.7,0.9-0.8,1.7h1c0-0.3,0.1-0.6,0.3-0.8c0.2-0.3,0.6-0.5,1.2-0.5c0.5,0,0.9,0.1,1.1,0.2c0.3,0.2,0.4,0.4,0.4,0.8
			c0,0.2,0,0.3-0.1,0.4c-0.1,0.2-0.2,0.3-0.5,0.3L247,364.5z M246.1,366.5c0-0.4,0.2-0.7,0.5-0.9c0.2-0.1,0.5-0.2,0.9-0.2l0.7-0.1
			c0.2,0,0.4-0.1,0.6-0.1c0.2-0.1,0.4-0.1,0.5-0.2v0.9c0,0.7-0.3,1.1-0.9,1.4c-0.4,0.2-0.7,0.3-1.1,0.3c-0.3,0-0.6-0.1-0.8-0.3
			C246.2,367,246.1,366.8,246.1,366.5z M238.3,370.7h1.1v-3.3c0.2,0.3,0.5,0.5,0.6,0.6c0.3,0.2,0.7,0.3,1.2,0.3
			c0.6,0,1.2-0.2,1.6-0.6c0.7-0.6,1.1-1.6,1.1-3c0-1-0.3-1.8-0.8-2.4c-0.5-0.6-1.1-0.8-1.9-0.8c-0.5,0-0.9,0.1-1.3,0.4
			c-0.3,0.2-0.5,0.4-0.7,0.7v-0.8h-1.1v8.9H238.3z M241.1,367.4c-0.7,0-1.3-0.3-1.5-1c-0.1-0.3-0.2-0.8-0.2-1.3
			c0-0.6,0.1-1.1,0.2-1.5c0.3-0.7,0.8-1.1,1.5-1.1c0.7,0,1.3,0.4,1.5,1.1c0.1,0.4,0.2,0.8,0.2,1.3c0,0.8-0.2,1.5-0.5,1.9
			C242,367.2,241.6,367.4,241.1,367.4z M235.7,360.6h1.1v-1.2h-1.1V360.6z M235.7,368.2h1.1v-6.4h-1.1V368.2z M232.1,361.6
			c-0.8,0-1.5,0.3-2.1,0.9s-0.8,1.5-0.8,2.6c0,0.9,0.2,1.7,0.7,2.3s1.2,0.9,2,0.9c0.7,0,1.4-0.2,1.8-0.6c0.5-0.4,0.8-1,0.9-1.9h-1
			c-0.1,0.5-0.3,0.8-0.5,1.1c-0.3,0.3-0.6,0.4-1.1,0.4c-0.6,0-1-0.2-1.3-0.7c-0.3-0.4-0.4-1-0.4-1.6s0.1-1.2,0.3-1.6
			c0.3-0.7,0.8-1,1.5-1c0.5,0,0.9,0.1,1.1,0.4c0.2,0.3,0.4,0.6,0.4,1h1c-0.1-0.9-0.4-1.5-0.8-1.8
			C233.4,361.8,232.8,361.6,232.1,361.6z M226.9,360.6h1.1v-1.2h-1.1V360.6z M226.9,368.2h1.1v-6.4h-1.1V368.2z M223.7,361.8h-0.9
			v0.9h0.9v4.2c0,0.4,0.1,0.7,0.3,1c0.2,0.3,0.5,0.4,1,0.4c0.2,0,0.3,0,0.4,0c0.1,0,0.3,0,0.4-0.1v-0.9h-0.2h-0.2
			c-0.2,0-0.3,0-0.4-0.1c-0.2-0.1-0.2-0.2-0.2-0.4v-4.2h1v-0.9h-1V360h-1.1V361.8z M219.4,368.2h1.1v-3.7c0-0.5,0.1-0.9,0.4-1.2
			c0.3-0.3,0.7-0.5,1.2-0.5h0.2h0.2v-1.1c-0.1,0-0.2,0-0.2,0h-0.1c-0.4,0-0.8,0.2-1.1,0.5c-0.3,0.3-0.5,0.6-0.6,0.8v-1.1h-1v6.3
			H219.4z M214.3,364.5c-0.6,0.1-1.1,0.3-1.5,0.6c-0.4,0.3-0.6,0.8-0.6,1.4c0,0.5,0.2,1,0.6,1.4c0.4,0.4,0.9,0.5,1.5,0.5
			c0.5,0,0.9-0.1,1.4-0.3c0.5-0.2,0.7-0.5,0.9-0.7c0,0.3,0.1,0.5,0.2,0.6c0.2,0.3,0.4,0.4,0.8,0.4c0.2,0,0.3,0,0.4,0s0.2,0,0.4-0.1
			v-0.8h-0.2H218c-0.1,0-0.2,0-0.3-0.1c-0.1-0.1-0.1-0.2-0.1-0.3v-3.7c0-0.6-0.2-1.1-0.7-1.3c-0.5-0.3-1.1-0.4-1.8-0.4
			c-0.6,0-1.2,0.2-1.7,0.5c-0.5,0.3-0.7,0.9-0.8,1.7h1c0-0.3,0.1-0.6,0.3-0.8c0.2-0.3,0.6-0.5,1.2-0.5c0.5,0,0.9,0.1,1.1,0.2
			c0.3,0.2,0.4,0.4,0.4,0.8c0,0.2,0,0.3-0.1,0.4c-0.1,0.2-0.2,0.3-0.5,0.3L214.3,364.5z M213.4,366.5c0-0.4,0.2-0.7,0.5-0.9
			c0.2-0.1,0.5-0.2,0.9-0.2l0.7-0.1c0.2,0,0.4-0.1,0.6-0.1c0.2-0.1,0.4-0.1,0.5-0.2v0.9c0,0.7-0.3,1.1-0.9,1.4
			c-0.4,0.2-0.7,0.3-1.1,0.3c-0.3,0-0.6-0.1-0.8-0.3C213.5,367,213.4,366.8,213.4,366.5z M205.7,370.7h1.1v-3.3
			c0.2,0.3,0.5,0.5,0.6,0.6c0.3,0.2,0.7,0.3,1.2,0.3c0.6,0,1.2-0.2,1.6-0.6c0.7-0.6,1.1-1.6,1.1-3c0-1-0.3-1.8-0.8-2.4
			c-0.5-0.6-1.1-0.8-1.9-0.8c-0.5,0-0.9,0.1-1.3,0.4c-0.3,0.2-0.5,0.4-0.7,0.7v-0.8h-1.1v8.9H205.7z M208.5,367.4
			c-0.7,0-1.3-0.3-1.5-1c-0.1-0.3-0.2-0.8-0.2-1.3c0-0.6,0.1-1.1,0.2-1.5c0.3-0.7,0.8-1.1,1.5-1.1s1.3,0.4,1.5,1.1
			c0.1,0.4,0.2,0.8,0.2,1.3c0,0.8-0.2,1.5-0.5,1.9C209.4,367.2,209,367.4,208.5,367.4z M198.3,368.2h1.1v-3.7c0-0.5,0.1-0.9,0.4-1.2
			c0.3-0.3,0.7-0.5,1.2-0.5h0.2h0.2v-1.1c-0.1,0-0.2,0-0.2,0h-0.1c-0.4,0-0.8,0.2-1.1,0.5c-0.3,0.3-0.5,0.6-0.6,0.8v-1.1h-1
			L198.3,368.2L198.3,368.2z M194,361.6c-0.9,0-1.6,0.3-2.2,1c-0.5,0.6-0.8,1.5-0.8,2.6c0,1,0.3,1.8,0.8,2.4s1.2,0.9,2.1,0.9
			c1,0,1.8-0.3,2.3-1s0.7-1.5,0.7-2.6s-0.3-1.9-0.8-2.4S194.8,361.6,194,361.6z M194,367.5c-0.6,0-1.1-0.2-1.4-0.7
			c-0.3-0.5-0.4-1-0.4-1.7c0-0.7,0.1-1.3,0.4-1.8c0.3-0.5,0.8-0.8,1.4-0.8c0.7,0,1.2,0.3,1.5,0.9c0.2,0.4,0.3,0.9,0.3,1.5
			c0,0.7-0.1,1.3-0.4,1.8C195.2,367.2,194.7,367.5,194,367.5z M186.9,361.7c-0.9,0-1.6,0.3-2,1c-0.5,0.7-0.7,1.5-0.7,2.4
			c0,1,0.3,1.8,0.8,2.4s1.1,0.9,1.8,0.9c0.4,0,0.8-0.1,1.2-0.3c0.3-0.2,0.6-0.5,0.9-0.9v0.9h1v-8.8h-1v3.2c-0.2-0.3-0.5-0.5-0.6-0.6
			C187.8,361.8,187.4,361.7,186.9,361.7z M185.3,365c0-0.8,0.2-1.4,0.5-1.8c0.3-0.4,0.8-0.6,1.3-0.6s0.9,0.2,1.2,0.6
			c0.3,0.4,0.5,1,0.5,1.8s-0.2,1.4-0.5,1.8c-0.3,0.4-0.7,0.6-1.2,0.6c-0.6,0-1.1-0.2-1.4-0.7C185.5,366.3,185.3,365.7,185.3,365z
			 M177.8,368.2h1.1v-3.4c0-0.4,0-0.7,0.1-1c0.1-0.2,0.2-0.4,0.4-0.7c0.2-0.3,0.5-0.4,0.8-0.5c0.2-0.1,0.4-0.1,0.6-0.1
			c0.5,0,0.8,0.2,1,0.6c0.1,0.2,0.2,0.6,0.2,0.9v4h1.1v-4.1c0-0.6-0.1-1.1-0.3-1.5c-0.3-0.6-0.9-1-1.8-1c-0.4,0-0.8,0.1-1.1,0.2
			c-0.3,0.2-0.7,0.4-1,0.8v-0.9h-1L177.8,368.2L177.8,368.2z M171.8,364.5c0-0.5,0.2-1,0.5-1.4s0.7-0.5,1.2-0.5
			c0.7,0,1.2,0.3,1.5,0.8c0.2,0.3,0.3,0.7,0.3,1.1H171.8z M173.7,361.6c-0.9,0-1.6,0.3-2.2,1c-0.6,0.6-0.8,1.5-0.8,2.5
			s0.3,1.9,0.8,2.4c0.6,0.6,1.2,0.9,2,0.9c0.3,0,0.6,0,0.9-0.1c0.5-0.1,0.9-0.3,1.2-0.6c0.2-0.2,0.4-0.4,0.5-0.7
			c0.2-0.3,0.3-0.6,0.3-0.8h-1.1c-0.1,0.3-0.2,0.5-0.4,0.8c-0.3,0.4-0.8,0.6-1.3,0.6c-0.6,0-1-0.2-1.3-0.6s-0.4-0.9-0.5-1.6h4.7
			c0-0.6,0-1.1-0.1-1.4c-0.1-0.4-0.2-0.8-0.4-1.1c-0.2-0.3-0.5-0.6-1-0.8C174.6,361.7,174.1,361.6,173.7,361.6z M164.2,361.8
			l2.4,6.4h1.1l2.4-6.4h-1.2l-1.8,5.2l-1.7-5.2H164.2z M158.8,368.2h1.1v-8.8h-1.1V368.2z M156.1,368.2h1.1v-8.8h-1.1V368.2z
			 M149.2,361.8v4.4c0,0.5,0.1,1,0.3,1.3c0.3,0.6,0.9,0.9,1.8,0.9c0.6,0,1.1-0.2,1.5-0.5c0.2-0.2,0.4-0.4,0.5-0.6v0.9h1v-6.4h-1.1
			v3.1c0,0.6-0.1,1.1-0.2,1.5c-0.3,0.7-0.8,1-1.5,1c-0.5,0-0.9-0.2-1-0.6c-0.1-0.2-0.2-0.5-0.2-0.8v-4.3L149.2,361.8L149.2,361.8z
			 M142,368.2h1.2v-4h4.3v-1h-4.3v-2.7h4.9v-1.1H142V368.2z"/>
		<path id="Shape_26_" class="st5" d="M57.6,365.8c-0.7,0-1.3-0.6-1.3-1.3s0.6-1.3,1.3-1.3c0.7,0,1.3,0.6,1.3,1.3
			C58.8,365.2,58.3,365.8,57.6,365.8"/>
		<path id="Shape_27_" class="st6" d="M72.6,364.5c0,2.8-2.2,5-5,5c-2.8,0-5-2.2-5-5s2.2-5,5-5C70.4,359.5,72.6,361.7,72.6,364.5z"
			/>
		<path id="Shape_28_" class="st5" d="M72.6,364.5h-0.2c0,1.3-0.5,2.5-1.4,3.4s-2.1,1.4-3.4,1.4c-1.3,0-2.5-0.5-3.4-1.4
			c-0.9-0.9-1.4-2.1-1.4-3.4s0.5-2.5,1.4-3.4c0.9-0.9,2.1-1.4,3.4-1.4c2.6,0,4.8,2.1,4.8,4.8H72.6h0.2c0-2.9-2.4-5.3-5.3-5.3
			s-5.3,2.4-5.3,5.3s2.4,5.3,5.3,5.3s5.3-2.4,5.3-5.3H72.6z"/>
		<path id="Shape_29_" class="st5" d="M68.9,364.5c0,0.7-0.6,1.3-1.3,1.3c-0.7,0-1.3-0.6-1.3-1.3s0.6-1.3,1.3-1.3
			C68.3,363.2,68.9,363.8,68.9,364.5"/>
		<path id="Shape_30_" class="st6" d="M90.2,364.5c0,3.8-3.1,6.9-6.9,6.9c-3.8,0-6.9-3.1-6.9-6.9s3.1-6.9,6.9-6.9
			C87.1,357.6,90.2,360.7,90.2,364.5z"/>
		<path id="Shape_31_" class="st5" d="M90.2,364.5H90c0,1.8-0.7,3.5-1.9,4.7c-1.2,1.2-2.9,1.9-4.7,1.9c-1.8,0-3.5-0.7-4.7-1.9
			c-1.2-1.2-1.9-2.9-1.9-4.7s0.7-3.5,1.9-4.7c1.2-1.2,2.9-1.9,4.7-1.9c1.8,0,3.5,0.7,4.7,1.9c1.2,1.2,1.9,2.9,1.9,4.7H90.2h0.2
			c0-4-3.2-7.1-7.1-7.1c-3.9,0-7.1,3.2-7.1,7.1s3.2,7.1,7.1,7.1c3.9,0,7.1-3.2,7.1-7.1H90.2z"/>
		<path id="Shape_32_" class="st5" d="M84.5,364.5c0,0.7-0.6,1.3-1.3,1.3c-0.7,0-1.3-0.6-1.3-1.3s0.6-1.3,1.3-1.3
			C84,363.2,84.5,363.8,84.5,364.5"/>
		
			<ellipse id="Oval" transform="matrix(0.1897 -0.9818 0.9818 0.1897 -275.1335 395.6022)" class="st6" cx="102.1" cy="364.5" rx="8.8" ry="8.8"/>
		<path id="Shape_33_" class="st5" d="M93.3,364.4h0.2c0-4.7,3.8-8.5,8.5-8.5s8.5,3.8,8.5,8.5c0,4.7-3.8,8.5-8.5,8.5
			s-8.5-3.8-8.5-8.5H93.3h-0.2c0,5,4,9,9,9s9-4,9-9s-4-9-9-9s-9,4-9,9H93.3z"/>
		<circle id="Oval_1_" class="st5" cx="102.1" cy="364.5" r="1.3"/>
		<path id="Shape_34_" class="st6" d="M125.3,375.8c-6.2,0-11.3-5-11.3-11.3c0-6.2,5.1-11.3,11.3-11.3c6.2,0,11.3,5.1,11.3,11.3
			S131.5,375.8,125.3,375.8z"/>
		<path id="Shape_35_" class="st5" d="M125.3,375.8v-0.2c-3,0-5.8-1.2-7.8-3.2s-3.2-4.8-3.2-7.8s1.2-5.8,3.2-7.8s4.8-3.2,7.8-3.2
			s5.8,1.2,7.8,3.2s3.2,4.8,3.2,7.8s-1.2,5.8-3.2,7.8s-4.8,3.2-7.8,3.2V375.8v0.2c6.4,0,11.5-5.2,11.5-11.5
			c0-6.4-5.2-11.5-11.5-11.5c-6.4,0-11.5,5.2-11.5,11.5c0,6.4,5.2,11.5,11.5,11.5V375.8z"/>
		<path id="Shape_36_" class="st5" d="M125.3,365.8c-0.7,0-1.3-0.6-1.3-1.3s0.6-1.3,1.3-1.3c0.7,0,1.3,0.6,1.3,1.3
			S126,365.8,125.3,365.8"/>
		<path id="Shape_37_" class="st6" d="M57.6,391.8c-0.7,0-1.3-0.6-1.3-1.3s0.6-1.3,1.3-1.3c0.7,0,1.3,0.6,1.3,1.3
			C58.8,391.2,58.3,391.8,57.6,391.8z"/>
		<path id="Shape_38_" class="st5" d="M57.6,391.8v-0.2c-0.6,0-1-0.5-1-1c0-0.6,0.4-1,1-1c0.6,0,1,0.4,1,1s-0.4,1-1,1V391.8v0.2
			c0.8,0,1.5-0.7,1.5-1.5s-0.7-1.5-1.5-1.5c-0.8,0-1.5,0.7-1.5,1.5s0.7,1.5,1.5,1.5V391.8z"/>
		<path id="Shape_39_" class="st7" d="M72.6,390.5c0,2.8-2.2,5-5,5c-2.8,0-5-2.2-5-5s2.2-5,5-5C70.4,385.5,72.6,387.7,72.6,390.5z"
			/>
		<path id="Shape_40_" class="st8" d="M72.6,390.5h-0.2c0,1.3-0.5,2.5-1.4,3.4s-2.1,1.4-3.4,1.4c-1.3,0-2.5-0.5-3.4-1.4
			c-0.9-0.9-1.4-2.1-1.4-3.4s0.5-2.5,1.4-3.4c0.9-0.9,2.1-1.4,3.4-1.4c2.6,0,4.8,2.1,4.8,4.8H72.6h0.2c0-2.9-2.4-5.3-5.3-5.3
			s-5.3,2.4-5.3,5.3s2.4,5.3,5.3,5.3s5.3-2.4,5.3-5.3H72.6z"/>
		<path id="Shape_41_" class="st6" d="M68.9,390.5c0,0.7-0.6,1.3-1.3,1.3c-0.7,0-1.3-0.6-1.3-1.3s0.6-1.3,1.3-1.3
			C68.3,389.3,68.9,389.8,68.9,390.5z"/>
		<path id="Shape_42_" class="st5" d="M68.9,390.5h-0.2c0,0.6-0.4,1-1,1c-0.6,0-1-0.4-1-1s0.5-1,1-1c0.6,0,1,0.4,1,1H68.9h0.2
			c0-0.8-0.7-1.5-1.5-1.5c-0.8,0-1.5,0.7-1.5,1.5s0.7,1.5,1.5,1.5c0.8,0,1.5-0.7,1.5-1.5H68.9z"/>
		<path id="Shape_43_" class="st7" d="M90.2,390.5c0,3.8-3.1,6.9-6.9,6.9c-3.8,0-6.9-3.1-6.9-6.9s3.1-6.9,6.9-6.9
			C87.1,383.6,90.2,386.7,90.2,390.5z"/>
		<path id="Shape_44_" class="st8" d="M90.2,390.5H90c0,1.8-0.7,3.5-1.9,4.7c-1.2,1.2-2.9,1.9-4.7,1.9c-1.8,0-3.5-0.7-4.7-1.9
			c-1.2-1.2-1.9-2.9-1.9-4.7s0.7-3.5,1.9-4.7c1.2-1.2,2.9-1.9,4.7-1.9c1.8,0,3.5,0.7,4.7,1.9c1.2,1.2,1.9,2.9,1.9,4.7H90.2h0.2
			c0-3.9-3.2-7.1-7.1-7.1c-3.9,0-7.1,3.2-7.1,7.1s3.2,7.1,7.1,7.1c3.9,0,7.1-3.2,7.1-7.1H90.2z"/>
		<path id="Shape_45_" class="st6" d="M84.5,390.5c0,0.7-0.6,1.3-1.3,1.3c-0.7,0-1.3-0.6-1.3-1.3s0.6-1.3,1.3-1.3
			C84,389.3,84.5,389.8,84.5,390.5z"/>
		<path id="Shape_46_" class="st5" d="M84.5,390.5h-0.2c0,0.6-0.4,1-1,1c-0.6,0-1-0.4-1-1s0.5-1,1-1c0.6,0,1,0.4,1,1H84.5h0.2
			c0-0.8-0.7-1.5-1.5-1.5c-0.8,0-1.5,0.7-1.5,1.5s0.7,1.5,1.5,1.5c0.8,0,1.5-0.7,1.5-1.5H84.5z"/>
		<path id="Shape_47_" class="st7" d="M93.3,390.5c0-4.8,4-8.8,8.8-8.7c4.8,0,8.8,4,8.7,8.8c0,4.8-4,8.8-8.8,8.7
			C97.2,399.3,93.3,395.3,93.3,390.5z"/>
		<path id="Shape_48_" class="st8" d="M93.3,390.5h0.2c0-4.7,3.8-8.5,8.5-8.5s8.5,3.8,8.5,8.5s-3.8,8.5-8.5,8.5s-8.5-3.8-8.5-8.5
			H93.3h-0.2c0,5,4,9,9,9s9-4,9-9s-4-9-9-9s-9,4-9,9H93.3z"/>
		<path id="Shape_49_" class="st6" d="M102.1,391.8c-0.7,0-1.3-0.6-1.3-1.3s0.6-1.3,1.3-1.3c0.7,0,1.3,0.6,1.3,1.3
			S102.8,391.8,102.1,391.8z"/>
		<path id="Shape_50_" class="st5" d="M102.1,391.8v-0.2c-0.6,0-1-0.5-1-1c0-0.6,0.5-1,1-1c0.6,0,1,0.5,1,1c0,0.6-0.4,1-1,1V391.8
			v0.2c0.8,0,1.5-0.7,1.5-1.5s-0.7-1.5-1.5-1.5c-0.8,0-1.5,0.7-1.5,1.5s0.7,1.5,1.5,1.5V391.8z"/>
		<path id="Shape_51_" class="st7" d="M125.3,401.8c-6.2,0-11.3-5-11.3-11.3c0-6.2,5.1-11.3,11.3-11.3c6.2,0,11.3,5.1,11.3,11.3
			C136.6,396.8,131.5,401.8,125.3,401.8z"/>
		<path id="Shape_52_" class="st8" d="M125.3,401.8v-0.2c-3,0-5.8-1.2-7.8-3.2s-3.2-4.8-3.2-7.8s1.2-5.8,3.2-7.8s4.8-3.2,7.8-3.2
			s5.8,1.2,7.8,3.2s3.2,4.8,3.2,7.8s-1.2,5.8-3.2,7.8s-4.8,3.2-7.8,3.2V401.8v0.2c6.4,0,11.5-5.2,11.5-11.5
			c0-6.4-5.2-11.5-11.5-11.5c-6.4,0-11.5,5.2-11.5,11.5c0,6.4,5.2,11.5,11.5,11.5V401.8z"/>
		<path id="Shape_53_" class="st6" d="M125.3,391.8c-0.7,0-1.3-0.6-1.3-1.3s0.6-1.3,1.3-1.3c0.7,0,1.3,0.6,1.3,1.3
			S126,391.8,125.3,391.8z"/>
		<path id="Shape_54_" class="st5" d="M125.3,391.8v-0.2c-0.6,0-1-0.5-1-1c0-0.6,0.4-1,1-1c0.6,0,1,0.5,1,1c0,0.6-0.4,1-1,1V391.8
			v0.2c0.8,0,1.5-0.7,1.5-1.5s-0.7-1.5-1.5-1.5c-0.8,0-1.5,0.7-1.5,1.5s0.7,1.5,1.5,1.5V391.8z"/>
		<path id="Shape_55_" class="st4" d="M305.2,394.2h1.1v-3.4c0-0.4,0-0.7,0.1-1c0.1-0.2,0.2-0.4,0.4-0.7c0.2-0.3,0.5-0.4,0.8-0.5
			c0.2-0.1,0.4-0.1,0.6-0.1c0.5,0,0.8,0.2,1,0.6c0.1,0.2,0.2,0.6,0.2,0.9v4h1.1v-4.1c0-0.6-0.1-1.1-0.3-1.5c-0.3-0.6-0.9-1-1.8-1
			c-0.4,0-0.8,0.1-1.1,0.2c-0.3,0.2-0.7,0.4-1,0.8v-0.9h-1L305.2,394.2L305.2,394.2z M300.9,387.6c-0.9,0-1.6,0.3-2.2,1
			c-0.5,0.6-0.8,1.5-0.8,2.6c0,1,0.3,1.8,0.8,2.4s1.2,0.9,2.1,0.9c1,0,1.8-0.3,2.3-1s0.7-1.5,0.7-2.6s-0.3-1.9-0.8-2.4
			S301.8,387.6,300.9,387.6z M300.9,393.5c-0.6,0-1.1-0.2-1.4-0.7s-0.4-1-0.4-1.7c0-0.7,0.1-1.3,0.4-1.8s0.8-0.8,1.4-0.8
			c0.7,0,1.2,0.3,1.5,0.9c0.2,0.4,0.3,0.9,0.3,1.5c0,0.7-0.1,1.3-0.4,1.8C302.1,393.2,301.6,393.5,300.9,393.5z M295.7,386.6h1.1
			v-1.2h-1.1V386.6z M295.7,394.2h1.1v-6.4h-1.1V394.2z M292.5,387.8h-0.9v0.9h0.9v4.2c0,0.4,0.1,0.7,0.3,1c0.2,0.3,0.5,0.4,1,0.4
			c0.2,0,0.3,0,0.4,0c0.1,0,0.3,0,0.4-0.1v-0.9h-0.2h-0.2c-0.2,0-0.3,0-0.4-0.1c-0.2-0.1-0.2-0.2-0.2-0.4v-4.2h1v-0.9h-1V386h-1.1
			V387.8z M287.2,390.5c-0.6,0.1-1.1,0.3-1.5,0.6c-0.4,0.3-0.6,0.8-0.6,1.4c0,0.5,0.2,1,0.6,1.4c0.4,0.4,0.9,0.5,1.5,0.5
			c0.5,0,0.9-0.1,1.4-0.3c0.5-0.2,0.7-0.5,0.9-0.7c0,0.3,0.1,0.5,0.2,0.6c0.2,0.3,0.4,0.4,0.8,0.4c0.2,0,0.3,0,0.4,0s0.2,0,0.4-0.1
			v-0.8h-0.2h-0.2c-0.1,0-0.2,0-0.3-0.1s-0.1-0.2-0.1-0.3v-3.7c0-0.6-0.2-1.1-0.7-1.3c-0.5-0.3-1.1-0.4-1.8-0.4
			c-0.6,0-1.2,0.2-1.7,0.5c-0.5,0.3-0.7,0.9-0.8,1.7h1c0-0.3,0.1-0.6,0.3-0.8c0.2-0.3,0.6-0.5,1.2-0.5c0.5,0,0.9,0.1,1.1,0.2
			c0.3,0.2,0.4,0.4,0.4,0.8c0,0.2,0,0.3-0.1,0.4c-0.1,0.2-0.2,0.3-0.5,0.3L287.2,390.5z M286.3,392.5c0-0.4,0.2-0.7,0.5-0.9
			c0.2-0.1,0.5-0.2,0.9-0.2l0.7-0.1c0.2,0,0.4-0.1,0.6-0.1c0.2-0.1,0.4-0.1,0.5-0.2v0.9c0,0.7-0.3,1.1-0.9,1.4
			c-0.4,0.2-0.7,0.3-1.1,0.3c-0.3,0-0.6-0.1-0.8-0.3C286.4,393.1,286.3,392.8,286.3,392.5z M278.5,396.8h1.1v-3.3
			c0.2,0.3,0.5,0.5,0.6,0.6c0.3,0.2,0.7,0.3,1.2,0.3c0.6,0,1.2-0.2,1.6-0.6c0.7-0.6,1.1-1.6,1.1-3c0-1-0.3-1.8-0.8-2.4
			s-1.1-0.8-1.9-0.8c-0.5,0-0.9,0.1-1.3,0.4c-0.3,0.2-0.5,0.4-0.7,0.7v-0.8h-1.1v8.9H278.5z M281.3,393.5c-0.7,0-1.3-0.3-1.5-1
			c-0.1-0.3-0.2-0.8-0.2-1.3c0-0.6,0.1-1.1,0.2-1.5c0.3-0.7,0.8-1.1,1.5-1.1c0.7,0,1.3,0.4,1.5,1.1c0.1,0.4,0.2,0.8,0.2,1.3
			c0,0.8-0.2,1.5-0.5,1.9S281.8,393.5,281.3,393.5z M275.9,386.6h1.1v-1.2h-1.1V386.6z M275.9,394.2h1.1v-6.4h-1.1V394.2z
			 M272.2,387.6c-0.8,0-1.5,0.3-2.1,0.9s-0.8,1.5-0.8,2.6c0,0.9,0.2,1.7,0.7,2.3s1.2,0.9,2,0.9c0.7,0,1.4-0.2,1.8-0.6
			c0.5-0.4,0.8-1,0.9-1.9h-1c-0.1,0.5-0.3,0.8-0.5,1.1c-0.3,0.3-0.6,0.4-1.1,0.4c-0.6,0-1-0.2-1.3-0.7c-0.3-0.4-0.4-1-0.4-1.6
			s0.1-1.2,0.3-1.6c0.3-0.7,0.8-1,1.5-1c0.5,0,0.9,0.1,1.1,0.4c0.2,0.3,0.4,0.6,0.4,1h1c-0.1-0.9-0.4-1.5-0.8-1.8
			C273.6,387.8,273,387.6,272.2,387.6z M267.1,386.6h1.1v-1.2h-1.1V386.6z M267.1,394.2h1.1v-6.4h-1.1V394.2z M263.9,387.8H263v0.9
			h0.9v4.2c0,0.4,0.1,0.7,0.3,1c0.2,0.3,0.5,0.4,1,0.4c0.2,0,0.3,0,0.4,0s0.3,0,0.4-0.1v-0.9h-0.2h-0.2c-0.2,0-0.3,0-0.4-0.1
			c-0.2-0.1-0.2-0.2-0.2-0.4v-4.2h1v-0.9h-1V386h-1.1V387.8z M259.6,394.2h1.1v-3.7c0-0.5,0.1-0.9,0.4-1.2c0.3-0.3,0.7-0.5,1.2-0.5
			h0.2h0.2v-1.1c-0.1,0-0.2,0-0.2,0h-0.1c-0.4,0-0.8,0.2-1.1,0.5c-0.3,0.3-0.5,0.6-0.6,0.8v-1.1h-1v6.3H259.6z M254.5,390.5
			c-0.6,0.1-1.1,0.3-1.5,0.6c-0.4,0.3-0.6,0.8-0.6,1.4c0,0.5,0.2,1,0.6,1.4s0.9,0.5,1.5,0.5c0.5,0,0.9-0.1,1.4-0.3
			c0.5-0.2,0.7-0.5,0.9-0.7c0,0.3,0.1,0.5,0.2,0.6c0.2,0.3,0.4,0.4,0.8,0.4c0.2,0,0.3,0,0.4,0c0.1,0,0.2,0,0.4-0.1v-0.8h-0.2h-0.2
			c-0.1,0-0.2,0-0.3-0.1s-0.1-0.2-0.1-0.3v-3.7c0-0.6-0.2-1.1-0.7-1.3c-0.5-0.3-1.1-0.4-1.8-0.4c-0.6,0-1.2,0.2-1.7,0.5
			c-0.5,0.3-0.7,0.9-0.8,1.7h1c0-0.3,0.1-0.6,0.3-0.8c0.2-0.3,0.6-0.5,1.2-0.5c0.5,0,0.9,0.1,1.1,0.2c0.3,0.2,0.4,0.4,0.4,0.8
			c0,0.2,0,0.3-0.1,0.4c-0.1,0.2-0.2,0.3-0.5,0.3L254.5,390.5z M253.6,392.5c0-0.4,0.2-0.7,0.5-0.9c0.2-0.1,0.5-0.2,0.9-0.2l0.7-0.1
			c0.2,0,0.4-0.1,0.6-0.1c0.2-0.1,0.4-0.1,0.5-0.2v0.9c0,0.7-0.3,1.1-0.9,1.4c-0.4,0.2-0.7,0.3-1.1,0.3c-0.3,0-0.6-0.1-0.8-0.3
			C253.7,393.1,253.6,392.8,253.6,392.5z M245.9,396.8h1.1v-3.3c0.2,0.3,0.5,0.5,0.6,0.6c0.3,0.2,0.7,0.3,1.2,0.3
			c0.6,0,1.2-0.2,1.6-0.6c0.7-0.6,1.1-1.6,1.1-3c0-1-0.3-1.8-0.8-2.4s-1.1-0.8-1.9-0.8c-0.5,0-0.9,0.1-1.3,0.4
			c-0.3,0.2-0.5,0.4-0.7,0.7v-0.8h-1.1v8.9H245.9z M248.6,393.5c-0.7,0-1.3-0.3-1.5-1c-0.1-0.3-0.2-0.8-0.2-1.3
			c0-0.6,0.1-1.1,0.2-1.5c0.3-0.7,0.8-1.1,1.5-1.1c0.7,0,1.3,0.4,1.5,1.1c0.1,0.4,0.2,0.8,0.2,1.3c0,0.8-0.2,1.5-0.5,1.9
			S249.2,393.5,248.6,393.5z M238.5,394.2h1.1v-3.7c0-0.5,0.1-0.9,0.4-1.2c0.3-0.3,0.7-0.5,1.2-0.5h0.2h0.2v-1.1c-0.1,0-0.2,0-0.2,0
			h-0.1c-0.4,0-0.8,0.2-1.1,0.5c-0.3,0.3-0.5,0.6-0.6,0.8v-1.1h-1v6.3H238.5z M234.2,387.6c-0.9,0-1.6,0.3-2.2,1
			c-0.5,0.6-0.8,1.5-0.8,2.6c0,1,0.3,1.8,0.8,2.4s1.2,0.9,2.1,0.9c1,0,1.8-0.3,2.3-1s0.7-1.5,0.7-2.6s-0.3-1.9-0.8-2.4
			S235,387.6,234.2,387.6z M234.2,393.5c-0.6,0-1.1-0.2-1.4-0.7s-0.4-1-0.4-1.7c0-0.7,0.1-1.3,0.4-1.8s0.8-0.8,1.4-0.8
			c0.7,0,1.2,0.3,1.5,0.9c0.2,0.4,0.3,0.9,0.3,1.5c0,0.7-0.1,1.3-0.4,1.8C235.4,393.2,234.9,393.5,234.2,393.5z M227.1,387.7
			c-0.9,0-1.6,0.3-2,1c-0.5,0.7-0.7,1.5-0.7,2.4c0,1,0.3,1.8,0.8,2.4s1.1,0.9,1.8,0.9c0.4,0,0.8-0.1,1.2-0.3
			c0.3-0.2,0.6-0.5,0.9-0.9v0.9h1v-8.8h-1v3.2c-0.2-0.3-0.5-0.5-0.6-0.6C228,387.8,227.6,387.7,227.1,387.7z M225.5,391.1
			c0-0.8,0.2-1.4,0.5-1.8c0.3-0.4,0.8-0.6,1.3-0.6s0.9,0.2,1.2,0.6c0.3,0.4,0.5,1,0.5,1.8c0,0.8-0.2,1.4-0.5,1.8s-0.7,0.6-1.2,0.6
			c-0.6,0-1.1-0.2-1.4-0.7C225.7,392.3,225.5,391.8,225.5,391.1z M218,394.2h1.1v-3.4c0-0.4,0-0.7,0.1-1c0.1-0.2,0.2-0.4,0.4-0.7
			c0.2-0.3,0.5-0.4,0.8-0.5c0.2-0.1,0.4-0.1,0.6-0.1c0.5,0,0.8,0.2,1,0.6c0.1,0.2,0.2,0.6,0.2,0.9v4h1.1v-4.1c0-0.6-0.1-1.1-0.3-1.5
			c-0.3-0.6-0.9-1-1.8-1c-0.4,0-0.8,0.1-1.1,0.2c-0.3,0.2-0.7,0.4-1,0.8v-0.9h-1v6.7H218z M212,390.5c0-0.5,0.2-1,0.5-1.4
			s0.7-0.5,1.2-0.5c0.7,0,1.2,0.3,1.5,0.8c0.2,0.3,0.3,0.7,0.3,1.1H212z M213.9,387.7c-0.9,0-1.6,0.3-2.2,1
			c-0.6,0.6-0.8,1.5-0.8,2.5s0.3,1.9,0.8,2.4c0.6,0.6,1.2,0.9,2,0.9c0.3,0,0.6,0,0.9-0.1c0.5-0.1,0.9-0.3,1.2-0.6
			c0.2-0.2,0.4-0.4,0.5-0.7c0.2-0.3,0.3-0.6,0.3-0.8h-1.1c-0.1,0.3-0.2,0.5-0.4,0.8c-0.3,0.4-0.8,0.6-1.3,0.6c-0.6,0-1-0.2-1.3-0.6
			s-0.4-0.9-0.5-1.6h4.7c0-0.6,0-1.1-0.1-1.4c-0.1-0.4-0.2-0.8-0.4-1.1s-0.5-0.6-1-0.8C214.7,387.8,214.3,387.7,213.9,387.7z
			 M204.4,387.8l2.4,6.4h1.1l2.4-6.4h-1.2l-1.8,5.2l-1.7-5.2H204.4z M195.7,390.5c0-0.5,0.2-1,0.5-1.4s0.7-0.5,1.2-0.5
			c0.7,0,1.2,0.3,1.5,0.8c0.2,0.3,0.3,0.7,0.3,1.1H195.7z M197.5,387.7c-0.9,0-1.6,0.3-2.2,1c-0.6,0.6-0.8,1.5-0.8,2.5
			s0.3,1.9,0.8,2.4c0.6,0.6,1.2,0.9,2,0.9c0.3,0,0.6,0,0.9-0.1c0.5-0.1,0.9-0.3,1.2-0.6c0.2-0.2,0.4-0.4,0.5-0.7
			c0.2-0.3,0.3-0.6,0.3-0.8h-1.1c-0.1,0.3-0.2,0.5-0.4,0.8c-0.3,0.4-0.8,0.6-1.3,0.6c-0.6,0-1-0.2-1.3-0.6c-0.3-0.4-0.4-0.9-0.5-1.6
			h4.7c0-0.6,0-1.1-0.1-1.4c-0.1-0.4-0.2-0.8-0.4-1.1s-0.5-0.6-1-0.8C198.4,387.8,198,387.7,197.5,387.7z M191.7,387.8h-0.9v0.9h0.9
			v4.2c0,0.4,0.1,0.7,0.3,1c0.2,0.3,0.5,0.4,1,0.4c0.2,0,0.3,0,0.4,0c0.1,0,0.3,0,0.4-0.1v-0.9h-0.2h-0.2c-0.2,0-0.3,0-0.4-0.1
			c-0.2-0.1-0.2-0.2-0.2-0.4v-4.2h1v-0.9h-1V386h-1.1V387.8z M185.5,390.5c0-0.5,0.2-1,0.5-1.4s0.7-0.5,1.2-0.5
			c0.7,0,1.2,0.3,1.5,0.8c0.2,0.3,0.3,0.7,0.3,1.1H185.5z M187.3,387.7c-0.9,0-1.6,0.3-2.2,1c-0.6,0.6-0.8,1.5-0.8,2.5
			s0.3,1.9,0.8,2.4c0.6,0.6,1.2,0.9,2,0.9c0.3,0,0.6,0,0.9-0.1c0.5-0.1,0.9-0.3,1.2-0.6c0.2-0.2,0.4-0.4,0.5-0.7
			c0.2-0.3,0.3-0.6,0.3-0.8h-1c-0.1,0.3-0.2,0.5-0.4,0.8c-0.3,0.4-0.8,0.6-1.3,0.6c-0.6,0-1-0.2-1.3-0.6s-0.4-0.9-0.5-1.6h4.7
			c0-0.6,0-1.1-0.1-1.4c-0.1-0.4-0.2-0.8-0.4-1.1s-0.5-0.6-1-0.8C188.2,387.8,187.7,387.7,187.3,387.7z M182,394.2h1.1v-8.8H182
			V394.2z M175,396.8h1.1v-3.3c0.2,0.3,0.5,0.5,0.6,0.6c0.3,0.2,0.7,0.3,1.2,0.3c0.6,0,1.2-0.2,1.6-0.6c0.7-0.6,1.1-1.6,1.1-3
			c0-1-0.3-1.8-0.8-2.4s-1.1-0.8-1.9-0.8c-0.5,0-0.9,0.1-1.3,0.4c-0.3,0.2-0.5,0.4-0.7,0.7v-0.8H175V396.8z M177.8,393.5
			c-0.7,0-1.3-0.3-1.5-1c-0.1-0.3-0.2-0.8-0.2-1.3c0-0.6,0.1-1.1,0.2-1.5c0.3-0.7,0.8-1.1,1.5-1.1s1.3,0.4,1.5,1.1
			c0.1,0.4,0.2,0.8,0.2,1.3c0,0.8-0.2,1.5-0.5,1.9S178.3,393.5,177.8,393.5z M164.9,394.2h1.1v-3.4c0-0.8,0.2-1.4,0.5-1.7
			c0.3-0.3,0.7-0.5,1.1-0.5c0.4,0,0.8,0.1,0.9,0.4c0.1,0.2,0.2,0.5,0.2,1v4.2h1.1v-3.7c0-0.7,0.2-1.1,0.5-1.4
			c0.3-0.3,0.7-0.4,1.1-0.4c0.3,0,0.6,0.1,0.8,0.2c0.2,0.2,0.3,0.5,0.3,0.9v4.5h1.1V390c0-0.6-0.1-1-0.3-1.4
			c-0.3-0.6-0.9-0.9-1.8-0.9c-0.4,0-0.8,0.1-1.1,0.2c-0.3,0.2-0.6,0.4-0.8,0.8c-0.1-0.3-0.3-0.5-0.5-0.6c-0.3-0.3-0.7-0.4-1.2-0.4
			s-0.9,0.1-1.2,0.4c-0.2,0.1-0.4,0.4-0.7,0.7v-0.9h-1.1V394.2z M160.7,387.6c-0.9,0-1.6,0.3-2.2,1c-0.5,0.6-0.8,1.5-0.8,2.6
			c0,1,0.3,1.8,0.8,2.4s1.2,0.9,2.1,0.9c1,0,1.8-0.3,2.3-1s0.7-1.5,0.7-2.6s-0.3-1.9-0.8-2.4S161.5,387.6,160.7,387.6z M160.6,393.5
			c-0.6,0-1.1-0.2-1.4-0.7s-0.4-1-0.4-1.7c0-0.7,0.1-1.3,0.4-1.8s0.8-0.8,1.4-0.8c0.7,0,1.2,0.3,1.5,0.9c0.2,0.4,0.3,0.9,0.3,1.5
			c0,0.7-0.1,1.3-0.4,1.8C161.8,393.2,161.3,393.5,160.6,393.5z M154.4,387.6c-0.8,0-1.5,0.3-2.1,0.9c-0.6,0.6-0.8,1.5-0.8,2.6
			c0,0.9,0.2,1.7,0.7,2.3s1.2,0.9,2,0.9c0.7,0,1.4-0.2,1.8-0.6c0.5-0.4,0.8-1,0.9-1.9h-1c-0.1,0.5-0.3,0.8-0.5,1.1
			c-0.3,0.3-0.6,0.4-1.1,0.4c-0.6,0-1-0.2-1.3-0.7c-0.3-0.4-0.4-1-0.4-1.6s0.1-1.2,0.3-1.6c0.3-0.7,0.8-1,1.5-1
			c0.5,0,0.9,0.1,1.1,0.4c0.2,0.3,0.4,0.6,0.4,1h1c-0.1-0.9-0.4-1.5-0.8-1.8C155.8,387.8,155.2,387.6,154.4,387.6z M145.2,394.2h1.1
			v-3.4c0-0.4,0-0.7,0.1-1c0.1-0.2,0.2-0.4,0.4-0.7c0.2-0.3,0.5-0.4,0.8-0.5c0.2-0.1,0.4-0.1,0.6-0.1c0.5,0,0.8,0.2,1,0.6
			c0.1,0.2,0.2,0.6,0.2,0.9v4h1.1v-4.1c0-0.6-0.1-1.1-0.3-1.5c-0.3-0.6-0.9-1-1.8-1c-0.4,0-0.8,0.1-1.1,0.2c-0.3,0.2-0.7,0.4-1,0.8
			v-0.9h-1v6.7H145.2z M142.2,394.2h1.2v-8.8h-1.2V394.2z"/>
		<path id="Shape_56_" class="st4" d="M162.2,158.2h1.1v-3.4c0-0.4,0-0.7,0.1-1c0.1-0.2,0.2-0.4,0.4-0.7c0.2-0.3,0.5-0.4,0.8-0.5
			c0.2-0.1,0.4-0.1,0.6-0.1c0.5,0,0.8,0.2,1,0.6c0.1,0.2,0.2,0.6,0.2,0.9v4h1.1v-4.1c0-0.6-0.1-1.1-0.3-1.5c-0.3-0.6-0.9-1-1.8-1
			c-0.4,0-0.8,0.1-1.1,0.2c-0.3,0.2-0.7,0.4-1,0.8v-0.9h-1v6.7H162.2z M157.1,154.5c-0.6,0.1-1.1,0.3-1.5,0.6
			c-0.4,0.3-0.6,0.8-0.6,1.4c0,0.5,0.2,1,0.6,1.4c0.4,0.4,0.9,0.5,1.5,0.5c0.5,0,0.9-0.1,1.4-0.3c0.5-0.2,0.7-0.5,0.9-0.7
			c0,0.3,0.1,0.5,0.2,0.6c0.2,0.3,0.4,0.4,0.8,0.4c0.2,0,0.3,0,0.4,0c0.1,0,0.2,0,0.4-0.1v-0.8H161h-0.2c-0.1,0-0.2,0-0.3-0.1
			c-0.1-0.1-0.1-0.2-0.1-0.3v-3.7c0-0.6-0.2-1.1-0.7-1.3c-0.5-0.3-1.1-0.4-1.8-0.4c-0.6,0-1.2,0.2-1.7,0.5s-0.7,0.9-0.8,1.7h1
			c0-0.3,0.1-0.6,0.3-0.8c0.2-0.3,0.6-0.5,1.2-0.5c0.5,0,0.9,0.1,1.1,0.2c0.3,0.2,0.4,0.4,0.4,0.8c0,0.2,0,0.3-0.1,0.4
			c-0.1,0.2-0.2,0.3-0.5,0.3L157.1,154.5z M156.2,156.5c0-0.4,0.2-0.7,0.5-0.9c0.2-0.1,0.5-0.2,0.9-0.2l0.7-0.1
			c0.2,0,0.4-0.1,0.6-0.1c0.2-0.1,0.4-0.1,0.5-0.2v0.9c0,0.7-0.3,1.1-0.9,1.4c-0.4,0.2-0.7,0.3-1.1,0.3c-0.3,0-0.6-0.1-0.8-0.3
			C156.3,157,156.2,156.8,156.2,156.5z M152.6,150.6h1.1v-1.2h-1.1V150.6z M152.6,158.2h1.1v-6.4h-1.1V158.2z M146.1,156.2
			c0,0.6,0.2,1.2,0.6,1.6c0.4,0.4,1.1,0.6,2.1,0.6c0.9,0,1.6-0.2,2-0.6c0.4-0.4,0.7-0.9,0.7-1.5c0-0.6-0.2-1-0.6-1.3
			c-0.3-0.2-0.8-0.4-1.6-0.5l-0.7-0.2c-0.3-0.1-0.6-0.2-0.7-0.3c-0.3-0.2-0.4-0.4-0.4-0.7s0.1-0.5,0.3-0.6c0.2-0.1,0.5-0.2,0.9-0.2
			c0.6,0,1.1,0.1,1.3,0.4c0.2,0.2,0.2,0.4,0.3,0.7h1c0-0.4-0.1-0.8-0.4-1.2c-0.4-0.6-1.1-0.8-2.1-0.8c-0.7,0-1.3,0.2-1.8,0.6
			c-0.4,0.4-0.7,0.9-0.7,1.5c0,0.5,0.2,0.9,0.7,1.2c0.3,0.2,0.7,0.3,1.2,0.5l0.9,0.2c0.5,0.1,0.8,0.2,0.9,0.3
			c0.2,0.1,0.4,0.4,0.4,0.6c0,0.4-0.2,0.6-0.5,0.8c-0.3,0.2-0.7,0.3-1.1,0.3c-0.7,0-1.2-0.2-1.4-0.5c-0.2-0.2-0.2-0.5-0.3-0.8h-1
			V156.2z M140,156.2c0,0.6,0.2,1.2,0.6,1.6c0.4,0.4,1.1,0.6,2.1,0.6c0.9,0,1.6-0.2,2-0.6c0.4-0.4,0.7-0.9,0.7-1.5
			c0-0.6-0.2-1-0.6-1.3c-0.3-0.2-0.8-0.4-1.6-0.5l-0.7-0.2c-0.3-0.1-0.6-0.2-0.7-0.3c-0.3-0.2-0.4-0.4-0.4-0.7s0.1-0.5,0.3-0.6
			c0.2-0.1,0.5-0.2,0.9-0.2c0.6,0,1.1,0.1,1.3,0.4c0.2,0.2,0.2,0.4,0.3,0.7h1c0-0.4-0.1-0.8-0.4-1.2c-0.4-0.6-1.1-0.8-2.1-0.8
			c-0.7,0-1.3,0.2-1.8,0.6c-0.4,0.4-0.7,0.9-0.7,1.5c0,0.5,0.2,0.9,0.7,1.2c0.3,0.2,0.7,0.3,1.2,0.5l0.9,0.2
			c0.5,0.1,0.8,0.2,0.9,0.3c0.2,0.1,0.4,0.4,0.4,0.6c0,0.4-0.2,0.6-0.5,0.8s-0.7,0.3-1.1,0.3c-0.7,0-1.2-0.2-1.4-0.5
			c-0.2-0.2-0.2-0.5-0.3-0.8h-1V156.2z M135.3,154.5c-0.6,0.1-1.1,0.3-1.5,0.6c-0.4,0.3-0.6,0.8-0.6,1.4c0,0.5,0.2,1,0.6,1.4
			c0.4,0.4,0.9,0.5,1.5,0.5c0.5,0,0.9-0.1,1.4-0.3c0.5-0.2,0.7-0.5,0.9-0.7c0,0.3,0.1,0.5,0.2,0.6c0.2,0.3,0.4,0.4,0.8,0.4
			c0.2,0,0.3,0,0.4,0s0.2,0,0.4-0.1v-0.8h-0.2H139c-0.1,0-0.2,0-0.3-0.1c-0.1-0.1-0.1-0.2-0.1-0.3v-3.7c0-0.6-0.2-1.1-0.7-1.3
			c-0.5-0.3-1.1-0.4-1.8-0.4c-0.6,0-1.2,0.2-1.7,0.5s-0.7,0.9-0.8,1.7h1c0-0.3,0.1-0.6,0.3-0.8c0.2-0.3,0.6-0.5,1.2-0.5
			c0.5,0,0.9,0.1,1.1,0.2c0.3,0.2,0.4,0.4,0.4,0.8c0,0.2,0,0.3-0.1,0.4c-0.1,0.2-0.2,0.3-0.5,0.3L135.3,154.5z M134.4,156.5
			c0-0.4,0.2-0.7,0.5-0.9c0.2-0.1,0.5-0.2,0.9-0.2l0.7-0.1c0.2,0,0.4-0.1,0.6-0.1c0.2-0.1,0.4-0.1,0.5-0.2v0.9
			c0,0.7-0.3,1.1-0.9,1.4c-0.4,0.2-0.7,0.3-1.1,0.3c-0.3,0-0.6-0.1-0.8-0.3C134.5,157,134.4,156.8,134.4,156.5z M130.9,158.2h1.1
			v-8.8h-1.1V158.2z M127.6,151.8h-0.9v0.9h0.9v4.2c0,0.4,0.1,0.7,0.3,1c0.2,0.3,0.5,0.4,1,0.4c0.2,0,0.3,0,0.4,0
			c0.1,0,0.3,0,0.4-0.1v-0.9h-0.2h-0.2c-0.2,0-0.3,0-0.4-0.1c-0.2-0.1-0.2-0.2-0.2-0.4v-4.2h1v-0.9h-1V150h-1.1V151.8z M118.7,158.2
			h1.2l1-2.6h3.4l0.9,2.6h1.3l-3.2-8.8H122L118.7,158.2z M121.2,154.6l1.4-3.9l1.4,3.9H121.2z"/>
		<path id="Shape_57_" class="st4" d="M313,151.4c0,0.9,0.3,1.7,0.9,2.3c0.6,0.6,1.4,0.8,2.5,0.8c0.9,0,1.7-0.2,2.4-0.6
			c0.7-0.4,1-1.1,1-2.1c0-0.8-0.3-1.4-0.8-1.8c-0.3-0.2-0.8-0.4-1.3-0.6l-1.2-0.3c-0.8-0.2-1.3-0.4-1.5-0.5
			c-0.3-0.2-0.5-0.5-0.5-0.9c0-0.4,0.1-0.7,0.4-1c0.3-0.3,0.8-0.4,1.5-0.4c0.8,0,1.4,0.2,1.8,0.7c0.2,0.3,0.3,0.6,0.4,1.1h1.1
			c0-1-0.3-1.7-0.9-2.1c-0.6-0.4-1.4-0.7-2.3-0.7c-1,0-1.7,0.3-2.3,0.8c-0.5,0.5-0.8,1.2-0.8,1.9s0.3,1.3,0.8,1.6
			c0.3,0.2,0.8,0.4,1.6,0.6l1.2,0.3c0.6,0.1,1.1,0.3,1.4,0.5c0.3,0.2,0.4,0.5,0.4,1c0,0.6-0.3,1.1-1,1.3c-0.4,0.1-0.7,0.2-1.2,0.2
			c-1,0-1.6-0.3-2-0.9c-0.2-0.3-0.3-0.7-0.3-1.2H313z M301.1,145.4l2.3,8.8h1.3l2-7.3l2,7.3h1.2l2.3-8.8h-1.3l-1.7,7.2l-2-7.2H306
			l-2,7.1l-1.7-7.1H301.1z M293.3,154.2h1.2l1-2.6h3.4l0.9,2.6h1.3l-3.2-8.8h-1.3L293.3,154.2z M295.8,150.6l1.4-3.9l1.4,3.9H295.8z
			"/>
		<path id="Shape_58_" class="st4" d="M394.5,123.5h1.2v-8.8h-1.2V123.5z M389.1,114.5c-1.3,0-2.3,0.5-3,1.4c-0.7,0.8-1,1.9-1,3.2
			c0,1.7,0.5,3,1.4,3.8c0.7,0.6,1.5,0.9,2.5,0.9c1.2,0,2.1-0.4,2.8-1.1c0.6-0.6,0.9-1.4,1-2.3h-1.2c-0.1,0.6-0.3,1-0.5,1.4
			c-0.5,0.7-1.1,1-2,1s-1.6-0.3-2.1-1c-0.5-0.6-0.7-1.5-0.7-2.5c0-1.3,0.3-2.2,0.8-2.8s1.2-0.9,2.1-0.9c0.7,0,1.2,0.2,1.6,0.5
			c0.4,0.3,0.6,0.8,0.8,1.3h1.2c-0.1-0.7-0.4-1.4-1-2C391.2,114.8,390.2,114.5,389.1,114.5z M379.3,119.8c0-0.5,0.2-1,0.5-1.4
			c0.3-0.4,0.7-0.5,1.2-0.5c0.7,0,1.2,0.3,1.5,0.8c0.2,0.3,0.3,0.7,0.3,1.1H379.3z M381.1,116.9c-0.9,0-1.6,0.3-2.2,1
			c-0.6,0.6-0.8,1.5-0.8,2.5s0.3,1.9,0.8,2.4c0.6,0.6,1.2,0.9,2,0.9c0.3,0,0.6,0,0.9-0.1c0.5-0.1,0.9-0.3,1.2-0.6
			c0.2-0.2,0.4-0.4,0.5-0.7c0.2-0.3,0.3-0.6,0.3-0.8h-1.1c-0.1,0.3-0.2,0.5-0.4,0.8c-0.3,0.4-0.8,0.6-1.3,0.6c-0.6,0-1-0.2-1.3-0.6
			c-0.3-0.4-0.4-0.9-0.5-1.6h4.7c0-0.6,0-1.1-0.1-1.4c-0.1-0.4-0.2-0.8-0.4-1.1c-0.2-0.3-0.5-0.6-1-0.8
			C382,117,381.6,116.9,381.1,116.9z M375.8,123.5h1.1v-8.8h-1.1V123.5z M372.1,116.9c-0.8,0-1.5,0.3-2.1,0.9
			c-0.6,0.6-0.8,1.5-0.8,2.6c0,0.9,0.2,1.7,0.7,2.3c0.5,0.6,1.2,0.9,2,0.9c0.7,0,1.4-0.2,1.8-0.6c0.5-0.4,0.8-1,0.9-1.9h-1
			c-0.1,0.5-0.3,0.8-0.5,1.1c-0.3,0.3-0.6,0.4-1.1,0.4c-0.6,0-1-0.2-1.3-0.7c-0.3-0.4-0.4-1-0.4-1.6c0-0.6,0.1-1.2,0.3-1.6
			c0.3-0.7,0.8-1,1.5-1c0.5,0,0.9,0.1,1.1,0.4c0.2,0.3,0.4,0.6,0.4,1h1c-0.1-0.9-0.4-1.5-0.8-1.8
			C373.4,117.1,372.8,116.9,372.1,116.9z M365.6,123.5h1.1v-3.7c0-0.5,0.1-0.9,0.4-1.2c0.3-0.3,0.7-0.5,1.2-0.5h0.2h0.2V117
			c-0.1,0-0.2,0-0.2,0h-0.1c-0.4,0-0.8,0.2-1.1,0.5c-0.3,0.3-0.5,0.6-0.6,0.8v-1.1h-1v6.3H365.6z M362.8,115.9h1.1v-1.2h-1.1V115.9z
			 M362.8,123.5h1.1v-6.4h-1.1V123.5z M357.8,114.5c-1.3,0-2.3,0.5-3,1.4c-0.7,0.8-1,1.9-1,3.2c0,1.7,0.5,3,1.4,3.8
			c0.7,0.6,1.5,0.9,2.5,0.9c1.2,0,2.1-0.4,2.8-1.1c0.6-0.6,0.9-1.4,1-2.3h-1.2c-0.1,0.6-0.3,1-0.5,1.4c-0.5,0.7-1.1,1-2,1
			c-0.9,0-1.6-0.3-2.1-1c-0.5-0.6-0.7-1.5-0.7-2.5c0-1.3,0.3-2.2,0.8-2.8s1.2-0.9,2.1-0.9c0.7,0,1.2,0.2,1.6,0.5
			c0.4,0.3,0.6,0.8,0.8,1.3h1.2c-0.1-0.7-0.4-1.4-1-2S358.9,114.5,357.8,114.5z"/>
		<path id="Shape_59_" class="st4" d="M304.2,100.5c0,0.6,0.2,1.2,0.6,1.6c0.4,0.4,1.1,0.6,2.1,0.6c0.9,0,1.6-0.2,2-0.6
			s0.7-0.9,0.7-1.5s-0.2-1-0.6-1.3c-0.3-0.2-0.8-0.4-1.6-0.5l-0.7-0.2c-0.3-0.1-0.6-0.2-0.7-0.3c-0.3-0.2-0.4-0.4-0.4-0.7
			c0-0.3,0.1-0.5,0.3-0.6c0.2-0.1,0.5-0.2,0.9-0.2c0.6,0,1.1,0.1,1.3,0.4c0.2,0.2,0.2,0.4,0.3,0.7h1c0-0.4-0.1-0.8-0.4-1.2
			c-0.4-0.6-1.1-0.8-2.1-0.8c-0.7,0-1.3,0.2-1.8,0.6c-0.4,0.4-0.7,0.9-0.7,1.5c0,0.5,0.2,0.9,0.7,1.2c0.3,0.2,0.7,0.3,1.2,0.5
			l0.9,0.2c0.5,0.1,0.8,0.2,0.9,0.3c0.2,0.1,0.4,0.4,0.4,0.6c0,0.4-0.2,0.6-0.5,0.8c-0.3,0.2-0.7,0.3-1.1,0.3
			c-0.7,0-1.2-0.2-1.4-0.5c-0.2-0.2-0.2-0.5-0.3-0.8L304.2,100.5L304.2,100.5z M298.6,98.8c0-0.5,0.2-1,0.5-1.4
			c0.3-0.4,0.7-0.5,1.2-0.5c0.7,0,1.2,0.3,1.5,0.8c0.2,0.3,0.3,0.7,0.3,1.1H298.6z M300.4,96c-0.9,0-1.6,0.3-2.2,1
			c-0.6,0.6-0.8,1.5-0.8,2.5s0.3,1.9,0.8,2.4c0.6,0.6,1.2,0.9,2,0.9c0.3,0,0.6,0,0.9-0.1c0.5-0.1,0.9-0.3,1.2-0.6
			c0.2-0.2,0.4-0.4,0.5-0.7c0.2-0.3,0.3-0.6,0.3-0.8H302c-0.1,0.3-0.2,0.5-0.4,0.8c-0.3,0.4-0.8,0.6-1.3,0.6c-0.6,0-1-0.2-1.3-0.6
			s-0.4-0.9-0.5-1.6h4.7c0-0.6,0-1.1-0.1-1.4c-0.1-0.4-0.2-0.8-0.4-1.1c-0.2-0.3-0.5-0.6-1-0.8C301.3,96.1,300.9,96,300.4,96z
			 M291.8,98.8c0-0.5,0.2-1,0.5-1.4c0.3-0.4,0.7-0.5,1.2-0.5c0.7,0,1.2,0.3,1.5,0.8c0.2,0.3,0.3,0.7,0.3,1.1H291.8z M293.6,96
			c-0.9,0-1.6,0.3-2.2,1c-0.6,0.6-0.8,1.5-0.8,2.5s0.3,1.9,0.8,2.4c0.6,0.6,1.2,0.9,2,0.9c0.3,0,0.6,0,0.9-0.1
			c0.5-0.1,0.9-0.3,1.2-0.6c0.2-0.2,0.4-0.4,0.5-0.7c0.2-0.3,0.3-0.6,0.3-0.8h-1.1c-0.1,0.3-0.2,0.5-0.4,0.8
			c-0.3,0.4-0.8,0.6-1.3,0.6c-0.6,0-1-0.2-1.3-0.6c-0.3-0.4-0.4-0.9-0.5-1.6h4.7c0-0.6,0-1.1-0.1-1.4c-0.1-0.4-0.2-0.8-0.4-1.1
			c-0.2-0.3-0.5-0.6-1-0.8C294.5,96.1,294,96,293.6,96z M282.9,102.5h3.7c1.2,0,2-0.3,2.5-1c0.4-0.5,0.5-1,0.5-1.5
			c0-0.7-0.2-1.2-0.6-1.6c-0.2-0.2-0.6-0.4-1-0.6c0.3-0.2,0.5-0.3,0.7-0.5c0.3-0.4,0.5-0.8,0.5-1.4c0-0.5-0.1-0.9-0.4-1.3
			c-0.4-0.6-1.2-0.9-2.2-0.9h-3.8v8.8H282.9z M284.1,101.5v-3.1h2.4c0.5,0,0.9,0.1,1.2,0.2c0.6,0.2,0.9,0.7,0.9,1.3
			c0,0.4-0.1,0.7-0.3,1c-0.3,0.4-0.8,0.6-1.6,0.6H284.1z M284.1,97.5v-2.7h2.1c0.5,0,0.9,0.1,1.2,0.2c0.5,0.2,0.7,0.6,0.7,1.2
			c0,0.6-0.2,1-0.7,1.2c-0.3,0.1-0.7,0.2-1.2,0.2L284.1,97.5L284.1,97.5z M278.3,96c-0.9,0-1.6,0.3-2,1c-0.5,0.7-0.7,1.5-0.7,2.4
			c0,1,0.3,1.8,0.8,2.4c0.5,0.6,1.1,0.9,1.8,0.9c0.4,0,0.8-0.1,1.2-0.3c0.3-0.2,0.6-0.5,0.9-0.9v0.9h1v-8.8h-1V97
			c-0.2-0.3-0.5-0.5-0.6-0.6C279.2,96.1,278.7,96,278.3,96z M276.6,99.4c0-0.8,0.2-1.4,0.5-1.8c0.3-0.4,0.8-0.6,1.3-0.6
			s0.9,0.2,1.2,0.6c0.3,0.4,0.5,1,0.5,1.8c0,0.8-0.2,1.4-0.5,1.8c-0.3,0.4-0.7,0.6-1.2,0.6c-0.6,0-1.1-0.2-1.4-0.7
			C276.8,100.7,276.6,100.1,276.6,99.4z M269.1,96.1v4.4c0,0.5,0.1,1,0.3,1.3c0.3,0.6,0.9,0.9,1.8,0.9c0.6,0,1.1-0.2,1.5-0.5
			c0.2-0.2,0.4-0.4,0.5-0.6v0.9h1v-6.4h-1.1v3.1c0,0.6-0.1,1.1-0.2,1.5c-0.3,0.7-0.8,1-1.5,1c-0.5,0-0.9-0.2-1-0.6
			c-0.1-0.2-0.2-0.5-0.2-0.8V96L269.1,96.1L269.1,96.1z M264.9,96c-0.9,0-1.6,0.3-2.2,1c-0.5,0.6-0.8,1.5-0.8,2.6
			c0,1,0.3,1.8,0.8,2.4s1.2,0.9,2.1,0.9c1,0,1.8-0.3,2.3-1c0.5-0.7,0.7-1.5,0.7-2.6c0-1.1-0.3-1.9-0.8-2.4S265.7,96,264.9,96z
			 M264.9,101.8c-0.6,0-1.1-0.2-1.4-0.7s-0.4-1-0.4-1.7c0-0.7,0.1-1.3,0.4-1.8s0.8-0.8,1.4-0.8c0.7,0,1.2,0.3,1.5,0.9
			c0.2,0.4,0.3,0.9,0.3,1.5c0,0.7-0.1,1.3-0.4,1.8C266,101.6,265.6,101.8,264.9,101.8z M259.6,102.5h1.1v-8.8h-1.1V102.5z
			 M254.6,93.5c-1.3,0-2.3,0.5-3,1.4c-0.7,0.8-1,1.9-1,3.2c0,1.7,0.5,3,1.4,3.8c0.7,0.6,1.5,0.9,2.5,0.9c1.2,0,2.1-0.4,2.8-1.1
			c0.6-0.6,0.9-1.4,1-2.3h-1.2c-0.1,0.6-0.3,1-0.5,1.4c-0.5,0.7-1.1,1-2,1c-0.9,0-1.6-0.3-2.1-1c-0.5-0.6-0.7-1.5-0.7-2.5
			c0-1.3,0.3-2.2,0.8-2.8s1.2-0.9,2.1-0.9c0.7,0,1.2,0.2,1.6,0.5c0.4,0.3,0.6,0.8,0.8,1.3h1.2c-0.1-0.7-0.4-1.4-1-2
			C256.7,93.8,255.7,93.5,254.6,93.5z"/>
		<path id="Shape_60_" class="st4" d="M359.5,192.3h1.1V189c0.2,0.3,0.5,0.5,0.6,0.6c0.3,0.2,0.7,0.3,1.2,0.3c0.6,0,1.2-0.2,1.6-0.6
			c0.7-0.6,1.1-1.6,1.1-3c0-1-0.3-1.8-0.8-2.4c-0.5-0.6-1.1-0.8-1.9-0.8c-0.5,0-0.9,0.1-1.3,0.4c-0.3,0.2-0.5,0.4-0.7,0.7v-0.8h-1.1
			v8.9H359.5z M362.3,189.1c-0.7,0-1.3-0.3-1.5-1c-0.1-0.3-0.2-0.8-0.2-1.3c0-0.6,0.1-1.1,0.2-1.5c0.3-0.7,0.8-1.1,1.5-1.1
			c0.7,0,1.3,0.4,1.5,1.1c0.1,0.4,0.2,0.8,0.2,1.3c0,0.8-0.2,1.5-0.5,1.9S362.8,189.1,362.3,189.1z M356.8,182.2h1.1V181h-1.1V182.2
			z M356.8,189.8h1.1v-6.4h-1.1V189.8z M350,189.8h1.1v-3.4c0-0.9,0.2-1.4,0.5-1.7c0.4-0.3,0.8-0.5,1.2-0.5c0.5,0,0.9,0.2,1.1,0.5
			c0.1,0.2,0.2,0.6,0.2,1v4h1.1v-4.1c0-0.6-0.1-1.1-0.3-1.5c-0.3-0.6-1-1-1.9-1c-0.5,0-1,0.1-1.3,0.3c-0.2,0.1-0.4,0.4-0.7,0.7V181
			h-1V189.8z M343.5,187.8c0,0.6,0.2,1.2,0.6,1.6c0.4,0.4,1.1,0.6,2.1,0.6c0.9,0,1.6-0.2,2-0.6c0.4-0.4,0.7-0.9,0.7-1.5
			c0-0.6-0.2-1-0.6-1.3c-0.3-0.2-0.8-0.4-1.6-0.5l-0.7-0.2c-0.3-0.1-0.6-0.2-0.7-0.3c-0.3-0.2-0.4-0.4-0.4-0.7
			c0-0.3,0.1-0.5,0.3-0.6c0.2-0.1,0.5-0.2,0.9-0.2c0.6,0,1.1,0.1,1.3,0.4c0.2,0.2,0.2,0.4,0.3,0.7h1c0-0.4-0.1-0.8-0.4-1.2
			c-0.4-0.6-1.1-0.8-2.1-0.8c-0.7,0-1.3,0.2-1.8,0.6c-0.4,0.4-0.7,0.9-0.7,1.5c0,0.5,0.2,0.9,0.7,1.2c0.3,0.2,0.7,0.3,1.2,0.5
			l0.9,0.2c0.5,0.1,0.8,0.2,0.9,0.3c0.2,0.1,0.4,0.4,0.4,0.6c0,0.4-0.2,0.6-0.5,0.8c-0.3,0.2-0.7,0.3-1.1,0.3
			c-0.7,0-1.2-0.2-1.4-0.5c-0.2-0.2-0.2-0.5-0.3-0.8L343.5,187.8L343.5,187.8z M337.9,186.1c0-0.5,0.2-1,0.5-1.4
			c0.3-0.4,0.7-0.5,1.2-0.5c0.7,0,1.2,0.3,1.5,0.8c0.2,0.3,0.3,0.7,0.3,1.1H337.9z M339.7,183.2c-0.9,0-1.6,0.3-2.2,1
			c-0.6,0.6-0.8,1.5-0.8,2.5s0.3,1.9,0.8,2.4c0.6,0.6,1.2,0.9,2,0.9c0.3,0,0.6,0,0.9-0.1c0.5-0.1,0.9-0.3,1.2-0.6
			c0.2-0.2,0.4-0.4,0.5-0.7c0.2-0.3,0.3-0.6,0.3-0.8h-1.1c-0.1,0.3-0.2,0.5-0.4,0.8c-0.3,0.4-0.8,0.6-1.3,0.6c-0.6,0-1-0.2-1.3-0.6
			c-0.3-0.4-0.4-0.9-0.5-1.6h4.7c0-0.6,0-1.1-0.1-1.4c-0.1-0.4-0.2-0.8-0.4-1.1s-0.5-0.6-1-0.8C340.6,183.3,340.2,183.2,339.7,183.2
			z M332.6,183.3c-0.9,0-1.6,0.3-2,1c-0.5,0.7-0.7,1.5-0.7,2.4c0,1,0.3,1.8,0.8,2.4c0.5,0.6,1.1,0.9,1.8,0.9c0.4,0,0.8-0.1,1.2-0.3
			c0.3-0.2,0.6-0.5,0.9-0.9v0.9h1V181h-1v3.2c-0.2-0.3-0.5-0.5-0.6-0.6C333.5,183.4,333.1,183.3,332.6,183.3z M331,186.7
			c0-0.8,0.2-1.4,0.5-1.8c0.3-0.4,0.8-0.6,1.3-0.6s0.9,0.2,1.2,0.6c0.3,0.4,0.5,1,0.5,1.8s-0.2,1.4-0.5,1.8s-0.7,0.6-1.2,0.6
			c-0.6,0-1.1-0.2-1.4-0.7C331.1,187.9,331,187.3,331,186.7z M326,183.2c-0.9,0-1.6,0.3-2.2,1c-0.5,0.6-0.8,1.5-0.8,2.6
			c0,1,0.3,1.8,0.8,2.4c0.5,0.6,1.2,0.9,2.1,0.9c1,0,1.8-0.3,2.3-1c0.5-0.7,0.7-1.5,0.7-2.6s-0.3-1.9-0.8-2.4S326.8,183.2,326,183.2
			z M326,189.1c-0.6,0-1.1-0.2-1.4-0.7c-0.3-0.5-0.4-1-0.4-1.7s0.1-1.3,0.4-1.8c0.3-0.5,0.8-0.8,1.4-0.8c0.7,0,1.2,0.3,1.5,0.9
			c0.2,0.4,0.3,0.9,0.3,1.5c0,0.7-0.1,1.3-0.4,1.8C327.2,188.8,326.7,189.1,326,189.1z M318.4,180.8c-1.3,0-2.3,0.5-3,1.4
			c-0.7,0.8-1,1.9-1,3.2c0,1.7,0.5,3,1.4,3.8c0.7,0.6,1.5,0.9,2.5,0.9c1.2,0,2.1-0.4,2.8-1.1c0.6-0.6,0.9-1.4,1-2.3h-1.2
			c-0.1,0.6-0.3,1-0.5,1.4c-0.5,0.7-1.1,1-2,1s-1.6-0.3-2.1-1c-0.5-0.6-0.7-1.5-0.7-2.5c0-1.3,0.3-2.2,0.8-2.8
			c0.5-0.6,1.2-0.9,2.1-0.9c0.7,0,1.2,0.2,1.6,0.5c0.4,0.3,0.6,0.8,0.8,1.3h1.2c-0.1-0.7-0.4-1.4-1-2
			C320.5,181.1,319.5,180.8,318.4,180.8z"/>
		<path id="Shape_61_" class="st4" d="M409.4,67.6c-0.8,0-1.3-0.4-1.6-1.1c-0.2-0.4-0.2-0.9-0.2-1.5c0-0.8,0.2-1.4,0.6-1.8
			c0.4-0.4,0.8-0.5,1.3-0.5c0.6,0,1,0.2,1.3,0.7c0.3,0.4,0.4,1,0.4,1.7c0,0.8-0.1,1.4-0.4,1.8C410.5,67.3,410,67.6,409.4,67.6z
			 M406.6,68.4h1v-0.8c0.2,0.3,0.4,0.5,0.6,0.7c0.3,0.2,0.7,0.4,1.2,0.4c0.9,0,1.6-0.3,2-1c0.4-0.7,0.7-1.5,0.7-2.5
			c0-1.1-0.2-1.9-0.7-2.4s-1.1-0.8-1.9-0.8c-0.4,0-0.7,0.1-1.1,0.2c-0.3,0.2-0.6,0.4-0.8,0.7v-3.2h-1V68.4z M401.6,64.7
			c-0.6,0.1-1.1,0.3-1.5,0.6c-0.4,0.3-0.6,0.8-0.6,1.4c0,0.5,0.2,1,0.6,1.4s0.9,0.5,1.5,0.5c0.5,0,0.9-0.1,1.4-0.3
			c0.5-0.2,0.7-0.5,0.9-0.7c0,0.3,0.1,0.5,0.2,0.6c0.2,0.3,0.4,0.4,0.8,0.4c0.2,0,0.3,0,0.4,0c0.1,0,0.2,0,0.4-0.1v-0.8h-0.2h-0.2
			c-0.1,0-0.2,0-0.3-0.1s-0.1-0.2-0.1-0.3v-3.7c0-0.6-0.2-1.1-0.7-1.3c-0.5-0.3-1.1-0.4-1.8-0.4c-0.6,0-1.2,0.2-1.7,0.5
			c-0.5,0.3-0.7,0.9-0.8,1.7h1c0-0.3,0.1-0.6,0.3-0.8c0.2-0.3,0.6-0.5,1.2-0.5c0.5,0,0.9,0.1,1.1,0.2c0.3,0.2,0.4,0.4,0.4,0.8
			c0,0.2,0,0.3-0.1,0.4c-0.1,0.2-0.2,0.3-0.5,0.3L401.6,64.7z M400.7,66.7c0-0.4,0.2-0.7,0.5-0.9c0.2-0.1,0.5-0.2,0.9-0.2l0.7-0.1
			c0.2,0,0.4-0.1,0.6-0.1c0.2-0.1,0.4-0.1,0.5-0.2V66c0,0.7-0.3,1.1-0.9,1.4c-0.4,0.2-0.7,0.3-1.1,0.3c-0.3,0-0.6-0.1-0.8-0.3
			C400.8,67.2,400.7,67,400.7,66.7z M393.2,68.4h5.6v-1h-4.4v-7.7h-1.2V68.4z M389.9,62H389v0.9h0.9v4.2c0,0.4,0.1,0.7,0.3,1
			c0.2,0.3,0.5,0.4,1,0.4c0.2,0,0.3,0,0.4,0s0.3,0,0.4-0.1v-0.9h-0.2h-0.2c-0.2,0-0.3,0-0.4-0.1c-0.2-0.1-0.2-0.2-0.2-0.4v-4.2h1V62
			h-1v-1.8h-1.1V62z M387,60.8h1.1v-1.2H387V60.8z M387,68.4h1.1V62H387V68.4z M381.3,59.3c-1.2,0-2.2,0.4-2.9,1.2
			c-0.8,0.9-1.2,2-1.2,3.5s0.4,2.6,1.2,3.5c0.7,0.7,1.6,1,2.6,1c0.8,0,1.4-0.1,2-0.4c0.3-0.2,0.7-0.5,1.1-0.9l0.3,1.1h0.8v-4.7h-3.9
			v1h2.8c0,1-0.3,1.8-0.8,2.2c-0.5,0.5-1.2,0.7-1.9,0.7c-1,0-1.7-0.3-2.2-1c-0.4-0.7-0.7-1.5-0.7-2.6c0-1.2,0.3-2.1,0.8-2.7
			c0.5-0.6,1.2-0.9,2-0.9c0.7,0,1.2,0.1,1.7,0.4s0.7,0.8,0.9,1.4h1.2c-0.2-1.1-0.7-2-1.6-2.4C382.8,59.5,382.1,59.3,381.3,59.3z"/>
		<path id="Shape_62_" class="st4" d="M113.2,223.1h1.1v-5.2c0-0.2,0-0.5,0-1c0-0.4,0-0.8,0-1v-0.3l2.5,7.4h1.2l2.5-7.4
			c0,0.5,0,0.9,0,1.3c0,0.4,0,0.7,0,0.9v5.2h1.1v-8.8h-1.7l-2.5,7.4l-2.5-7.4h-1.7V223.1z M105,223.1h3.7c1.2,0,2-0.3,2.5-1
			c0.4-0.5,0.5-1,0.5-1.5c0-0.7-0.2-1.2-0.6-1.6c-0.2-0.2-0.6-0.4-1-0.6c0.3-0.2,0.5-0.3,0.7-0.5c0.3-0.4,0.5-0.8,0.5-1.4
			c0-0.5-0.1-0.9-0.4-1.3c-0.4-0.6-1.2-0.9-2.2-0.9H105V223.1z M106.2,222.1V219h2.4c0.5,0,0.9,0.1,1.2,0.2c0.6,0.2,0.9,0.7,0.9,1.3
			c0,0.4-0.1,0.7-0.3,1c-0.3,0.4-0.8,0.6-1.6,0.6H106.2z M106.2,218.1v-2.7h2.1c0.5,0,0.9,0.1,1.2,0.2c0.5,0.2,0.7,0.6,0.7,1.2
			c0,0.6-0.2,1-0.7,1.2c-0.3,0.1-0.7,0.2-1.2,0.2L106.2,218.1L106.2,218.1z M101.9,223.1h1.2v-8.8h-1.2V223.1z"/>
		<path id="Shape_63_" class="st4" d="M228.7,191.3c0,0.6,0.2,1.2,0.6,1.6c0.4,0.4,1.1,0.6,2.1,0.6c0.9,0,1.6-0.2,2-0.6
			c0.4-0.4,0.7-0.9,0.7-1.5c0-0.6-0.2-1-0.6-1.3c-0.3-0.2-0.8-0.4-1.6-0.5l-0.7-0.2c-0.3-0.1-0.6-0.2-0.7-0.3
			c-0.3-0.2-0.4-0.4-0.4-0.7c0-0.3,0.1-0.5,0.3-0.6c0.2-0.1,0.5-0.2,0.9-0.2c0.6,0,1.1,0.1,1.3,0.4c0.2,0.2,0.2,0.4,0.3,0.7h1
			c0-0.4-0.1-0.8-0.4-1.2c-0.4-0.6-1.1-0.8-2.1-0.8c-0.7,0-1.3,0.2-1.8,0.6c-0.4,0.4-0.7,0.9-0.7,1.5c0,0.5,0.2,0.9,0.7,1.2
			c0.3,0.2,0.7,0.3,1.2,0.5l0.9,0.2c0.5,0.1,0.8,0.2,0.9,0.3c0.2,0.1,0.4,0.4,0.4,0.6c0,0.4-0.2,0.6-0.5,0.8
			c-0.3,0.2-0.7,0.3-1.1,0.3c-0.7,0-1.2-0.2-1.4-0.5c-0.2-0.2-0.2-0.5-0.3-0.8L228.7,191.3L228.7,191.3z M222.3,193.3h1.1V190
			c0-0.4,0-0.7,0.1-1c0.1-0.2,0.2-0.4,0.4-0.7c0.2-0.3,0.5-0.4,0.8-0.5c0.2-0.1,0.4-0.1,0.6-0.1c0.5,0,0.8,0.2,1,0.6
			c0.1,0.2,0.2,0.6,0.2,0.9v4h1.1v-4.1c0-0.6-0.1-1.1-0.3-1.5c-0.3-0.6-0.9-1-1.8-1c-0.4,0-0.8,0.1-1.1,0.2c-0.3,0.2-0.7,0.4-1,0.8
			v-0.9h-1L222.3,193.3L222.3,193.3z M219.6,185.8h1.1v-1.2h-1.1V185.8z M219.6,193.3h1.1V187h-1.1V193.3z M214.5,189.7
			c-0.6,0.1-1.1,0.3-1.5,0.6s-0.6,0.8-0.6,1.4c0,0.5,0.2,1,0.6,1.4c0.4,0.4,0.9,0.5,1.5,0.5c0.5,0,0.9-0.1,1.4-0.3s0.7-0.5,0.9-0.7
			c0,0.3,0.1,0.5,0.2,0.6c0.2,0.3,0.4,0.4,0.8,0.4c0.2,0,0.3,0,0.4,0c0.1,0,0.2,0,0.4-0.1v-0.8h-0.2h-0.2c-0.1,0-0.2,0-0.3-0.1
			c-0.1-0.1-0.1-0.2-0.1-0.3v-3.7c0-0.6-0.2-1.1-0.7-1.3c-0.5-0.3-1.1-0.4-1.8-0.4c-0.6,0-1.2,0.2-1.7,0.5c-0.5,0.3-0.7,0.9-0.8,1.7
			h1c0-0.3,0.1-0.6,0.3-0.8c0.2-0.3,0.6-0.5,1.2-0.5c0.5,0,0.9,0.1,1.1,0.2c0.3,0.2,0.4,0.4,0.4,0.8c0,0.2,0,0.3-0.1,0.4
			c-0.1,0.2-0.2,0.3-0.5,0.3L214.5,189.7z M213.6,191.6c0-0.4,0.2-0.7,0.5-0.9c0.2-0.1,0.5-0.2,0.9-0.2l0.7-0.1
			c0.2,0,0.4-0.1,0.6-0.1c0.2-0.1,0.4-0.1,0.5-0.2v0.9c0,0.7-0.3,1.1-0.9,1.4c-0.4,0.2-0.7,0.3-1.1,0.3c-0.3,0-0.6-0.1-0.8-0.3
			C213.7,192.2,213.6,191.9,213.6,191.6z M208.7,193.3h1.1v-3.7c0-0.5,0.1-0.9,0.4-1.2c0.3-0.3,0.7-0.5,1.2-0.5h0.2h0.2v-1.1
			c-0.1,0-0.2,0-0.2,0h-0.1c-0.4,0-0.8,0.2-1.1,0.5c-0.3,0.3-0.5,0.6-0.6,0.8V187h-1v6.3H208.7z M200.6,193.3h3.7c1.2,0,2-0.3,2.5-1
			c0.4-0.5,0.5-1,0.5-1.5c0-0.7-0.2-1.2-0.6-1.6c-0.2-0.2-0.6-0.4-1-0.6c0.3-0.2,0.5-0.3,0.7-0.5c0.3-0.4,0.5-0.8,0.5-1.4
			c0-0.5-0.1-0.9-0.4-1.3c-0.4-0.6-1.2-0.9-2.2-0.9h-3.8v8.8H200.6z M201.8,192.3v-3.1h2.4c0.5,0,0.9,0.1,1.2,0.2
			c0.6,0.2,0.9,0.7,0.9,1.3c0,0.4-0.1,0.7-0.3,1c-0.3,0.4-0.8,0.6-1.6,0.6H201.8z M201.8,188.3v-2.7h2.1c0.5,0,0.9,0.1,1.2,0.2
			c0.5,0.2,0.7,0.6,0.7,1.2s-0.2,1-0.7,1.2c-0.3,0.1-0.7,0.2-1.2,0.2L201.8,188.3L201.8,188.3z M197.3,186.9h-0.9v0.9h0.9v4.2
			c0,0.4,0.1,0.7,0.3,1c0.2,0.3,0.5,0.4,1,0.4c0.2,0,0.3,0,0.4,0s0.3,0,0.4-0.1v-0.9h-0.2H199c-0.2,0-0.3,0-0.4-0.1
			c-0.2-0.1-0.2-0.2-0.2-0.4v-4.2h1v-0.9h-1V185h-1.1V186.9z M191.1,189.6c0-0.5,0.2-1,0.5-1.4c0.3-0.4,0.7-0.5,1.2-0.5
			c0.7,0,1.2,0.3,1.5,0.8c0.2,0.3,0.3,0.7,0.3,1.1H191.1z M192.9,186.8c-0.9,0-1.6,0.3-2.2,1c-0.6,0.6-0.8,1.5-0.8,2.5
			s0.3,1.9,0.8,2.4c0.6,0.6,1.2,0.9,2,0.9c0.3,0,0.6,0,0.9-0.1c0.5-0.1,0.9-0.3,1.2-0.6c0.2-0.2,0.4-0.4,0.5-0.7
			c0.2-0.3,0.3-0.6,0.3-0.8h-1.1c-0.1,0.3-0.2,0.5-0.4,0.8c-0.3,0.4-0.8,0.6-1.3,0.6c-0.6,0-1-0.2-1.3-0.6c-0.3-0.4-0.4-0.9-0.5-1.6
			h4.7c0-0.6,0-1.1-0.1-1.4c-0.1-0.4-0.2-0.8-0.4-1.1c-0.2-0.3-0.5-0.6-1-0.8C193.8,186.9,193.4,186.8,192.9,186.8z M188.6,184.6
			h-1.2v5.9c0,0.7-0.1,1.2-0.2,1.5c-0.2,0.4-0.6,0.7-1.2,0.7c-0.5,0-0.8-0.1-1-0.4c-0.2-0.2-0.3-0.6-0.3-1.1v-0.6h-1.1v0.6
			c0,0.9,0.2,1.5,0.7,1.9c0.5,0.4,1,0.5,1.7,0.5c1.1,0,1.9-0.4,2.3-1.1c0.2-0.4,0.3-1,0.3-1.7V184.6z"/>
		<path id="Shape_64_" class="st6" d="M278.9,159.2c-4.8,0-8.8-3.9-8.8-8.8c0-4.8,3.9-8.8,8.8-8.8c4.8,0,8.8,3.9,8.8,8.8
			C287.7,155.3,283.8,159.2,278.9,159.2z"/>
		<path id="Shape_65_" class="st5" d="M278.9,159.2V159c-2.4,0-4.5-1-6-2.5s-2.5-3.7-2.5-6c0-2.4,1-4.5,2.5-6s3.7-2.5,6-2.5
			c2.4,0,4.5,1,6,2.5s2.5,3.7,2.5,6c0,2.4-1,4.5-2.5,6s-3.7,2.5-6,2.5V159.2v0.2c5,0,9-4,9-9s-4-9-9-9s-9,4-9,9s4,9,9,9V159.2z"/>
		<path id="Shape_66_" class="st5" d="M278.9,151.7c-0.7,0-1.3-0.6-1.3-1.3c0-0.7,0.6-1.3,1.3-1.3c0.7,0,1.3,0.6,1.3,1.3
			C280.2,151.1,279.6,151.7,278.9,151.7"/>
		<path id="Shape_67_" class="st6" d="M333.1,113.2c3.4-3.4,9-3.4,12.4,0c3.4,3.4,3.4,9,0,12.4s-9,3.4-12.4,0
			S329.7,116.7,333.1,113.2z"/>
		<path id="Shape_68_" class="st5" d="M333.1,113.2l0.2,0.2c1.7-1.7,3.8-2.5,6-2.5c2.2,0,4.4,0.8,6,2.5c1.7,1.7,2.5,3.8,2.5,6
			c0,2.2-0.8,4.4-2.5,6c-1.7,1.7-3.8,2.5-6,2.5c-2.2,0-4.4-0.8-6-2.5c-1.7-1.7-2.5-3.8-2.5-6c0-2.2,0.8-4.4,2.5-6L333.1,113.2
			l-0.2-0.2c-1.8,1.8-2.6,4.1-2.6,6.4c0,2.3,0.9,4.6,2.6,6.4c1.8,1.8,4.1,2.6,6.4,2.6c2.3,0,4.6-0.9,6.4-2.6
			c1.8-1.8,2.6-4.1,2.6-6.4c0-2.3-0.9-4.6-2.6-6.4c-1.8-1.8-4.1-2.6-6.4-2.6c-2.3,0-4.6,0.9-6.4,2.6L333.1,113.2z"/>
		<path id="Shape_69_" class="st5" d="M339.3,120.7c-0.7,0-1.3-0.6-1.3-1.3c0-0.7,0.6-1.3,1.3-1.3c0.7,0,1.3,0.6,1.3,1.3
			C340.6,120.1,340,120.7,339.3,120.7"/>
		<path id="Shape_70_" class="st6" d="M418.2,64.2c0.1-4.8,4.1-8.7,8.9-8.6c4.8,0.1,8.7,4.1,8.6,8.9c-0.1,4.8-4.1,8.7-8.9,8.6
			C422,73,418.1,69,418.2,64.2z"/>
		<path id="Shape_71_" class="st5" d="M418.2,64.2h0.2c0.1-4.7,3.9-8.4,8.5-8.4h0.1c4.7,0.1,8.4,3.9,8.4,8.5v0.1
			c-0.1,4.7-3.9,8.4-8.5,8.4h-0.1c-4.7-0.1-8.4-3.9-8.4-8.5v-0.1H418.2H418v0.1c0,4.9,3.9,8.9,8.9,9h0.1c4.9,0,8.9-3.9,9-8.9v-0.1
			c0-4.9-3.9-8.9-8.9-9H427c-4.9,0-8.9,3.9-9,8.9H418.2z"/>
		<path id="Shape_72_" class="st5" d="M426.9,65.6c-0.7,0-1.3-0.6-1.3-1.3c0-0.7,0.6-1.3,1.3-1.3c0.7,0,1.3,0.6,1.3,1.3
			C428.2,65,427.6,65.6,426.9,65.6"/>
		<path id="Shape_73_" class="st6" d="M242.5,183.5c3.4-3.4,9-3.4,12.4,0s3.4,9,0,12.4c-3.4,3.4-9,3.4-12.4,0
			C239.1,192.5,239.1,186.9,242.5,183.5z"/>
		<path id="Shape_74_" class="st5" d="M242.5,183.5l0.2,0.2c1.7-1.7,3.8-2.5,6-2.5s4.4,0.8,6,2.5c1.7,1.7,2.5,3.8,2.5,6
			s-0.8,4.4-2.5,6c-1.7,1.7-3.8,2.5-6,2.5s-4.4-0.8-6-2.5c-1.7-1.7-2.5-3.8-2.5-6s0.8-4.4,2.5-6L242.5,183.5l-0.2-0.2
			c-1.8,1.8-2.6,4.1-2.6,6.4s0.9,4.6,2.6,6.4c1.8,1.8,4.1,2.6,6.4,2.6s4.6-0.9,6.4-2.6c1.8-1.8,2.6-4.1,2.6-6.4s-0.9-4.6-2.6-6.4
			c-1.8-1.8-4.1-2.6-6.4-2.6s-4.6,0.9-6.4,2.6L242.5,183.5z"/>
		<path id="Shape_75_" class="st5" d="M248.7,190.9c-0.7,0-1.3-0.6-1.3-1.3c0-0.7,0.6-1.3,1.3-1.3s1.3,0.6,1.3,1.3
			C250,190.4,249.4,190.9,248.7,190.9"/>
		<path id="Shape_76_" class="st6" d="M185.3,166.2c-6.2,0-11.3-5.1-11.3-11.3c0-6.2,5.1-11.3,11.3-11.3s11.3,5.1,11.3,11.3
			C196.6,161.2,191.5,166.2,185.3,166.2z"/>
		<path id="Shape_77_" class="st5" d="M185.3,166.2V166c-3,0-5.8-1.2-7.8-3.2s-3.2-4.8-3.2-7.8s1.2-5.8,3.2-7.8s4.8-3.2,7.8-3.2
			s5.8,1.2,7.8,3.2s3.2,4.8,3.2,7.8s-1.2,5.8-3.2,7.8s-4.8,3.2-7.8,3.2V166.2v0.2c6.4,0,11.5-5.2,11.5-11.5
			c0-6.4-5.2-11.5-11.5-11.5c-6.4,0-11.5,5.2-11.5,11.5c0,6.4,5.2,11.5,11.5,11.5V166.2z"/>
		<path id="Shape_78_" class="st5" d="M185.3,156.2c-0.7,0-1.3-0.6-1.3-1.3c0-0.7,0.6-1.3,1.3-1.3s1.3,0.6,1.3,1.3
			C186.6,155.6,186,156.2,185.3,156.2"/>
		<path id="Shape_79_" class="st6" d="M346.2,170c0,3.8-3.1,6.9-6.9,6.9c-3.8,0-6.9-3.1-6.9-6.9s3.1-6.9,6.9-6.9
			C343.1,163.1,346.2,166.2,346.2,170z"/>
		<path id="Shape_80_" class="st5" d="M346.2,170H346c0,1.8-0.7,3.5-1.9,4.7c-1.2,1.2-2.9,1.9-4.7,1.9c-1.8,0-3.5-0.7-4.7-1.9
			c-1.2-1.2-1.9-2.9-1.9-4.7s0.7-3.5,1.9-4.7c1.2-1.2,2.9-1.9,4.7-1.9c1.8,0,3.5,0.7,4.7,1.9c1.2,1.2,1.9,2.9,1.9,4.7H346.2h0.2
			c0-4-3.2-7.1-7.1-7.1c-3.9,0-7.1,3.2-7.1,7.1s3.2,7.1,7.1,7.1c3.9,0,7.1-3.2,7.1-7.1H346.2z"/>
		<path id="Shape_81_" class="st5" d="M340.6,170c0,0.7-0.6,1.3-1.3,1.3c-0.7,0-1.3-0.6-1.3-1.3s0.6-1.3,1.3-1.3
			C340,168.7,340.6,169.3,340.6,170"/>
		<path id="Shape_82_" class="st4" d="M253.2,139.6h1.2v-8.8h-1.2V139.6z M247.7,130.6c-1.3,0-2.3,0.5-3,1.4c-0.7,0.8-1,1.9-1,3.2
			c0,1.7,0.5,3,1.4,3.8c0.7,0.6,1.5,0.9,2.5,0.9c1.2,0,2.1-0.4,2.8-1.1c0.6-0.6,0.9-1.4,1-2.3h-1.2c-0.1,0.6-0.3,1-0.5,1.4
			c-0.5,0.7-1.1,1-2,1c-0.9,0-1.6-0.3-2.1-1c-0.5-0.6-0.7-1.5-0.7-2.5c0-1.3,0.3-2.2,0.8-2.8c0.5-0.6,1.2-0.9,2.1-0.9
			c0.7,0,1.2,0.2,1.6,0.5c0.4,0.3,0.6,0.8,0.8,1.3h1.2c-0.1-0.7-0.4-1.4-1-2C249.8,130.9,248.8,130.6,247.7,130.6z M234,137.6
			c0,0.6,0.2,1.2,0.6,1.6c0.4,0.4,1.1,0.6,2.1,0.6c0.9,0,1.6-0.2,2-0.6c0.4-0.4,0.7-0.9,0.7-1.5c0-0.6-0.2-1-0.6-1.3
			c-0.3-0.2-0.8-0.4-1.6-0.5l-0.7-0.2c-0.3-0.1-0.6-0.2-0.7-0.3c-0.3-0.2-0.4-0.4-0.4-0.7s0.1-0.5,0.3-0.6c0.2-0.1,0.5-0.2,0.9-0.2
			c0.6,0,1.1,0.1,1.3,0.4c0.2,0.2,0.2,0.4,0.3,0.7h1c0-0.4-0.1-0.8-0.4-1.2c-0.4-0.6-1.1-0.8-2.1-0.8c-0.7,0-1.3,0.2-1.8,0.6
			c-0.4,0.4-0.7,0.9-0.7,1.5c0,0.5,0.2,0.9,0.7,1.2c0.3,0.2,0.7,0.3,1.2,0.5l0.9,0.2c0.5,0.1,0.8,0.2,0.9,0.3
			c0.2,0.1,0.4,0.4,0.4,0.6c0,0.4-0.2,0.6-0.5,0.8s-0.7,0.3-1.1,0.3c-0.7,0-1.2-0.2-1.4-0.5c-0.2-0.2-0.2-0.5-0.3-0.8L234,137.6
			L234,137.6z M231.7,132.1h1.1v-1.2h-1.1V132.1z M231.7,139.6h1.1v-6.4h-1.1V139.6z M224.8,133.2l2.4,6.4h1.1l2.4-6.4h-1.2
			l-1.8,5.2l-1.7-5.2H224.8z M220.4,136c-0.6,0.1-1.1,0.3-1.5,0.6c-0.4,0.3-0.6,0.8-0.6,1.4c0,0.5,0.2,1,0.6,1.4
			c0.4,0.4,0.9,0.5,1.5,0.5c0.5,0,0.9-0.1,1.4-0.3c0.5-0.2,0.7-0.5,0.9-0.7c0,0.3,0.1,0.5,0.2,0.6c0.2,0.3,0.4,0.4,0.8,0.4
			c0.2,0,0.3,0,0.4,0c0.1,0,0.2,0,0.4-0.1V139h-0.2h-0.2c-0.1,0-0.2,0-0.3-0.1c-0.1-0.1-0.1-0.2-0.1-0.3v-3.7c0-0.6-0.2-1.1-0.7-1.3
			c-0.5-0.3-1.1-0.4-1.8-0.4c-0.6,0-1.2,0.2-1.7,0.5s-0.7,0.9-0.8,1.7h1c0-0.3,0.1-0.6,0.3-0.8c0.2-0.3,0.6-0.5,1.2-0.5
			c0.5,0,0.9,0.1,1.1,0.2c0.3,0.2,0.4,0.4,0.4,0.8c0,0.2,0,0.3-0.1,0.4c-0.1,0.2-0.2,0.3-0.5,0.3L220.4,136z M219.6,137.9
			c0-0.4,0.2-0.7,0.5-0.9c0.2-0.1,0.5-0.2,0.9-0.2l0.7-0.1c0.2,0,0.4-0.1,0.6-0.1c0.2-0.1,0.4-0.1,0.5-0.2v0.9
			c0,0.7-0.3,1.1-0.9,1.4c-0.4,0.2-0.7,0.3-1.1,0.3c-0.3,0-0.6-0.1-0.8-0.3C219.7,138.5,219.6,138.2,219.6,137.9z M214.7,139.6h1.1
			v-3.7c0-0.5,0.1-0.9,0.4-1.2s0.7-0.5,1.2-0.5h0.2h0.2v-1.1c-0.1,0-0.2,0-0.2,0h-0.1c-0.4,0-0.8,0.2-1.1,0.5
			c-0.3,0.3-0.5,0.6-0.6,0.8v-1.1h-1v6.3H214.7z M207,130.8v1h3v7.7h1.2v-7.7h3v-1H207z"/>
		<path id="Shape_83_" class="st4" d="M406.2,149.3h-0.9v0.9h0.9v4.2c0,0.4,0.1,0.7,0.3,1c0.2,0.3,0.5,0.4,1,0.4c0.2,0,0.3,0,0.4,0
			s0.3,0,0.4-0.1v-0.9h-0.2h-0.2c-0.2,0-0.3,0-0.4-0.1c-0.2-0.1-0.2-0.2-0.2-0.4v-4.2h1v-0.9h-1v-1.8h-1.1V149.3z M402.8,148.3v1
			H402v0.8h0.9v5.5h1.1v-5.5h1.1v-0.8H404c0-0.7,0-1.1,0.1-1.3s0.3-0.3,0.6-0.3h0.1c0.1,0,0.1,0,0.2,0v-1c-0.1,0-0.2,0-0.2,0h-0.2
			c-0.7,0-1.2,0.2-1.5,0.5C402.9,147.5,402.9,147.8,402.8,148.3z M398.3,149.1c-0.9,0-1.6,0.3-2.2,1c-0.5,0.6-0.8,1.5-0.8,2.6
			c0,1,0.3,1.8,0.8,2.4c0.5,0.6,1.2,0.9,2.1,0.9c1,0,1.8-0.3,2.3-1s0.7-1.5,0.7-2.6c0-1.1-0.3-1.9-0.8-2.4S399.2,149.1,398.3,149.1z
			 M398.3,155c-0.6,0-1.1-0.2-1.4-0.7c-0.3-0.5-0.4-1-0.4-1.7c0-0.7,0.1-1.3,0.4-1.8c0.3-0.5,0.8-0.8,1.4-0.8c0.7,0,1.2,0.3,1.5,0.9
			c0.2,0.4,0.3,0.9,0.3,1.5c0,0.7-0.1,1.3-0.4,1.8C399.5,154.7,399,155,398.3,155z M389.2,153.7c0,0.6,0.2,1.2,0.6,1.6
			c0.4,0.4,1.1,0.6,2.1,0.6c0.9,0,1.6-0.2,2-0.6c0.4-0.4,0.7-0.9,0.7-1.5c0-0.6-0.2-1-0.6-1.3c-0.3-0.2-0.8-0.4-1.6-0.5l-0.7-0.2
			c-0.3-0.1-0.6-0.2-0.7-0.3c-0.3-0.2-0.4-0.4-0.4-0.7s0.1-0.5,0.3-0.6c0.2-0.1,0.5-0.2,0.9-0.2c0.6,0,1.1,0.1,1.3,0.4
			c0.2,0.2,0.2,0.4,0.3,0.7h1c0-0.4-0.1-0.8-0.4-1.2c-0.4-0.6-1.1-0.8-2.1-0.8c-0.7,0-1.3,0.2-1.8,0.6c-0.4,0.4-0.7,0.9-0.7,1.5
			c0,0.5,0.2,0.9,0.7,1.2c0.3,0.2,0.7,0.3,1.2,0.5l0.9,0.2c0.5,0.1,0.8,0.2,0.9,0.3c0.2,0.1,0.4,0.4,0.4,0.6c0,0.4-0.2,0.6-0.5,0.8
			s-0.7,0.3-1.1,0.3c-0.7,0-1.2-0.2-1.4-0.5c-0.2-0.2-0.2-0.5-0.3-0.8h-1V153.7z M385.4,149.1c-0.9,0-1.6,0.3-2.2,1
			c-0.5,0.6-0.8,1.5-0.8,2.6c0,1,0.3,1.8,0.8,2.4c0.5,0.6,1.2,0.9,2.1,0.9c1,0,1.8-0.3,2.3-1s0.7-1.5,0.7-2.6c0-1.1-0.3-1.9-0.8-2.4
			S386.2,149.1,385.4,149.1z M385.4,155c-0.6,0-1.1-0.2-1.4-0.7s-0.4-1-0.4-1.7c0-0.7,0.1-1.3,0.4-1.8s0.8-0.8,1.4-0.8
			c0.7,0,1.2,0.3,1.5,0.9c0.2,0.4,0.3,0.9,0.3,1.5c0,0.7-0.1,1.3-0.4,1.8C386.5,154.7,386.1,155,385.4,155z M378.8,155.7h1.1V152
			c0-0.5,0.1-0.9,0.4-1.2c0.3-0.3,0.7-0.5,1.2-0.5h0.2h0.2v-1.1c-0.1,0-0.2,0-0.2,0h-0.1c-0.4,0-0.8,0.2-1.1,0.5s-0.5,0.6-0.6,0.8
			v-1.1h-1v6.3H378.8z M375.1,149.1c-0.8,0-1.5,0.3-2.1,0.9s-0.8,1.5-0.8,2.6c0,0.9,0.2,1.7,0.7,2.3c0.5,0.6,1.2,0.9,2,0.9
			c0.7,0,1.4-0.2,1.8-0.6c0.5-0.4,0.8-1,0.9-1.9h-1c-0.1,0.5-0.3,0.8-0.5,1.1c-0.3,0.3-0.6,0.4-1.1,0.4c-0.6,0-1-0.2-1.3-0.7
			c-0.3-0.4-0.4-1-0.4-1.6s0.1-1.2,0.3-1.6c0.3-0.7,0.8-1,1.5-1c0.5,0,0.9,0.1,1.1,0.4c0.2,0.3,0.4,0.6,0.4,1h1
			c-0.1-0.9-0.4-1.5-0.8-1.8C376.4,149.3,375.8,149.1,375.1,149.1z M369.9,148.1h1.1v-1.2h-1.1V148.1z M369.9,155.7h1.1v-6.4h-1.1
			V155.7z M359.8,155.7h1.1v-5.2c0-0.2,0-0.5,0-1c0-0.4,0-0.8,0-1v-0.3l2.5,7.4h1.2l2.5-7.4c0,0.5,0,0.9,0,1.3s0,0.7,0,0.9v5.2h1.1
			v-8.8h-1.7l-2.5,7.4l-2.5-7.4h-1.7V155.7z"/>
		<path id="Shape_84_" class="st6" d="M426.9,162.7c-6.2,0-11.3-5.1-11.3-11.3c0-6.2,5.1-11.3,11.3-11.3c6.2,0,11.3,5,11.3,11.3
			C438.2,157.7,433.2,162.7,426.9,162.7z"/>
		<path id="Shape_85_" class="st5" d="M426.9,162.7v-0.2c-3,0-5.8-1.2-7.8-3.2s-3.2-4.8-3.2-7.8s1.2-5.8,3.2-7.8s4.8-3.2,7.8-3.2
			s5.8,1.2,7.8,3.2s3.2,4.8,3.2,7.8s-1.2,5.8-3.2,7.8s-4.8,3.2-7.8,3.2V162.7v0.2c6.4,0,11.5-5.2,11.5-11.5
			c0-6.4-5.2-11.5-11.5-11.5c-6.4,0-11.5,5.2-11.5,11.5c0,6.4,5.2,11.5,11.5,11.5V162.7z"/>
		<path id="Shape_86_" class="st5" d="M426.9,152.7c-0.7,0-1.3-0.6-1.3-1.3c0-0.7,0.6-1.3,1.3-1.3c0.7,0,1.3,0.6,1.3,1.3
			C428.2,152.1,427.6,152.7,426.9,152.7"/>
		<path id="Shape_87_" class="st6" d="M307.4,123.2c-4.8,0-8.8-3.9-8.8-8.8c0-4.8,3.9-8.8,8.8-8.8c4.8,0,8.8,3.9,8.8,8.8
			C316.1,119.3,312.2,123.2,307.4,123.2z"/>
		<path id="Shape_88_" class="st5" d="M307.4,123.2V123c-2.4,0-4.5-1-6-2.5s-2.5-3.7-2.5-6c0-2.4,1-4.5,2.5-6s3.7-2.5,6-2.5
			c2.4,0,4.5,1,6,2.5s2.5,3.7,2.5,6c0,2.4-1,4.5-2.5,6s-3.7,2.5-6,2.5V123.2v0.2c5,0,9-4,9-9s-4-9-9-9s-9,4-9,9s4,9,9,9V123.2z"/>
		<path id="Shape_89_" class="st5" d="M307.4,115.7c-0.7,0-1.3-0.6-1.3-1.3c0-0.7,0.6-1.3,1.3-1.3c0.7,0,1.3,0.6,1.3,1.3
			C308.6,115.1,308.1,115.7,307.4,115.7"/>
		<path id="Shape_90_" class="st7" d="M140,230.4c-6.2,0-11.3-5-11.3-11.3c0-6.2,5.1-11.3,11.3-11.3s11.3,5.1,11.3,11.3
			C151.3,225.4,146.2,230.4,140,230.4z"/>
		<path id="Shape_91_" class="st8" d="M140,230.4v-0.2c-3,0-5.8-1.2-7.8-3.2s-3.2-4.8-3.2-7.8s1.2-5.8,3.2-7.8s4.8-3.2,7.8-3.2
			s5.8,1.2,7.8,3.2s3.2,4.8,3.2,7.8s-1.2,5.8-3.2,7.8s-4.8,3.2-7.8,3.2V230.4v0.2c6.4,0,11.5-5.2,11.5-11.5
			c0-6.4-5.2-11.5-11.5-11.5c-6.4,0-11.5,5.2-11.5,11.5c0,6.4,5.2,11.5,11.5,11.5V230.4z"/>
		<path id="Shape_92_" class="st6" d="M140,220.4c-0.7,0-1.3-0.6-1.3-1.3c0-0.7,0.6-1.3,1.3-1.3s1.3,0.6,1.3,1.3
			C141.2,219.8,140.7,220.4,140,220.4z"/>
		<path id="Shape_93_" class="st5" d="M140,220.4v-0.2c-0.6,0-1-0.4-1-1c0-0.6,0.4-1,1-1s1,0.4,1,1c0,0.6-0.4,1-1,1V220.4v0.2
			c0.8,0,1.5-0.7,1.5-1.5c0-0.8-0.7-1.5-1.5-1.5s-1.5,0.7-1.5,1.5c0,0.8,0.7,1.5,1.5,1.5V220.4z"/>
		<path id="Shape_94_" class="st7" d="M255.6,152.7c0,3.8-3.1,6.9-6.9,6.9s-6.9-3.1-6.9-6.9s3.1-6.9,6.9-6.9
			S255.6,148.9,255.6,152.7z"/>
		<path id="Shape_95_" class="st8" d="M255.6,152.7h-0.2c0,1.8-0.7,3.5-1.9,4.7c-1.2,1.2-2.9,1.9-4.7,1.9s-3.5-0.7-4.7-1.9
			c-1.2-1.2-1.9-2.9-1.9-4.7s0.7-3.5,1.9-4.7c1.2-1.2,2.9-1.9,4.7-1.9v-0.2v0.2v-0.2v0.2c1.8,0,3.5,0.7,4.7,1.9s1.9,2.9,1.9,4.7
			H255.6h0.2c0-3.9-3.2-7.1-7.1-7.1v0.2v-0.2c-3.9,0-7.1,3.2-7.1,7.1c0,3.9,3.2,7.1,7.1,7.1c3.9,0,7.1-3.2,7.1-7.1H255.6z"/>
		<path id="Shape_96_" class="st6" d="M250,152.7c0,0.7-0.6,1.3-1.3,1.3s-1.3-0.6-1.3-1.3s0.6-1.3,1.3-1.3S250,152,250,152.7z"/>
		<path id="Shape_97_" class="st5" d="M250,152.7h-0.2c0,0.6-0.5,1-1,1s-1-0.5-1-1c0-0.6,0.5-1,1-1c0.6,0,1,0.5,1,1H250h0.2
			c0-0.8-0.7-1.5-1.5-1.5s-1.5,0.7-1.5,1.5s0.7,1.5,1.5,1.5s1.5-0.7,1.5-1.5H250z"/>
		<g id="Group" transform="translate(433.000000, 22.000000)">
			<path id="Combined-Shape" class="st9" d="M26.7,49.1l0,7.8L7.4,42.3l19.2-14.9l0,7.8l27.1-0.1L53.9,49L26.7,49.1z"/>
		</g>
	</g>
</g>
</svg>
