<?xml version="1.0" encoding="utf-8"?>
<!-- Generator: Adobe Illustrator 19.2.1, SVG Export Plug-In . SVG Version: 6.00 Build 0)  -->
<svg version="1.1" id="Layer_1" xmlns:sketch="http://www.bohemiancoding.com/sketch/ns"
	 xmlns="http://www.w3.org/2000/svg" xmlns:xlink="http://www.w3.org/1999/xlink" x="0px" y="0px" viewBox="0 0 76 76"
	 style="enable-background:new 0 0 76 76;" xml:space="preserve">
<style type="text/css">
	.st0{fill:none;stroke:#E5E5E4;stroke-width:2;stroke-linecap:round;stroke-linejoin:round;stroke-miterlimit:10;}
	.st1{fill:#8C929D;}
	.st2{fill:#FC6D26;}
	.st3{fill:#E24329;}
	.st4{fill:#FCA326;}
	.st5{fill:#444444;}
	.st6{fill:#554488;}
	.st7{fill:#4887C5;}
	.st8{fill:url(#SVGID_1_);}
	.st9{fill:url(#SVGID_2_);}
	.st10{fill:#FFFFFF;}
	.st11{opacity:0.1;}
	.st12{fill:#5C5C5C;}
	.st13{fill:#787878;}
	.st14{fill:#A1A1A1;}
	.st15{opacity:0.15;}
	.st16{fill:#373D47;}
	.st17{fill:none;stroke:#000000;stroke-miterlimit:10;}
	.st18{fill:none;stroke:#FC6D26;stroke-width:1.8;stroke-linecap:round;stroke-linejoin:round;stroke-miterlimit:10;}
	.st19{fill:none;stroke:#E24329;stroke-width:1.8;stroke-linecap:round;stroke-linejoin:round;stroke-miterlimit:10;}
	.st20{fill:none;stroke:#FCA326;stroke-width:1.8;stroke-linecap:round;stroke-linejoin:round;stroke-miterlimit:10;}
	.st21{fill:none;stroke:#E5E5E4;stroke-width:1.8;stroke-linecap:round;stroke-linejoin:round;stroke-miterlimit:10;}
	.st22{fill:#2B2B2B;}
	.st23{fill:#FFFFFF;stroke:#E5E5E4;stroke-width:2;stroke-linecap:round;stroke-linejoin:round;stroke-miterlimit:10;}
	.st24{fill:#E5E5E4;}
	.st25{fill:none;stroke:#E5E5E4;stroke-width:1.8353;stroke-linecap:round;stroke-linejoin:round;stroke-miterlimit:10;}
	.st26{fill:none;stroke:#E14329;stroke-width:2;stroke-linecap:round;stroke-linejoin:round;stroke-miterlimit:10;}
	.st27{fill:#FFFFFF;stroke:#E14329;stroke-width:2;stroke-linecap:round;stroke-linejoin:round;stroke-miterlimit:10;}
	.st28{fill:none;stroke:#FCA326;stroke-width:2;stroke-linecap:round;stroke-linejoin:round;stroke-miterlimit:10;}
	.st29{fill:#E14329;}
	.st30{fill:none;stroke:#E14329;stroke-width:1.8353;stroke-linecap:round;stroke-linejoin:round;stroke-miterlimit:10;}
	.st31{fill:none;stroke:#E14329;stroke-width:2.055;stroke-linecap:round;stroke-linejoin:round;stroke-miterlimit:10;}
</style>
<g>
	<g>
		<g>
			<path class="st4" d="M16.5,57c-0.3,0-0.5-0.1-0.7-0.3c-0.4-0.4-0.4-1,0-1.4L29,42L15.8,28.7c-0.4-0.4-0.4-1,0-1.4
				c0.4-0.4,1-0.4,1.4,0l14,14c0.2,0.2,0.3,0.5,0.3,0.7s-0.1,0.5-0.3,0.7l-14,14C17,56.9,16.8,57,16.5,57z"/>
		</g>
		<g>
			<path class="st4" d="M49.6,57H37.4c-0.5,0-0.9-0.4-0.9-1s0.4-1,0.9-1h12.1c0.5,0,0.9,0.4,0.9,1S50.1,57,49.6,57z"/>
		</g>
	</g>
	<path class="st4" d="M61.8,9.6h-5.9C55.2,4.2,50.6,0,45,0c-6.1,0-11,4.9-11,11s4.9,11,11,11c5.8,0,10.6-4.6,11-10.4h5.8
		c1.2,0,2.2,1,2.2,2.2v57.9c0,1.2-1,2.2-2.2,2.2H4.2C3,74,2,73,2,71.8V13.9c0-1.2,1-2.2,2.2-2.2h14.7c0.5,0,1-0.4,1-1
		c0-0.6-0.4-1-1-1H4.2C1.9,9.6,0,11.5,0,13.9v57.9C0,74.1,1.9,76,4.2,76h57.6c2.3,0,4.2-1.9,4.2-4.2V13.9C66,11.5,64.1,9.6,61.8,9.6
		z M45,20c-5,0-9-4-9-9c0-5,4-9,9-9c5,0,9,4,9,9C54,16,50,20,45,20z"/>
</g>
</svg>
