<?xml version="1.0" encoding="utf-8"?>
<!-- Generator: Adobe Illustrator 19.2.1, SVG Export Plug-In . SVG Version: 6.00 Build 0)  -->
<svg version="1.1" id="Layer_1" xmlns:sketch="http://www.bohemiancoding.com/sketch/ns"
	 xmlns="http://www.w3.org/2000/svg" xmlns:xlink="http://www.w3.org/1999/xlink" x="0px" y="0px" viewBox="0 0 76 76"
	 style="enable-background:new 0 0 76 76;" xml:space="preserve">
<style type="text/css">
	.st0{fill:none;stroke:#E5E5E4;stroke-width:2;stroke-linecap:round;stroke-linejoin:round;stroke-miterlimit:10;}
	.st1{fill:#8C929D;}
	.st2{fill:#FC6D26;}
	.st3{fill:#E24329;}
	.st4{fill:#FCA326;}
	.st5{fill:#444444;}
	.st6{fill:#554488;}
	.st7{fill:#4887C5;}
	.st8{fill:url(#SVGID_1_);}
	.st9{fill:url(#SVGID_2_);}
	.st10{fill:#FFFFFF;}
	.st11{opacity:0.1;}
	.st12{fill:#5C5C5C;}
	.st13{fill:#787878;}
	.st14{fill:#A1A1A1;}
	.st15{opacity:0.15;}
	.st16{fill:#373D47;}
	.st17{fill:none;stroke:#000000;stroke-miterlimit:10;}
	.st18{fill:none;stroke:#FC6D26;stroke-width:1.8;stroke-linecap:round;stroke-linejoin:round;stroke-miterlimit:10;}
	.st19{fill:none;stroke:#E24329;stroke-width:1.8;stroke-linecap:round;stroke-linejoin:round;stroke-miterlimit:10;}
	.st20{fill:none;stroke:#FCA326;stroke-width:1.8;stroke-linecap:round;stroke-linejoin:round;stroke-miterlimit:10;}
	.st21{fill:none;stroke:#E5E5E4;stroke-width:1.8;stroke-linecap:round;stroke-linejoin:round;stroke-miterlimit:10;}
	.st22{fill:#2B2B2B;}
	.st23{fill:#FFFFFF;stroke:#E5E5E4;stroke-width:2;stroke-linecap:round;stroke-linejoin:round;stroke-miterlimit:10;}
	.st24{fill:#E5E5E4;}
	.st25{fill:none;stroke:#E5E5E4;stroke-width:1.8353;stroke-linecap:round;stroke-linejoin:round;stroke-miterlimit:10;}
	.st26{fill:none;stroke:#E14329;stroke-width:2;stroke-linecap:round;stroke-linejoin:round;stroke-miterlimit:10;}
	.st27{fill:#FFFFFF;stroke:#E14329;stroke-width:2;stroke-linecap:round;stroke-linejoin:round;stroke-miterlimit:10;}
	.st28{fill:none;stroke:#FCA326;stroke-width:2;stroke-linecap:round;stroke-linejoin:round;stroke-miterlimit:10;}
	.st29{fill:#E14329;}
	.st30{fill:none;stroke:#E14329;stroke-width:1.8353;stroke-linecap:round;stroke-linejoin:round;stroke-miterlimit:10;}
	.st31{fill:none;stroke:#E14329;stroke-width:2.055;stroke-linecap:round;stroke-linejoin:round;stroke-miterlimit:10;}
</style>
<g>
	<g>
		<g>
			<path class="st4" d="M38,76C17,76,0,59,0,38S17,0,38,0s38,17,38,38S59,76,38,76z M38,2C18.1,2,2,18.1,2,38s16.1,36,36,36
				s36-16.1,36-36S57.9,2,38,2z"/>
		</g>
	</g>
	<g>
		<path class="st4" d="M19.8,47.9c0-8.6,11.8-9.8,11.8-15.4c0-2.4-1.8-4-4.3-4c-2.2,0-3.6,1.4-4.2,2.2c-0.5,0.5-1,0.7-1.6,0.2
			l-0.6-0.5c-0.6-0.4-0.7-1-0.3-1.5c0.9-1.3,3.1-3.6,7-3.6c4.4,0,7.6,2.8,7.6,6.9c0,7.9-11.5,9.1-11.6,14.6h10.8
			c0.7,0,1.1,0.4,1.1,1.1v0.7c0,0.7-0.4,1.1-1.1,1.1H21c-0.7,0-1.2-0.4-1.2-1.1V47.9z"/>
		<path class="st4" d="M39.4,47.9c0-8.6,11.8-9.8,11.8-15.4c0-2.4-1.8-4-4.3-4c-2.2,0-3.6,1.4-4.2,2.2c-0.5,0.5-1,0.7-1.6,0.2
			l-0.6-0.5c-0.6-0.4-0.7-1-0.3-1.5c0.9-1.3,3.1-3.6,7-3.6c4.4,0,7.6,2.8,7.6,6.9c0,7.9-11.5,9.1-11.6,14.6h10.8
			c0.7,0,1.1,0.4,1.1,1.1v0.7c0,0.7-0.4,1.1-1.1,1.1H40.6c-0.7,0-1.2-0.4-1.2-1.1V47.9z"/>
	</g>
</g>
</svg>
