<?xml version="1.0" encoding="utf-8"?>
<!-- Generator: Adobe Illustrator 24.1.2, SVG Export Plug-In . SVG Version: 6.00 Build 0)  -->
<svg version="1.1" id="Layer_1" xmlns="http://www.w3.org/2000/svg" xmlns:xlink="http://www.w3.org/1999/xlink" x="0px" y="0px"
	 viewBox="0 0 954 598.8" style="enable-background:new 0 0 954 598.8;" xml:space="preserve">
<style type="text/css">
	.st0{fill:none;stroke:#0000FF;}
	.st1{fill:none;stroke:#000000;stroke-width:5;stroke-linecap:round;stroke-linejoin:round;}
	.st2{fill:none;stroke:#808080;stroke-width:5;stroke-linecap:round;stroke-linejoin:round;}
</style>
<rect class="st0" width="954" height="598.8"/>
<g transform="translate(629, 256)">
	<path class="st1" d="M10,0l0,0.2l0,0.2l0,0.2l0,0.2l0,0.2l0,0.2l0,0.2l0,0.2l0,0.2l0,0.2l0,0.2l0,0.2l0,0.2l0,0.2l0,0.2l0,0.2
		l0,0.2L9.5,3.1L9.5,3.3L9.4,3.4L9.3,3.6L9.3,3.7L9.2,3.9L9.1,4.1L9.1,4.2L9,4.4L8.9,4.5L8.8,4.7L8.7,4.8L8.7,5L8.6,5.2L8.5,5.3
		L8.4,5.4L8.3,5.6L8.2,5.7L8.1,5.9L8,6L7.9,6.2L7.8,6.3L7.7,6.4L7.5,6.6L7.4,6.7L7.3,6.8L7.2,6.9L7.1,7.1L6.9,7.2L6.8,7.3L6.7,7.4
		L6.6,7.5L6.4,7.7L6.3,7.8L6.2,7.9L6,8L5.9,8.1L5.7,8.2L5.6,8.3L5.4,8.4L5.3,8.5L5.2,8.6L5,8.7L4.8,8.7L4.7,8.8L4.5,8.9L4.4,9
		L4.2,9.1L4.1,9.1L3.9,9.2L3.7,9.3L3.6,9.3L3.4,9.4L3.3,9.5L3.1,9.5L2.9,9.6l-0.2,0l-0.2,0l-0.2,0l-0.2,0l-0.2,0l-0.2,0l-0.2,0
		l-0.2,0l-0.2,0l-0.2,0L1,9.9l-0.2,0l-0.2,0l-0.2,0l-0.2,0l-0.2,0L0,10l-0.2,0l-0.2,0l-0.2,0l-0.2,0l-0.2,0l-0.2,0l-0.2,0l-0.2,0
		l-0.2,0l-0.2,0l-0.2,0l-0.2,0l-0.2,0l-0.2,0l-0.2,0l-0.2,0l-0.2,0l-0.2-0.1l-0.2-0.1l-0.2-0.1l-0.2-0.1l-0.2-0.1l-0.2-0.1l-0.2-0.1
		l-0.2-0.1L-4.4,9l-0.2-0.1l-0.2-0.1l-0.2-0.1L-5,8.7l-0.2-0.1l-0.1-0.1l-0.1-0.1l-0.1-0.1l-0.1-0.1l-0.1-0.1L-6,8l-0.1-0.1
		l-0.1-0.1l-0.1-0.1l-0.1-0.1l-0.1-0.1l-0.1-0.1l-0.1-0.1l-0.1-0.1l-0.1-0.1l-0.1-0.1l-0.1-0.1l-0.1-0.1l-0.1-0.1l-0.1-0.1l-0.1-0.1
		L-8,6l-0.1-0.1l-0.1-0.1l-0.1-0.1l-0.1-0.1l-0.1-0.1l-0.1-0.1L-8.7,5l-0.1-0.2l-0.1-0.2l-0.1-0.2L-9,4.4l-0.1-0.2l-0.1-0.2
		l-0.1-0.2l-0.1-0.2l-0.1-0.2l-0.1-0.2l-0.1-0.2l-0.1-0.2l-0.1-0.2l0-0.2l0-0.2l0-0.2l0-0.2l0-0.2l0-0.2l0-0.2l0-0.2l0-0.2l0-0.2
		l0-0.2l0-0.2l0-0.2l0-0.2l0-0.2l0-0.2l0-0.2l0-0.2l0-0.2l0-0.2l0-0.2l0-0.2l0-0.2l0-0.2l0-0.2l0-0.2l0-0.2l0-0.2l0-0.2l0-0.2l0-0.2
		l0-0.2l0-0.2l0-0.2l0.1-0.2l0.1-0.2l0.1-0.2l0.1-0.2l0.1-0.2l0.1-0.2l0.1-0.2l0.1-0.2L-9-4.4l0.1-0.2l0.1-0.2l0.1-0.2L-8.7-5
		l0.1-0.2l0.1-0.1l0.1-0.1l0.1-0.1l0.1-0.1l0.1-0.1L-8-6l0.1-0.1l0.1-0.1l0.1-0.1l0.1-0.1l0.1-0.1l0.1-0.1l0.1-0.1l0.1-0.1l0.1-0.1
		l0.1-0.1l0.1-0.1l0.1-0.1l0.1-0.1l0.1-0.1l0.1-0.1L-6-8l0.1-0.1l0.1-0.1l0.1-0.1l0.1-0.1l0.1-0.1l0.1-0.1L-5-8.7l0.2-0.1l0.2-0.1
		l0.2-0.1L-4.4-9l0.2-0.1l0.2-0.1l0.2-0.1l0.2-0.1l0.2-0.1l0.2-0.1l0.2-0.1l0.2-0.1l0.2-0.1l0.2,0l0.2,0l0.2,0l0.2,0l0.2,0l0.2,0
		l0.2,0l0.2,0l0.2,0l0.2,0l0.2,0l0.2,0l0.2,0l0.2,0l0.2,0l0.2,0L0-10l0.2,0l0.2,0l0.2,0l0.2,0l0.2,0l0.2,0l0.2,0l0.2,0l0.2,0l0.2,0
		l0.2,0l0.2,0l0.2,0l0.2,0l0.2,0l0.2,0l0.2,0l0.2,0.1l0.2,0.1l0.2,0.1l0.2,0.1l0.2,0.1l0.2,0.1l0.2,0.1l0.2,0.1L4.4-9l0.2,0.1
		l0.2,0.1l0.2,0.1L5-8.7l0.2,0.1l0.1,0.1l0.1,0.1l0.1,0.1l0.1,0.1l0.1,0.1L6-8l0.1,0.1l0.1,0.1l0.1,0.1l0.1,0.1l0.1,0.1l0.1,0.1
		l0.1,0.1l0.1,0.1l0.1,0.1l0.1,0.1l0.1,0.1l0.1,0.1l0.1,0.1l0.1,0.1l0.1,0.1L8-6l0.1,0.1l0.1,0.1l0.1,0.1l0.1,0.1l0.1,0.1l0.1,0.1
		L8.7-5l0.1,0.2l0.1,0.2l0.1,0.2L9-4.4l0.1,0.2l0.1,0.2l0.1,0.2l0.1,0.2l0.1,0.2l0.1,0.2l0.1,0.2l0.1,0.2l0.1,0.2l0,0.2l0,0.2l0,0.2
		l0,0.2l0,0.2l0,0.2l0,0.2l0,0.2l0,0.2l0,0.2l0,0.2l0,0.2l0,0.2l0,0.2l0,0.2l0,0.2L10,0z"/>
	<path class="st2" d="M18,0l0,0.3l0,0.3l0,0.3l0,0.3l0,0.3l0,0.3l0,0.3l0,0.3l0,0.3l-0.1,0.3l-0.1,0.3l-0.1,0.3L17.5,4l-0.1,0.3
		l-0.1,0.3L17.3,5l-0.1,0.3l-0.1,0.3L17,5.9l-0.1,0.3l-0.1,0.3l-0.1,0.3L16.6,7l-0.1,0.3l-0.1,0.3l-0.1,0.3L16,8.2l-0.1,0.3
		l-0.1,0.3L15.6,9l-0.2,0.3l-0.2,0.3l-0.2,0.3l-0.2,0.3l-0.2,0.3l-0.2,0.3l-0.2,0.3l-0.2,0.2L14,11.3l-0.2,0.2l-0.2,0.2L13.4,12
		l-0.2,0.2l-0.2,0.2l-0.2,0.2l-0.2,0.2l-0.2,0.2L12,13.4l-0.2,0.2l-0.2,0.2L11.3,14l-0.2,0.2l-0.2,0.2l-0.3,0.2l-0.3,0.2l-0.3,0.2
		l-0.3,0.2l-0.3,0.2l-0.3,0.2L9,15.6l-0.3,0.2l-0.3,0.1L8.2,16l-0.3,0.1l-0.3,0.1l-0.3,0.1L7,16.6l-0.3,0.1l-0.3,0.1l-0.3,0.1
		L5.9,17l-0.3,0.1l-0.3,0.1L5,17.3l-0.3,0.1l-0.3,0.1L4,17.5l-0.3,0.1l-0.3,0.1l-0.3,0.1l-0.3,0.1l-0.3,0l-0.3,0l-0.3,0l-0.3,0
		l-0.3,0l-0.3,0l-0.3,0l-0.3,0L0,18l-0.3,0l-0.3,0l-0.3,0l-0.3,0l-0.3,0l-0.3,0l-0.3,0l-0.3,0l-0.3,0l-0.3-0.1l-0.3-0.1l-0.3-0.1
		L-4,17.5l-0.3-0.1l-0.3-0.1L-5,17.3l-0.3-0.1l-0.3-0.1L-5.9,17l-0.3-0.1l-0.3-0.1l-0.3-0.1L-7,16.6l-0.3-0.1l-0.3-0.1l-0.3-0.1
		L-8.2,16l-0.3-0.1l-0.3-0.1L-9,15.6l-0.3-0.2l-0.3-0.2l-0.3-0.2l-0.3-0.2l-0.3-0.2l-0.3-0.2l-0.3-0.2l-0.2-0.2l-0.2-0.2l-0.2-0.2
		l-0.2-0.2l-0.2-0.2l-0.2-0.2l-0.2-0.2l-0.2-0.2l-0.2-0.2l-0.2-0.2l-0.2-0.2l-0.2-0.2l-0.2-0.2l-0.2-0.2l-0.2-0.2l-0.2-0.2l-0.2-0.3
		l-0.2-0.3l-0.2-0.3l-0.2-0.3l-0.2-0.3l-0.2-0.3L-15.6,9l-0.2-0.3l-0.1-0.3L-16,8.2l-0.1-0.3l-0.1-0.3l-0.1-0.3L-16.6,7l-0.1-0.3
		l-0.1-0.3l-0.1-0.3L-17,5.9l-0.1-0.3l-0.1-0.3L-17.3,5l-0.1-0.3l-0.1-0.3L-17.5,4l-0.1-0.3l-0.1-0.3l-0.1-0.3l-0.1-0.3l0-0.3l0-0.3
		l0-0.3l0-0.3l0-0.3l0-0.3l0-0.3l0-0.3l0-0.3l0-0.3l0-0.3l0-0.3l0-0.3l0-0.3l0-0.3l0-0.3l0-0.3l0-0.3l0.1-0.3l0.1-0.3l0.1-0.3
		l0.1-0.3l0.1-0.3l0.1-0.3l0.1-0.3l0.1-0.3l0.1-0.3l0.1-0.3l0.1-0.3l0.1-0.3l0.1-0.3l0.1-0.3l0.1-0.3l0.1-0.3l0.1-0.3l0.1-0.3
		l0.1-0.3l0.1-0.3l0.2-0.3l0.2-0.3l0.2-0.3l0.2-0.3l0.2-0.3l0.2-0.3l0.2-0.3l0.2-0.3l0.2-0.2l0.2-0.2l0.2-0.2l0.2-0.2l0.2-0.2
		l0.2-0.2l0.2-0.2l0.2-0.2l0.2-0.2l0.2-0.2l0.2-0.2l0.2-0.2l0.2-0.2l0.2-0.2l0.2-0.2l0.2-0.2l0.3-0.2l0.3-0.2l0.3-0.2l0.3-0.2
		l0.3-0.2l0.3-0.2l0.3-0.2l0.3-0.2l0.3-0.1l0.3-0.1l0.3-0.1l0.3-0.1l0.3-0.1l0.3-0.1l0.3-0.1l0.3-0.1l0.3-0.1l0.3-0.1l0.3-0.1
		l0.3-0.1l0.3-0.1l0.3-0.1l0.3-0.1l0.3-0.1l0.3-0.1l0.3-0.1l0.3-0.1l0.3-0.1l0.3,0l0.3,0l0.3,0l0.3,0l0.3,0l0.3,0l0.3,0l0.3,0L0-18
		l0.3,0l0.3,0l0.3,0l0.3,0l0.3,0l0.3,0l0.3,0l0.3,0l0.3,0l0.3,0.1l0.3,0.1l0.3,0.1L4-17.5l0.3,0.1l0.3,0.1L5-17.3l0.3,0.1l0.3,0.1
		L5.9-17l0.3,0.1l0.3,0.1l0.3,0.1L7-16.6l0.3,0.1l0.3,0.1l0.3,0.1L8.2-16l0.3,0.1l0.3,0.1L9-15.6l0.3,0.2l0.3,0.2l0.3,0.2l0.3,0.2
		l0.3,0.2l0.3,0.2l0.3,0.2l0.2,0.2l0.2,0.2l0.2,0.2l0.2,0.2l0.2,0.2l0.2,0.2l0.2,0.2l0.2,0.2l0.2,0.2l0.2,0.2l0.2,0.2l0.2,0.2
		l0.2,0.2l0.2,0.2l0.2,0.2l0.2,0.2l0.2,0.3l0.2,0.3l0.2,0.3l0.2,0.3l0.2,0.3l0.2,0.3L15.6-9l0.2,0.3l0.1,0.3L16-8.2l0.1,0.3l0.1,0.3
		l0.1,0.3L16.6-7l0.1,0.3l0.1,0.3l0.1,0.3L17-5.9l0.1,0.3l0.1,0.3L17.3-5l0.1,0.3l0.1,0.3L17.5-4l0.1,0.3l0.1,0.3l0.1,0.3l0.1,0.3
		l0,0.3l0,0.3l0,0.3l0,0.3l0,0.3l0,0.3l0,0.3l0,0.3L18,0z"/>
	<path class="st2" d="M26,0l0,0.5l0,0.5l0,0.5l0,0.5l0,0.5l0,0.5l-0.1,0.5l-0.1,0.4l-0.1,0.4l-0.1,0.4L25.5,5l-0.1,0.4l-0.1,0.4
		l-0.1,0.4l-0.1,0.4L25,7.2l-0.1,0.4L24.7,8l-0.1,0.4l-0.2,0.4l-0.2,0.4l-0.2,0.4l-0.2,0.4l-0.2,0.4L23.6,11l-0.2,0.4l-0.2,0.4
		L23,12.2l-0.2,0.4L22.5,13l-0.2,0.4L22,13.8l-0.2,0.4l-0.3,0.4l-0.3,0.4L21,15.3l-0.3,0.4L20.5,16l-0.3,0.4l-0.3,0.4l-0.3,0.3
		l-0.3,0.3L19,17.7l-0.3,0.3l-0.3,0.3l-0.3,0.3L17.7,19l-0.3,0.3l-0.3,0.3l-0.3,0.3l-0.4,0.3L16,20.5l-0.4,0.3L15.3,21l-0.4,0.3
		l-0.4,0.3l-0.4,0.3L13.8,22l-0.4,0.2L13,22.5l-0.4,0.2L12.2,23l-0.4,0.2l-0.4,0.2L11,23.6l-0.4,0.2l-0.4,0.2l-0.4,0.2l-0.4,0.2
		l-0.4,0.2l-0.4,0.2L8,24.7l-0.4,0.1L7.2,25l-0.4,0.1l-0.4,0.1l-0.4,0.1l-0.4,0.1L5,25.5l-0.4,0.1l-0.4,0.1l-0.4,0.1l-0.4,0.1
		l-0.5,0.1l-0.5,0l-0.5,0l-0.5,0l-0.5,0l-0.5,0L0,26l-0.5,0l-0.5,0l-0.5,0l-0.5,0l-0.5,0l-0.5,0l-0.5-0.1l-0.4-0.1l-0.4-0.1
		l-0.4-0.1L-5,25.5l-0.4-0.1l-0.4-0.1l-0.4-0.1l-0.4-0.1L-7.2,25l-0.4-0.1L-8,24.7l-0.4-0.1l-0.4-0.2l-0.4-0.2l-0.4-0.2l-0.4-0.2
		l-0.4-0.2l-0.4-0.2l-0.4-0.2l-0.4-0.2l-0.4-0.2l-0.4-0.2l-0.4-0.2l-0.4-0.2l-0.4-0.2l-0.4-0.2l-0.4-0.3l-0.4-0.3l-0.4-0.3l-0.4-0.3
		l-0.4-0.3l-0.4-0.3l-0.4-0.3l-0.3-0.3l-0.3-0.3l-0.3-0.3l-0.3-0.3l-0.3-0.3l-0.3-0.3l-0.3-0.3l-0.3-0.3l-0.3-0.3l-0.3-0.3l-0.3-0.4
		l-0.3-0.4l-0.3-0.4l-0.3-0.4l-0.3-0.4l-0.3-0.4l-0.3-0.4l-0.2-0.4l-0.2-0.4l-0.2-0.4l-0.2-0.4l-0.2-0.4l-0.2-0.4l-0.2-0.4l-0.2-0.4
		l-0.2-0.4l-0.2-0.4l-0.2-0.4l-0.2-0.4l-0.2-0.4l-0.2-0.4L-24.7,8l-0.1-0.4L-25,7.2l-0.1-0.4l-0.1-0.4l-0.1-0.4l-0.1-0.4L-25.5,5
		l-0.1-0.4l-0.1-0.4l-0.1-0.4l-0.1-0.4l-0.1-0.5l0-0.5l0-0.5l0-0.5l0-0.5l0-0.5l0-0.5l0-0.5l0-0.5l0-0.5l0-0.5l0-0.5l0-0.5l0.1-0.5
		l0.1-0.4l0.1-0.4l0.1-0.4l0.1-0.4l0.1-0.4l0.1-0.4l0.1-0.4l0.1-0.4l0.1-0.4l0.1-0.4l0.1-0.4l0.1-0.4l0.2-0.4l0.2-0.4l0.2-0.4
		l0.2-0.4l0.2-0.4l0.2-0.4l0.2-0.4l0.2-0.4l0.2-0.4l0.2-0.4l0.2-0.4l0.2-0.4l0.2-0.4l0.2-0.4l0.3-0.4l0.3-0.4l0.3-0.4l0.3-0.4
		l0.3-0.4l0.3-0.4l0.3-0.4l0.3-0.3l0.3-0.3l0.3-0.3l0.3-0.3l0.3-0.3l0.3-0.3l0.3-0.3l0.3-0.3l0.3-0.3l0.3-0.3l0.4-0.3l0.4-0.3
		l0.4-0.3l0.4-0.3l0.4-0.3l0.4-0.3l0.4-0.3l0.4-0.2l0.4-0.2l0.4-0.2l0.4-0.2l0.4-0.2l0.4-0.2l0.4-0.2l0.4-0.2l0.4-0.2l0.4-0.2
		l0.4-0.2l0.4-0.2l0.4-0.2l0.4-0.2l0.4-0.1l0.4-0.1l0.4-0.1l0.4-0.1l0.4-0.1l0.4-0.1l0.4-0.1l0.4-0.1l0.4-0.1l0.4-0.1l0.4-0.1
		l0.4-0.1l0.5-0.1l0.5,0l0.5,0l0.5,0l0.5,0l0.5,0L0-26l0.5,0l0.5,0l0.5,0l0.5,0l0.5,0l0.5,0l0.5,0.1l0.4,0.1l0.4,0.1l0.4,0.1L5-25.5
		l0.4,0.1l0.4,0.1l0.4,0.1l0.4,0.1L7.2-25l0.4,0.1L8-24.7l0.4,0.1l0.4,0.2l0.4,0.2l0.4,0.2l0.4,0.2l0.4,0.2l0.4,0.2l0.4,0.2l0.4,0.2
		l0.4,0.2l0.4,0.2l0.4,0.2l0.4,0.2l0.4,0.2l0.4,0.2l0.4,0.3l0.4,0.3l0.4,0.3l0.4,0.3l0.4,0.3l0.4,0.3l0.4,0.3l0.3,0.3l0.3,0.3
		l0.3,0.3l0.3,0.3l0.3,0.3l0.3,0.3l0.3,0.3l0.3,0.3l0.3,0.3l0.3,0.3l0.3,0.4l0.3,0.4l0.3,0.4l0.3,0.4l0.3,0.4l0.3,0.4l0.3,0.4
		l0.2,0.4l0.2,0.4l0.2,0.4l0.2,0.4l0.2,0.4l0.2,0.4l0.2,0.4l0.2,0.4l0.2,0.4l0.2,0.4l0.2,0.4l0.2,0.4l0.2,0.4l0.2,0.4L24.7-8
		l0.1,0.4L25-7.2l0.1,0.4l0.1,0.4l0.1,0.4l0.1,0.4L25.5-5l0.1,0.4l0.1,0.4l0.1,0.4l0.1,0.4l0.1,0.5l0,0.5l0,0.5l0,0.5l0,0.5l0,0.5
		L26,0z"/>
	<path class="st2" d="M34,0l0,0.6l0,0.6l0,0.6l0,0.6l0,0.6l-0.1,0.6l-0.1,0.6l-0.1,0.6l-0.1,0.6l-0.1,0.6l-0.1,0.6l-0.1,0.6
		l-0.1,0.6L33,8.2l-0.1,0.6l-0.2,0.6l-0.2,0.6l-0.2,0.6l-0.2,0.6l-0.2,0.6l-0.2,0.6l-0.2,0.6l-0.2,0.5l-0.2,0.5l-0.2,0.5l-0.3,0.5
		l-0.3,0.5L30,16l-0.3,0.5L29.4,17l-0.3,0.5L28.8,18l-0.3,0.5L28.2,19l-0.3,0.5L27.5,20l-0.4,0.5l-0.4,0.5l-0.4,0.5L26,21.9
		l-0.4,0.5l-0.4,0.4l-0.4,0.4l-0.4,0.4L24,24l-0.4,0.4l-0.4,0.4l-0.4,0.4l-0.4,0.4L21.9,26l-0.5,0.4l-0.5,0.4l-0.5,0.4L20,27.5
		l-0.5,0.3L19,28.2l-0.5,0.3L18,28.8l-0.5,0.3L17,29.4l-0.5,0.3L16,30l-0.5,0.3l-0.5,0.3l-0.5,0.3l-0.5,0.2l-0.5,0.2l-0.5,0.2
		l-0.6,0.2l-0.6,0.2l-0.6,0.2l-0.6,0.2l-0.6,0.2l-0.6,0.2l-0.6,0.2L8.2,33l-0.6,0.1l-0.6,0.1l-0.6,0.1l-0.6,0.1l-0.6,0.1l-0.6,0.1
		l-0.6,0.1l-0.6,0.1L3,33.9l-0.6,0l-0.6,0l-0.6,0l-0.6,0L0,34l-0.6,0l-0.6,0l-0.6,0l-0.6,0l-0.6,0l-0.6-0.1l-0.6-0.1l-0.6-0.1
		l-0.6-0.1l-0.6-0.1l-0.6-0.1l-0.6-0.1l-0.6-0.1L-8.2,33l-0.6-0.1l-0.6-0.2l-0.6-0.2l-0.6-0.2l-0.6-0.2l-0.6-0.2l-0.6-0.2l-0.6-0.2
		l-0.5-0.2l-0.5-0.2l-0.5-0.2l-0.5-0.3l-0.5-0.3L-16,30l-0.5-0.3l-0.5-0.3l-0.5-0.3l-0.5-0.3l-0.5-0.3l-0.5-0.3l-0.5-0.3l-0.5-0.3
		l-0.5-0.4l-0.5-0.4l-0.5-0.4l-0.5-0.4l-0.5-0.4l-0.4-0.4l-0.4-0.4l-0.4-0.4L-24,24l-0.4-0.4l-0.4-0.4l-0.4-0.4l-0.4-0.4l-0.4-0.5
		l-0.4-0.5l-0.4-0.5l-0.4-0.5l-0.4-0.5l-0.3-0.5l-0.3-0.5l-0.3-0.5l-0.3-0.5l-0.3-0.5l-0.3-0.5l-0.3-0.5L-30,16l-0.3-0.5l-0.3-0.5
		l-0.3-0.5l-0.2-0.5l-0.2-0.5l-0.2-0.5l-0.2-0.6l-0.2-0.6l-0.2-0.6l-0.2-0.6l-0.2-0.6l-0.2-0.6l-0.2-0.6L-33,8.2l-0.1-0.6l-0.1-0.6
		l-0.1-0.6l-0.1-0.6l-0.1-0.6l-0.1-0.6l-0.1-0.6l-0.1-0.6L-33.9,3l0-0.6l0-0.6l0-0.6l0-0.6l0-0.6l0-0.6l0-0.6l0-0.6l0-0.6l0-0.6
		l0.1-0.6l0.1-0.6l0.1-0.6l0.1-0.6l0.1-0.6l0.1-0.6l0.1-0.6l0.1-0.6l0.1-0.6l0.1-0.6l0.2-0.6l0.2-0.6l0.2-0.6l0.2-0.6l0.2-0.6
		l0.2-0.6l0.2-0.6l0.2-0.5l0.2-0.5l0.2-0.5l0.3-0.5l0.3-0.5L-30-16l0.3-0.5l0.3-0.5l0.3-0.5l0.3-0.5l0.3-0.5l0.3-0.5l0.3-0.5
		l0.3-0.5l0.4-0.5l0.4-0.5l0.4-0.5l0.4-0.5l0.4-0.5l0.4-0.4l0.4-0.4l0.4-0.4L-24-24l0.4-0.4l0.4-0.4l0.4-0.4l0.4-0.4l0.5-0.4
		l0.5-0.4l0.5-0.4l0.5-0.4l0.5-0.4l0.5-0.3l0.5-0.3l0.5-0.3l0.5-0.3l0.5-0.3l0.5-0.3l0.5-0.3L-16-30l0.5-0.3l0.5-0.3l0.5-0.3
		l0.5-0.2l0.5-0.2l0.5-0.2l0.6-0.2l0.6-0.2l0.6-0.2l0.6-0.2l0.6-0.2l0.6-0.2l0.6-0.2l0.6-0.1l0.6-0.1l0.6-0.1l0.6-0.1l0.6-0.1
		l0.6-0.1l0.6-0.1l0.6-0.1l0.6-0.1l0.6-0.1l0.6,0l0.6,0l0.6,0l0.6,0L0-34l0.6,0l0.6,0l0.6,0l0.6,0l0.6,0l0.6,0.1l0.6,0.1l0.6,0.1
		l0.6,0.1l0.6,0.1l0.6,0.1l0.6,0.1l0.6,0.1L8.2-33l0.6,0.1l0.6,0.2l0.6,0.2l0.6,0.2l0.6,0.2l0.6,0.2l0.6,0.2l0.6,0.2l0.5,0.2
		l0.5,0.2l0.5,0.2l0.5,0.3l0.5,0.3L16-30l0.5,0.3l0.5,0.3l0.5,0.3l0.5,0.3l0.5,0.3l0.5,0.3l0.5,0.3l0.5,0.3l0.5,0.4l0.5,0.4l0.5,0.4
		l0.5,0.4l0.5,0.4l0.4,0.4l0.4,0.4l0.4,0.4L24-24l0.4,0.4l0.4,0.4l0.4,0.4l0.4,0.4l0.4,0.5l0.4,0.5l0.4,0.5l0.4,0.5l0.4,0.5l0.3,0.5
		l0.3,0.5l0.3,0.5l0.3,0.5l0.3,0.5l0.3,0.5l0.3,0.5L30-16l0.3,0.5l0.3,0.5l0.3,0.5l0.2,0.5l0.2,0.5l0.2,0.5l0.2,0.6l0.2,0.6l0.2,0.6
		l0.2,0.6l0.2,0.6l0.2,0.6l0.2,0.6L33-8.2l0.1,0.6l0.1,0.6l0.1,0.6l0.1,0.6l0.1,0.6l0.1,0.6l0.1,0.6l0.1,0.6L33.9-3l0,0.6l0,0.6
		l0,0.6l0,0.6L34,0z"/>
	<path class="st2" d="M42,0l0,0.7l0,0.7l0,0.7l0,0.7l-0.1,0.7l-0.1,0.7l-0.1,0.7l-0.1,0.7l-0.1,0.7l-0.1,0.7L41.2,8l-0.1,0.7
		l-0.2,0.7l-0.2,0.7l-0.2,0.7l-0.2,0.7l-0.2,0.7L39.9,13l-0.2,0.7l-0.2,0.7l-0.3,0.7l-0.3,0.7l-0.3,0.7l-0.3,0.7l-0.3,0.7l-0.3,0.7
		l-0.3,0.7l-0.3,0.7l-0.3,0.6L36.4,21L36,21.6l-0.4,0.6l-0.4,0.6l-0.4,0.6l-0.4,0.6L34,24.7l-0.4,0.6l-0.4,0.6l-0.5,0.6L32.2,27
		l-0.5,0.6l-0.5,0.5l-0.5,0.5l-0.5,0.5l-0.5,0.5l-0.5,0.5l-0.5,0.5l-0.5,0.5l-0.5,0.5L27,32.2l-0.6,0.5l-0.6,0.5l-0.6,0.4L24.7,34
		l-0.6,0.4l-0.6,0.4l-0.6,0.4l-0.6,0.4L21.6,36L21,36.4l-0.6,0.4l-0.6,0.3l-0.7,0.3l-0.7,0.3l-0.7,0.3l-0.7,0.3l-0.7,0.3l-0.7,0.3
		l-0.7,0.3l-0.7,0.3l-0.7,0.2L13,39.9l-0.7,0.2l-0.7,0.2l-0.7,0.2l-0.7,0.2l-0.7,0.2l-0.7,0.2L8,41.2l-0.7,0.1l-0.7,0.1l-0.7,0.1
		l-0.7,0.1l-0.7,0.1l-0.7,0.1l-0.7,0.1l-0.7,0l-0.7,0l-0.7,0L0,42l-0.7,0l-0.7,0l-0.7,0l-0.7,0l-0.7-0.1l-0.7-0.1l-0.7-0.1l-0.7-0.1
		l-0.7-0.1l-0.7-0.1L-8,41.2l-0.7-0.1l-0.7-0.2l-0.7-0.2l-0.7-0.2l-0.7-0.2l-0.7-0.2l-0.7-0.2l-0.7-0.2l-0.7-0.2l-0.7-0.3l-0.7-0.3
		l-0.7-0.3l-0.7-0.3l-0.7-0.3l-0.7-0.3l-0.7-0.3l-0.7-0.3l-0.6-0.3l-0.6-0.4l-0.6-0.4l-0.6-0.4l-0.6-0.4l-0.6-0.4l-0.6-0.4l-0.6-0.4
		l-0.6-0.4l-0.6-0.4l-0.6-0.5l-0.6-0.5l-0.6-0.5l-0.5-0.5l-0.5-0.5l-0.5-0.5l-0.5-0.5l-0.5-0.5l-0.5-0.5l-0.5-0.5l-0.5-0.5l-0.5-0.6
		l-0.5-0.6l-0.5-0.6l-0.4-0.6l-0.4-0.6l-0.4-0.6l-0.4-0.6l-0.4-0.6l-0.4-0.6l-0.4-0.6l-0.4-0.6l-0.4-0.6l-0.3-0.6l-0.3-0.7l-0.3-0.7
		l-0.3-0.7l-0.3-0.7l-0.3-0.7l-0.3-0.7l-0.3-0.7l-0.3-0.7l-0.2-0.7l-0.2-0.7l-0.2-0.7l-0.2-0.7l-0.2-0.7l-0.2-0.7l-0.2-0.7l-0.2-0.7
		L-41.2,8l-0.1-0.7l-0.1-0.7l-0.1-0.7l-0.1-0.7l-0.1-0.7l-0.1-0.7l-0.1-0.7l0-0.7l0-0.7l0-0.7l0-0.7l0-0.7l0-0.7l0-0.7l0-0.7
		l0.1-0.7l0.1-0.7l0.1-0.7l0.1-0.7l0.1-0.7l0.1-0.7l0.1-0.7l0.1-0.7l0.2-0.7l0.2-0.7l0.2-0.7l0.2-0.7l0.2-0.7l0.2-0.7l0.2-0.7
		l0.2-0.7l0.3-0.7l0.3-0.7l0.3-0.7l0.3-0.7l0.3-0.7l0.3-0.7l0.3-0.7l0.3-0.7l0.3-0.6l0.4-0.6l0.4-0.6l0.4-0.6l0.4-0.6l0.4-0.6
		l0.4-0.6l0.4-0.6l0.4-0.6l0.4-0.6l0.5-0.6l0.5-0.6l0.5-0.6l0.5-0.5l0.5-0.5l0.5-0.5l0.5-0.5l0.5-0.5l0.5-0.5l0.5-0.5l0.5-0.5
		l0.6-0.5l0.6-0.5l0.6-0.5l0.6-0.4l0.6-0.4l0.6-0.4l0.6-0.4l0.6-0.4l0.6-0.4l0.6-0.4l0.6-0.4l0.6-0.4l0.6-0.3l0.7-0.3l0.7-0.3
		l0.7-0.3l0.7-0.3l0.7-0.3l0.7-0.3l0.7-0.3l0.7-0.3l0.7-0.2l0.7-0.2l0.7-0.2l0.7-0.2l0.7-0.2l0.7-0.2l0.7-0.2l0.7-0.2l0.7-0.1
		l0.7-0.1l0.7-0.1l0.7-0.1l0.7-0.1l0.7-0.1l0.7-0.1l0.7-0.1l0.7,0l0.7,0l0.7,0L0-42l0.7,0l0.7,0l0.7,0l0.7,0l0.7,0.1l0.7,0.1
		l0.7,0.1l0.7,0.1l0.7,0.1l0.7,0.1L8-41.2l0.7,0.1l0.7,0.2l0.7,0.2l0.7,0.2l0.7,0.2l0.7,0.2l0.7,0.2l0.7,0.2l0.7,0.2l0.7,0.3
		l0.7,0.3l0.7,0.3l0.7,0.3l0.7,0.3l0.7,0.3l0.7,0.3l0.7,0.3l0.6,0.3l0.6,0.4l0.6,0.4l0.6,0.4l0.6,0.4l0.6,0.4l0.6,0.4l0.6,0.4
		l0.6,0.4l0.6,0.4l0.6,0.5l0.6,0.5l0.6,0.5l0.5,0.5l0.5,0.5l0.5,0.5l0.5,0.5l0.5,0.5l0.5,0.5l0.5,0.5l0.5,0.5l0.5,0.6l0.5,0.6
		l0.5,0.6l0.4,0.6l0.4,0.6l0.4,0.6l0.4,0.6l0.4,0.6l0.4,0.6l0.4,0.6l0.4,0.6l0.4,0.6l0.3,0.6l0.3,0.7l0.3,0.7l0.3,0.7l0.3,0.7
		l0.3,0.7l0.3,0.7l0.3,0.7l0.3,0.7l0.2,0.7l0.2,0.7l0.2,0.7l0.2,0.7l0.2,0.7l0.2,0.7l0.2,0.7l0.2,0.7L41.2-8l0.1,0.7l0.1,0.7
		l0.1,0.7l0.1,0.7l0.1,0.7l0.1,0.7l0.1,0.7l0,0.7l0,0.7l0,0.7L42,0z"/>
	<path class="st2" d="M50,0l0,0.9l0,0.9l0,0.9l-0.1,0.9l-0.1,0.9l-0.1,0.9l-0.1,0.9L49.5,7l-0.1,0.9l-0.1,0.9l-0.2,0.9l-0.2,0.9
		l-0.2,0.9l-0.2,0.8l-0.2,0.8l-0.2,0.8l-0.2,0.8l-0.3,0.8l-0.3,0.8L47,17.1l-0.3,0.8l-0.3,0.8L46,19.5l-0.3,0.8l-0.4,0.8l-0.4,0.8
		l-0.4,0.8l-0.4,0.8l-0.4,0.8L43.3,25l-0.4,0.8l-0.5,0.7l-0.5,0.7L41.5,28L41,28.7l-0.5,0.7l-0.5,0.7l-0.5,0.7l-0.5,0.7l-0.6,0.7
		l-0.6,0.7l-0.6,0.7l-0.6,0.6L36,34.7l-0.6,0.6L34.7,36l-0.6,0.6l-0.6,0.6l-0.7,0.6l-0.7,0.6l-0.7,0.6l-0.7,0.5l-0.7,0.5l-0.7,0.5
		L28.7,41L28,41.5l-0.7,0.5l-0.7,0.5l-0.7,0.5L25,43.3l-0.8,0.4l-0.8,0.4l-0.8,0.4l-0.8,0.4l-0.8,0.4l-0.8,0.4L19.5,46l-0.8,0.3
		l-0.8,0.3L17.1,47l-0.8,0.3l-0.8,0.3l-0.8,0.3l-0.8,0.2l-0.8,0.2l-0.8,0.2l-0.8,0.2l-0.9,0.2l-0.9,0.2l-0.9,0.2l-0.9,0.1L7,49.5
		l-0.9,0.1l-0.9,0.1l-0.9,0.1l-0.9,0.1l-0.9,0.1l-0.9,0l-0.9,0L0,50l-0.9,0l-0.9,0l-0.9,0l-0.9-0.1l-0.9-0.1l-0.9-0.1l-0.9-0.1
		L-7,49.5l-0.9-0.1l-0.9-0.1l-0.9-0.2l-0.9-0.2l-0.9-0.2l-0.8-0.2l-0.8-0.2l-0.8-0.2l-0.8-0.2l-0.8-0.3l-0.8-0.3l-0.8-0.3l-0.8-0.3
		l-0.8-0.3l-0.8-0.3l-0.8-0.3l-0.8-0.4l-0.8-0.4l-0.8-0.4l-0.8-0.4l-0.8-0.4l-0.8-0.4l-0.8-0.4l-0.7-0.5l-0.7-0.5l-0.7-0.5l-0.7-0.5
		l-0.7-0.5l-0.7-0.5l-0.7-0.5l-0.7-0.5l-0.7-0.6l-0.7-0.6l-0.7-0.6l-0.6-0.6l-0.6-0.6l-0.6-0.6l-0.6-0.6l-0.6-0.6l-0.6-0.6l-0.6-0.7
		l-0.6-0.7l-0.6-0.7l-0.5-0.7l-0.5-0.7l-0.5-0.7l-0.5-0.7l-0.5-0.7l-0.5-0.7l-0.5-0.7l-0.5-0.7l-0.4-0.8l-0.4-0.8l-0.4-0.8l-0.4-0.8
		l-0.4-0.8l-0.4-0.8l-0.4-0.8l-0.3-0.8l-0.3-0.8l-0.3-0.8l-0.3-0.8l-0.3-0.8l-0.3-0.8l-0.3-0.8l-0.2-0.8l-0.2-0.8l-0.2-0.8l-0.2-0.8
		l-0.2-0.9l-0.2-0.9l-0.2-0.9l-0.1-0.9L-49.5,7l-0.1-0.9l-0.1-0.9l-0.1-0.9l-0.1-0.9l-0.1-0.9l0-0.9l0-0.9l0-0.9l0-0.9l0-0.9l0-0.9
		l0.1-0.9l0.1-0.9l0.1-0.9l0.1-0.9l0.1-0.9l0.1-0.9l0.1-0.9l0.2-0.9l0.2-0.9l0.2-0.9l0.2-0.8l0.2-0.8l0.2-0.8l0.2-0.8l0.3-0.8
		l0.3-0.8l0.3-0.8l0.3-0.8l0.3-0.8l0.3-0.8l0.3-0.8l0.4-0.8l0.4-0.8l0.4-0.8l0.4-0.8l0.4-0.8l0.4-0.8l0.4-0.8l0.5-0.7l0.5-0.7
		l0.5-0.7l0.5-0.7l0.5-0.7l0.5-0.7l0.5-0.7l0.5-0.7l0.6-0.7l0.6-0.7l0.6-0.7l0.6-0.6l0.6-0.6l0.6-0.6l0.6-0.6l0.6-0.6l0.6-0.6
		l0.7-0.6l0.7-0.6l0.7-0.6l0.7-0.5l0.7-0.5l0.7-0.5l0.7-0.5l0.7-0.5l0.7-0.5l0.7-0.5l0.7-0.5l0.8-0.4l0.8-0.4l0.8-0.4l0.8-0.4
		l0.8-0.4l0.8-0.4l0.8-0.4l0.8-0.3l0.8-0.3l0.8-0.3l0.8-0.3l0.8-0.3l0.8-0.3l0.8-0.3l0.8-0.2l0.8-0.2l0.8-0.2l0.8-0.2l0.9-0.2
		l0.9-0.2l0.9-0.2l0.9-0.1l0.9-0.1l0.9-0.1l0.9-0.1l0.9-0.1l0.9-0.1l0.9-0.1l0.9,0l0.9,0L0-50l0.9,0l0.9,0l0.9,0l0.9,0.1l0.9,0.1
		l0.9,0.1l0.9,0.1L7-49.5l0.9,0.1l0.9,0.1l0.9,0.2l0.9,0.2l0.9,0.2l0.8,0.2l0.8,0.2l0.8,0.2l0.8,0.2l0.8,0.3l0.8,0.3l0.8,0.3
		l0.8,0.3l0.8,0.3l0.8,0.3l0.8,0.3l0.8,0.4l0.8,0.4l0.8,0.4l0.8,0.4l0.8,0.4l0.8,0.4l0.8,0.4l0.7,0.5l0.7,0.5l0.7,0.5l0.7,0.5
		l0.7,0.5l0.7,0.5l0.7,0.5l0.7,0.5l0.7,0.6l0.7,0.6l0.7,0.6l0.6,0.6l0.6,0.6l0.6,0.6l0.6,0.6l0.6,0.6l0.6,0.6l0.6,0.7l0.6,0.7
		l0.6,0.7l0.5,0.7l0.5,0.7l0.5,0.7l0.5,0.7l0.5,0.7l0.5,0.7l0.5,0.7l0.5,0.7l0.4,0.8l0.4,0.8l0.4,0.8l0.4,0.8l0.4,0.8l0.4,0.8
		l0.4,0.8l0.3,0.8l0.3,0.8l0.3,0.8l0.3,0.8l0.3,0.8l0.3,0.8l0.3,0.8l0.2,0.8l0.2,0.8l0.2,0.8l0.2,0.8l0.2,0.9l0.2,0.9l0.2,0.9
		l0.1,0.9L49.5-7l0.1,0.9l0.1,0.9l0.1,0.9l0.1,0.9l0.1,0.9l0,0.9l0,0.9L50,0z"/>
	<path class="st2" d="M58,0l0,1l0,1l0,1l-0.1,1l-0.1,1l-0.1,1l-0.1,1l-0.1,1l-0.1,1l-0.2,1l-0.2,1l-0.2,1l-0.2,1l-0.2,1L56,15
		l-0.3,1l-0.3,1l-0.3,1l-0.3,1l-0.3,1l-0.4,0.9l-0.4,0.9l-0.4,0.9L53,23.6l-0.4,0.9l-0.4,0.9l-0.5,0.9l-0.5,0.9l-0.5,0.9L50.2,29
		l-0.5,0.9l-0.5,0.9l-0.5,0.9l-0.6,0.8l-0.6,0.8l-0.6,0.8l-0.6,0.8l-0.6,0.8l-0.6,0.8l-0.6,0.8l-0.7,0.8l-0.7,0.8l-0.7,0.7l-0.7,0.7
		L41,41l-0.7,0.7l-0.7,0.7l-0.7,0.7l-0.8,0.7l-0.8,0.7l-0.8,0.6l-0.8,0.6l-0.8,0.6l-0.8,0.6l-0.8,0.6l-0.8,0.6l-0.8,0.6l-0.9,0.5
		l-0.9,0.5L29,50.2l-0.9,0.5l-0.9,0.5l-0.9,0.5l-0.9,0.5l-0.9,0.4L23.6,53l-0.9,0.4l-0.9,0.4l-0.9,0.4l-0.9,0.4l-1,0.3l-1,0.3
		l-1,0.3l-1,0.3L15,56l-1,0.3l-1,0.2l-1,0.2l-1,0.2l-1,0.2l-1,0.2l-1,0.1l-1,0.1l-1,0.1l-1,0.1l-1,0.1l-1,0.1l-1,0l-1,0l-1,0l-1,0
		l-1,0l-1,0l-1-0.1l-1-0.1l-1-0.1l-1-0.1l-1-0.1l-1-0.1l-1-0.2l-1-0.2l-1-0.2l-1-0.2l-1-0.2l-1-0.3l-1-0.3l-1-0.3l-1-0.3l-1-0.3
		l-1-0.3l-0.9-0.4l-0.9-0.4l-0.9-0.4l-0.9-0.4l-0.9-0.4l-0.9-0.4l-0.9-0.5l-0.9-0.5l-0.9-0.5l-0.9-0.5l-0.9-0.5l-0.9-0.5l-0.9-0.5
		l-0.8-0.6l-0.8-0.6l-0.8-0.6l-0.8-0.6l-0.8-0.6l-0.8-0.6l-0.8-0.6l-0.8-0.7l-0.8-0.7l-0.7-0.7l-0.7-0.7L-41,41l-0.7-0.7l-0.7-0.7
		l-0.7-0.7l-0.7-0.8l-0.7-0.8l-0.6-0.8l-0.6-0.8l-0.6-0.8l-0.6-0.8l-0.6-0.8l-0.6-0.8l-0.6-0.8l-0.5-0.9l-0.5-0.9l-0.5-0.9l-0.5-0.9
		l-0.5-0.9l-0.5-0.9l-0.5-0.9l-0.4-0.9l-0.4-0.9l-0.4-0.9l-0.4-0.9l-0.4-0.9l-0.4-0.9l-0.3-1l-0.3-1l-0.3-1l-0.3-1l-0.3-1l-0.3-1
		l-0.2-1l-0.2-1l-0.2-1l-0.2-1l-0.2-1l-0.1-1l-0.1-1l-0.1-1l-0.1-1l-0.1-1l-0.1-1l0-1l0-1l0-1l0-1l0-1l0-1l0.1-1l0.1-1l0.1-1l0.1-1
		l0.1-1l0.1-1l0.2-1l0.2-1l0.2-1l0.2-1l0.2-1l0.3-1l0.3-1l0.3-1l0.3-1l0.3-1l0.3-1l0.4-0.9l0.4-0.9l0.4-0.9l0.4-0.9l0.4-0.9l0.4-0.9
		l0.5-0.9l0.5-0.9l0.5-0.9l0.5-0.9l0.5-0.9l0.5-0.9l0.5-0.9l0.6-0.8l0.6-0.8l0.6-0.8l0.6-0.8l0.6-0.8l0.6-0.8l0.6-0.8l0.7-0.8
		l0.7-0.8l0.7-0.7l0.7-0.7L-41-41l0.7-0.7l0.7-0.7l0.7-0.7l0.8-0.7l0.8-0.7l0.8-0.6l0.8-0.6l0.8-0.6l0.8-0.6l0.8-0.6l0.8-0.6
		l0.8-0.6l0.9-0.5l0.9-0.5l0.9-0.5l0.9-0.5l0.9-0.5l0.9-0.5l0.9-0.5l0.9-0.4l0.9-0.4l0.9-0.4l0.9-0.4l0.9-0.4l0.9-0.4l1-0.3l1-0.3
		l1-0.3l1-0.3l1-0.3l1-0.3l1-0.2l1-0.2l1-0.2l1-0.2l1-0.2l1-0.1l1-0.1l1-0.1l1-0.1l1-0.1l1-0.1l1,0l1,0l1,0l1,0l1,0l1,0l1,0.1l1,0.1
		l1,0.1l1,0.1l1,0.1l1,0.1l1,0.2l1,0.2l1,0.2l1,0.2l1,0.2l1,0.3l1,0.3l1,0.3l1,0.3l1,0.3l1,0.3l0.9,0.4l0.9,0.4l0.9,0.4l0.9,0.4
		l0.9,0.4l0.9,0.4l0.9,0.5l0.9,0.5l0.9,0.5l0.9,0.5l0.9,0.5l0.9,0.5l0.9,0.5l0.8,0.6l0.8,0.6l0.8,0.6l0.8,0.6l0.8,0.6l0.8,0.6
		l0.8,0.6l0.8,0.7l0.8,0.7l0.7,0.7l0.7,0.7L41-41l0.7,0.7l0.7,0.7l0.7,0.7l0.7,0.8l0.7,0.8l0.6,0.8l0.6,0.8l0.6,0.8l0.6,0.8l0.6,0.8
		l0.6,0.8l0.6,0.8l0.5,0.9l0.5,0.9l0.5,0.9l0.5,0.9l0.5,0.9l0.5,0.9l0.5,0.9l0.4,0.9l0.4,0.9l0.4,0.9l0.4,0.9l0.4,0.9l0.4,0.9l0.3,1
		l0.3,1l0.3,1l0.3,1l0.3,1l0.3,1l0.2,1l0.2,1l0.2,1l0.2,1l0.2,1l0.1,1l0.1,1l0.1,1l0.1,1l0.1,1l0.1,1l0,1l0,1L58,0z"/>
	<path class="st1" d="M66,0l0,1.2l0,1.2l-0.1,1.2l-0.1,1.1l-0.1,1.1l-0.1,1.1L65.5,8l-0.2,1.1l-0.2,1.1L65,11.5l-0.2,1.1l-0.2,1.1
		l-0.2,1.1L64,16l-0.3,1.1l-0.3,1.1l-0.3,1.1l-0.3,1.1l-0.4,1.1L62,22.6l-0.4,1.1l-0.4,1.1l-0.4,1.1l-0.5,1.1l-0.5,1l-0.5,1l-0.5,1
		l-0.5,1l-0.5,1l-0.6,1l-0.6,1L56,35l-0.6,1l-0.6,1l-0.7,0.9l-0.7,0.9l-0.7,0.9L52,40.6l-0.7,0.9l-0.7,0.9l-0.7,0.9l-0.8,0.9
		L48.3,45l-0.8,0.8l-0.8,0.8l-0.8,0.8L45,48.3l-0.8,0.8l-0.9,0.8l-0.9,0.7l-0.9,0.7L40.6,52l-0.9,0.7l-0.9,0.7l-0.9,0.7l-0.9,0.7
		l-1,0.6L35,56l-1,0.6l-1,0.6l-1,0.6l-1,0.5l-1,0.5l-1,0.5l-1,0.5l-1,0.5l-1.1,0.5l-1.1,0.4l-1.1,0.4L22.6,62l-1.1,0.4l-1.1,0.4
		l-1.1,0.3l-1.1,0.3l-1.1,0.3L16,64l-1.1,0.3l-1.1,0.2l-1.1,0.2L11.5,65l-1.1,0.2l-1.1,0.2L8,65.5l-1.1,0.1l-1.1,0.1l-1.1,0.1
		l-1.1,0.1L2.3,66l-1.2,0L0,66l-1.2,0l-1.2,0l-1.2-0.1l-1.1-0.1l-1.1-0.1l-1.1-0.1L-8,65.5l-1.1-0.2l-1.1-0.2l-1.1-0.2l-1.1-0.2
		l-1.1-0.2l-1.1-0.2L-16,64l-1.1-0.3l-1.1-0.3l-1.1-0.3l-1.1-0.3l-1.1-0.4l-1.1-0.4l-1.1-0.4l-1.1-0.4l-1.1-0.4l-1.1-0.5l-1-0.5
		l-1-0.5l-1-0.5l-1-0.5l-1-0.5l-1-0.6l-1-0.6l-1-0.6l-1-0.6l-1-0.6l-0.9-0.7l-0.9-0.7l-0.9-0.7l-0.9-0.7l-0.9-0.7l-0.9-0.7l-0.9-0.7
		l-0.9-0.8l-0.8-0.8l-0.8-0.8l-0.8-0.8l-0.8-0.8l-0.8-0.8l-0.8-0.8l-0.8-0.9l-0.7-0.9l-0.7-0.9l-0.7-0.9l-0.7-0.9l-0.7-0.9l-0.7-0.9
		l-0.7-0.9l-0.6-1l-0.6-1l-0.6-1l-0.6-1l-0.6-1l-0.5-1l-0.5-1l-0.5-1l-0.5-1l-0.5-1l-0.5-1.1l-0.4-1.1l-0.4-1.1l-0.4-1.1l-0.4-1.1
		l-0.4-1.1l-0.3-1.1l-0.3-1.1l-0.3-1.1L-64,16l-0.3-1.1l-0.2-1.1l-0.2-1.1l-0.2-1.1l-0.2-1.1l-0.2-1.1L-65.5,8l-0.1-1.1l-0.1-1.1
		l-0.1-1.1l-0.1-1.1L-66,2.3l0-1.2l0-1.2l0-1.2l0-1.2l0.1-1.2l0.1-1.1l0.1-1.1l0.1-1.1l0.1-1.1l0.2-1.1l0.2-1.1l0.2-1.1l0.2-1.1
		l0.2-1.1l0.2-1.1L-64-16l0.3-1.1l0.3-1.1l0.3-1.1l0.3-1.1l0.4-1.1l0.4-1.1l0.4-1.1l0.4-1.1l0.4-1.1l0.5-1.1l0.5-1l0.5-1l0.5-1
		l0.5-1l0.5-1l0.6-1l0.6-1l0.6-1l0.6-1l0.6-1l0.7-0.9l0.7-0.9l0.7-0.9l0.7-0.9l0.7-0.9l0.7-0.9l0.7-0.9l0.8-0.9l0.8-0.8l0.8-0.8
		l0.8-0.8l0.8-0.8l0.8-0.8l0.8-0.8l0.9-0.8l0.9-0.7l0.9-0.7l0.9-0.7l0.9-0.7l0.9-0.7l0.9-0.7l0.9-0.7l1-0.6l1-0.6l1-0.6l1-0.6l1-0.6
		l1-0.5l1-0.5l1-0.5l1-0.5l1-0.5l1.1-0.5l1.1-0.4l1.1-0.4l1.1-0.4l1.1-0.4l1.1-0.4l1.1-0.3l1.1-0.3l1.1-0.3L-16-64l1.1-0.3l1.1-0.2
		l1.1-0.2l1.1-0.2l1.1-0.2l1.1-0.2l1.1-0.2l1.1-0.1l1.1-0.1l1.1-0.1l1.1-0.1l1.2-0.1l1.2,0L0-66l1.2,0l1.2,0l1.2,0.1l1.1,0.1
		l1.1,0.1l1.1,0.1L8-65.5l1.1,0.2l1.1,0.2l1.1,0.2l1.1,0.2l1.1,0.2l1.1,0.2L16-64l1.1,0.3l1.1,0.3l1.1,0.3l1.1,0.3l1.1,0.4l1.1,0.4
		l1.1,0.4l1.1,0.4l1.1,0.4l1.1,0.5l1,0.5l1,0.5l1,0.5l1,0.5l1,0.5l1,0.6l1,0.6l1,0.6l1,0.6l1,0.6l0.9,0.7l0.9,0.7l0.9,0.7l0.9,0.7
		l0.9,0.7l0.9,0.7l0.9,0.7l0.9,0.8l0.8,0.8l0.8,0.8l0.8,0.8l0.8,0.8l0.8,0.8l0.8,0.8l0.8,0.9l0.7,0.9l0.7,0.9l0.7,0.9l0.7,0.9
		l0.7,0.9l0.7,0.9l0.7,0.9l0.6,1l0.6,1l0.6,1l0.6,1l0.6,1l0.5,1l0.5,1l0.5,1l0.5,1l0.5,1l0.5,1.1l0.4,1.1l0.4,1.1l0.4,1.1l0.4,1.1
		l0.4,1.1l0.3,1.1l0.3,1.1l0.3,1.1L64-16l0.3,1.1l0.2,1.1l0.2,1.1l0.2,1.1l0.2,1.1l0.2,1.1L65.5-8l0.1,1.1l0.1,1.1l0.1,1.1l0.1,1.1
		L66-2.3l0,1.2L66,0z"/>
	<path class="st2" d="M74,0l0,1.3l0,1.3l-0.1,1.3l-0.1,1.3l-0.1,1.3l-0.1,1.3L73.5,9l-0.2,1.3l-0.2,1.3l-0.2,1.3l-0.2,1.3l-0.3,1.3
		l-0.3,1.3l-0.3,1.3l-0.3,1.3l-0.3,1.2l-0.4,1.2l-0.4,1.2L70,24.1l-0.4,1.2l-0.5,1.2l-0.5,1.2l-0.5,1.2l-0.5,1.2l-0.5,1.2l-0.6,1.2
		l-0.6,1.2l-0.6,1.1l-0.6,1.1L64.1,37l-0.7,1.1l-0.7,1.1l-0.7,1.1l-0.7,1.1l-0.7,1.1l-0.7,1.1l-0.8,1l-0.8,1l-0.8,1l-0.8,1l-0.8,1
		l-0.9,1l-0.9,1l-0.9,0.9l-0.9,0.9l-0.9,0.9l-0.9,0.9l-1,0.9l-1,0.9l-1,0.8l-1,0.8l-1,0.8l-1,0.8l-1,0.8l-1.1,0.8l-1.1,0.7l-1.1,0.7
		l-1.1,0.7l-1.1,0.7L37,64.1l-1.1,0.6l-1.1,0.6l-1.1,0.6l-1.2,0.6l-1.2,0.6l-1.2,0.5l-1.2,0.5l-1.2,0.5l-1.2,0.5l-1.2,0.5L24.1,70
		l-1.2,0.4l-1.2,0.4l-1.2,0.4l-1.2,0.3l-1.3,0.3l-1.3,0.3l-1.3,0.3l-1.3,0.3l-1.3,0.2l-1.3,0.2l-1.3,0.2L9,73.5l-1.3,0.1l-1.3,0.1
		l-1.3,0.1l-1.3,0.1L2.6,74l-1.3,0L0,74l-1.3,0l-1.3,0l-1.3-0.1l-1.3-0.1l-1.3-0.1l-1.3-0.1L-9,73.5l-1.3-0.2l-1.3-0.2l-1.3-0.2
		l-1.3-0.2l-1.3-0.3l-1.3-0.3l-1.3-0.3l-1.3-0.3l-1.2-0.3l-1.2-0.4l-1.2-0.4l-1.2-0.4l-1.2-0.4l-1.2-0.5l-1.2-0.5l-1.2-0.5l-1.2-0.5
		l-1.2-0.5l-1.2-0.6l-1.2-0.6l-1.1-0.6l-1.1-0.6l-1.1-0.6l-1.1-0.7l-1.1-0.7l-1.1-0.7l-1.1-0.7l-1.1-0.7l-1.1-0.7l-1-0.8l-1-0.8
		l-1-0.8l-1-0.8l-1-0.8l-1-0.9l-1-0.9l-0.9-0.9l-0.9-0.9l-0.9-0.9l-0.9-0.9l-0.9-1l-0.9-1l-0.8-1l-0.8-1l-0.8-1l-0.8-1l-0.8-1
		l-0.8-1.1l-0.7-1.1l-0.7-1.1l-0.7-1.1l-0.7-1.1l-0.7-1.1l-0.6-1.1l-0.6-1.1l-0.6-1.1l-0.6-1.2l-0.6-1.2l-0.5-1.2l-0.5-1.2l-0.5-1.2
		l-0.5-1.2l-0.5-1.2l-0.4-1.2l-0.4-1.2l-0.4-1.2l-0.4-1.2l-0.3-1.2l-0.3-1.3l-0.3-1.3l-0.3-1.3l-0.3-1.3l-0.2-1.3l-0.2-1.3l-0.2-1.3
		L-73.5,9l-0.1-1.3l-0.1-1.3l-0.1-1.3l-0.1-1.3L-74,2.6l0-1.3l0-1.3l0-1.3l0-1.3l0.1-1.3l0.1-1.3l0.1-1.3l0.1-1.3l0.1-1.3l0.2-1.3
		l0.2-1.3l0.2-1.3l0.2-1.3l0.3-1.3l0.3-1.3l0.3-1.3l0.3-1.3l0.3-1.2l0.4-1.2l0.4-1.2l0.4-1.2l0.4-1.2l0.5-1.2l0.5-1.2l0.5-1.2
		l0.5-1.2l0.5-1.2l0.6-1.2l0.6-1.2l0.6-1.1l0.6-1.1l0.6-1.1l0.7-1.1l0.7-1.1l0.7-1.1l0.7-1.1l0.7-1.1l0.8-1.1l0.8-1l0.8-1l0.8-1
		l0.8-1l0.8-1l0.9-1l0.9-1l0.9-0.9l0.9-0.9l0.9-0.9l0.9-0.9l1-0.9l1-0.9l1-0.8l1-0.8l1-0.8l1-0.8l1-0.8l1.1-0.7l1.1-0.7l1.1-0.7
		l1.1-0.7l1.1-0.7l1.1-0.7l1.1-0.6l1.1-0.6l1.1-0.6l1.2-0.6l1.2-0.6l1.2-0.5l1.2-0.5l1.2-0.5l1.2-0.5l1.2-0.5l1.2-0.4l1.2-0.4
		l1.2-0.4l1.2-0.4l1.2-0.3l1.3-0.3l1.3-0.3l1.3-0.3l1.3-0.3l1.3-0.2l1.3-0.2l1.3-0.2l1.3-0.2l1.3-0.1l1.3-0.1l1.3-0.1l1.3-0.1
		l1.3-0.1l1.3,0L0-74l1.3,0l1.3,0l1.3,0.1l1.3,0.1l1.3,0.1l1.3,0.1L9-73.5l1.3,0.2l1.3,0.2l1.3,0.2l1.3,0.2l1.3,0.3l1.3,0.3l1.3,0.3
		l1.3,0.3l1.2,0.3l1.2,0.4l1.2,0.4l1.2,0.4l1.2,0.4l1.2,0.5l1.2,0.5l1.2,0.5l1.2,0.5l1.2,0.5l1.2,0.6l1.2,0.6l1.1,0.6l1.1,0.6
		l1.1,0.6l1.1,0.7l1.1,0.7l1.1,0.7l1.1,0.7l1.1,0.7l1.1,0.8l1,0.8l1,0.8l1,0.8l1,0.8l1,0.8l1,0.9l1,0.9l0.9,0.9l0.9,0.9l0.9,0.9
		l0.9,0.9l0.9,1l0.9,1l0.8,1l0.8,1l0.8,1l0.8,1l0.8,1l0.8,1.1l0.7,1.1l0.7,1.1l0.7,1.1l0.7,1.1l0.7,1.1l0.6,1.1l0.6,1.1l0.6,1.1
		l0.6,1.2l0.6,1.2l0.5,1.2l0.5,1.2l0.5,1.2l0.5,1.2l0.5,1.2l0.4,1.2l0.4,1.2l0.4,1.2l0.4,1.2l0.3,1.2l0.3,1.3l0.3,1.3l0.3,1.3
		l0.3,1.3l0.2,1.3l0.2,1.3l0.2,1.3L73.5-9l0.1,1.3l0.1,1.3l0.1,1.3l0.1,1.3L74-2.6l0,1.3L74,0z"/>
	<path class="st1" d="M82,0l0,1.4l0,1.4l-0.1,1.4l-0.1,1.4l-0.1,1.4l-0.1,1.4L81.4,10l-0.2,1.4L81,12.8l-0.2,1.4l-0.3,1.4l-0.3,1.4
		l-0.3,1.4l-0.3,1.4l-0.4,1.4l-0.4,1.4L78.4,24L78,25.3l-0.5,1.4L77.1,28l-0.5,1.3L76,30.7L75.5,32l-0.6,1.3l-0.6,1.3L73.7,36
		l-0.6,1.3l-0.7,1.3l-0.7,1.3L71,41l-0.7,1.2l-0.7,1.2l-0.8,1.2L68,45.9l-0.8,1.2l-0.8,1.2l-0.9,1.2l-0.9,1.1l-0.9,1.1l-0.9,1.1
		l-0.9,1.1L61,54.9l-1,1.1l-1,1l-1,1l-1,1l-1,1l-1.1,1l-1.1,0.9l-1.1,0.9l-1.1,0.9l-1.1,0.9l-1.1,0.9l-1.2,0.9L47,67.2L45.9,68
		l-1.2,0.8l-1.2,0.8l-1.2,0.7L41,71l-1.2,0.7l-1.3,0.7l-1.3,0.7L36,73.7l-1.3,0.6l-1.3,0.6l-1.3,0.6l-1.3,0.5l-1.3,0.5l-1.3,0.5
		l-1.3,0.5L25.4,78L24,78.5l-1.4,0.4l-1.4,0.4l-1.4,0.4l-1.4,0.3l-1.4,0.3l-1.4,0.3l-1.4,0.3L12.8,81l-1.4,0.2L10,81.4l-1.4,0.2
		l-1.4,0.1l-1.4,0.1l-1.4,0.1L2.9,82l-1.4,0L0,82l-1.4,0l-1.4,0l-1.4-0.1l-1.4-0.1l-1.4-0.1l-1.4-0.1l-1.4-0.2l-1.4-0.2l-1.4-0.2
		l-1.4-0.2l-1.4-0.3l-1.4-0.3l-1.4-0.3l-1.4-0.3l-1.4-0.4l-1.4-0.4l-1.4-0.4l-1.4-0.4l-1.4-0.5l-1.3-0.5l-1.3-0.5l-1.3-0.5l-1.3-0.5
		l-1.3-0.6l-1.3-0.6l-1.3-0.6l-1.3-0.6l-1.3-0.7l-1.3-0.7L-41,71l-1.2-0.7l-1.2-0.7l-1.2-0.8l-1.2-0.8l-1.2-0.8l-1.2-0.8l-1.2-0.9
		l-1.1-0.9l-1.1-0.9l-1.1-0.9l-1.1-0.9l-1.1-0.9l-1.1-1l-1-1l-1-1l-1-1l-1-1l-1-1.1l-0.9-1.1l-0.9-1.1l-0.9-1.1l-0.9-1.1l-0.9-1.1
		l-0.9-1.2l-0.8-1.2l-0.8-1.2l-0.8-1.2l-0.8-1.2l-0.7-1.2L-71,41l-0.7-1.2l-0.7-1.3l-0.7-1.3l-0.6-1.3l-0.6-1.3l-0.6-1.3l-0.6-1.3
		l-0.5-1.3l-0.5-1.3l-0.5-1.3l-0.5-1.3l-0.5-1.4l-0.4-1.4l-0.4-1.4l-0.4-1.4l-0.4-1.4l-0.3-1.4l-0.3-1.4l-0.3-1.4l-0.3-1.4l-0.2-1.4
		l-0.2-1.4l-0.2-1.4l-0.2-1.4l-0.1-1.4l-0.1-1.4l-0.1-1.4L-82,2.9l0-1.4l0-1.4l0-1.4l0-1.4l0.1-1.4l0.1-1.4l0.1-1.4l0.1-1.4l0.2-1.4
		l0.2-1.4l0.2-1.4l0.2-1.4l0.3-1.4l0.3-1.4l0.3-1.4l0.3-1.4l0.4-1.4l0.4-1.4l0.4-1.4l0.4-1.4l0.5-1.4l0.5-1.3l0.5-1.3l0.5-1.3
		l0.5-1.3l0.6-1.3l0.6-1.3l0.6-1.3l0.6-1.3l0.7-1.3l0.7-1.3L-71-41l0.7-1.2l0.7-1.2l0.8-1.2l0.8-1.2l0.8-1.2l0.8-1.2l0.9-1.2
		l0.9-1.1l0.9-1.1l0.9-1.1l0.9-1.1l0.9-1.1l1-1.1l1-1l1-1l1-1l1-1l1.1-1l1.1-0.9l1.1-0.9l1.1-0.9l1.1-0.9l1.1-0.9l1.2-0.9l1.2-0.8
		l1.2-0.8l1.2-0.8l1.2-0.8l1.2-0.7L-41-71l1.2-0.7l1.3-0.7l1.3-0.7l1.3-0.6l1.3-0.6l1.3-0.6l1.3-0.6l1.3-0.5l1.3-0.5l1.3-0.5
		l1.3-0.5l1.4-0.5l1.4-0.4l1.4-0.4l1.4-0.4l1.4-0.4l1.4-0.3l1.4-0.3l1.4-0.3l1.4-0.3l1.4-0.2l1.4-0.2l1.4-0.2l1.4-0.2l1.4-0.1
		l1.4-0.1l1.4-0.1l1.4-0.1l1.4,0L0-82l1.4,0l1.4,0l1.4,0.1l1.4,0.1l1.4,0.1l1.4,0.1l1.4,0.2l1.4,0.2l1.4,0.2l1.4,0.2l1.4,0.3
		l1.4,0.3l1.4,0.3l1.4,0.3l1.4,0.4l1.4,0.4l1.4,0.4l1.4,0.4l1.4,0.5l1.3,0.5l1.3,0.5l1.3,0.5l1.3,0.5l1.3,0.6l1.3,0.6l1.3,0.6
		l1.3,0.6l1.3,0.7l1.3,0.7L41-71l1.2,0.7l1.2,0.7l1.2,0.8l1.2,0.8l1.2,0.8l1.2,0.8l1.2,0.9l1.1,0.9l1.1,0.9l1.1,0.9l1.1,0.9l1.1,0.9
		l1.1,1l1,1l1,1l1,1l1,1l1,1.1l0.9,1.1l0.9,1.1l0.9,1.1l0.9,1.1l0.9,1.1l0.9,1.2l0.8,1.2l0.8,1.2l0.8,1.2l0.8,1.2l0.7,1.2L71-41
		l0.7,1.2l0.7,1.3l0.7,1.3l0.6,1.3l0.6,1.3l0.6,1.3l0.6,1.3l0.5,1.3l0.5,1.3l0.5,1.3l0.5,1.3l0.5,1.4l0.4,1.4l0.4,1.4l0.4,1.4
		l0.4,1.4l0.3,1.4l0.3,1.4l0.3,1.4l0.3,1.4l0.2,1.4l0.2,1.4l0.2,1.4l0.2,1.4l0.1,1.4l0.1,1.4l0.1,1.4L82-2.9l0,1.4L82,0z"/>
	<path class="st1" d="M90.1,0l0,1.6l0,1.6l-0.1,1.6l-0.1,1.6l-0.1,1.6l-0.2,1.6L89.4,11l-0.2,1.6l-0.2,1.6l-0.3,1.5l-0.3,1.5
		L88,18.7l-0.3,1.5l-0.4,1.5l-0.4,1.5l-0.4,1.5l-0.4,1.5l-0.5,1.5l-0.5,1.5l-0.5,1.5L84,32.3l-0.6,1.5l-0.6,1.5l-0.6,1.4l-0.6,1.4
		l-0.7,1.4l-0.7,1.4l-0.7,1.4l-0.7,1.4L78,45l-0.8,1.4l-0.8,1.3l-0.8,1.3l-0.9,1.3l-0.9,1.3l-0.9,1.3l-0.9,1.3l-1,1.2l-1,1.2l-1,1.2
		l-1,1.2l-1,1.2l-1.1,1.2l-1.1,1.1l-1.1,1.1l-1.1,1.1l-1.1,1.1l-1.2,1.1l-1.2,1l-1.2,1l-1.2,1l-1.2,1l-1.2,1l-1.3,0.9l-1.3,0.9
		l-1.3,0.9L49,75.5l-1.3,0.8l-1.3,0.8L45,78l-1.4,0.8l-1.4,0.8l-1.4,0.7l-1.4,0.7l-1.4,0.7l-1.4,0.7l-1.4,0.6l-1.5,0.6l-1.5,0.6
		l-1.5,0.6l-1.5,0.5l-1.5,0.5l-1.5,0.5l-1.5,0.4L23.3,87l-1.5,0.4l-1.5,0.4l-1.5,0.3l-1.5,0.3l-1.5,0.3L14.1,89l-1.6,0.2L11,89.4
		l-1.6,0.2l-1.6,0.1l-1.6,0.1l-1.6,0.1L3.1,90l-1.6,0l-1.6,0l-1.6,0l-1.6,0l-1.6-0.1l-1.6-0.1l-1.6-0.1l-1.6-0.2l-1.6-0.2l-1.6-0.2
		l-1.6-0.2l-1.5-0.3l-1.5-0.3l-1.5-0.3l-1.5-0.3l-1.5-0.4l-1.5-0.4l-1.5-0.4l-1.5-0.4l-1.5-0.5l-1.5-0.5l-1.5-0.5l-1.5-0.5l-1.5-0.6
		l-1.5-0.6l-1.4-0.6l-1.4-0.6l-1.4-0.7l-1.4-0.7l-1.4-0.7l-1.4-0.7L-45,78l-1.4-0.8l-1.3-0.8l-1.3-0.8l-1.3-0.9l-1.3-0.9l-1.3-0.9
		l-1.3-0.9l-1.2-1l-1.2-1l-1.2-1l-1.2-1l-1.2-1l-1.2-1.1l-1.1-1.1l-1.1-1.1l-1.1-1.1l-1.1-1.1l-1.1-1.2l-1-1.2l-1-1.2l-1-1.2l-1-1.2
		l-1-1.2l-0.9-1.3l-0.9-1.3l-0.9-1.3l-0.9-1.3l-0.8-1.3l-0.8-1.3L-78,45l-0.8-1.4l-0.7-1.4l-0.7-1.4l-0.7-1.4l-0.7-1.4l-0.7-1.4
		l-0.6-1.4l-0.6-1.5l-0.6-1.5l-0.5-1.5l-0.5-1.5l-0.5-1.5l-0.5-1.5l-0.4-1.5l-0.4-1.5l-0.4-1.5l-0.4-1.5l-0.3-1.5l-0.3-1.5l-0.3-1.5
		l-0.3-1.6l-0.2-1.6l-0.2-1.6l-0.2-1.6l-0.1-1.6l-0.1-1.6l-0.1-1.6L-90,3.1l0-1.6l0-1.6l0-1.6l0-1.6l0.1-1.6l0.1-1.6l0.1-1.6
		l0.1-1.6l0.2-1.6l0.2-1.6l0.2-1.6l0.3-1.6l0.3-1.5l0.3-1.5l0.3-1.5l0.4-1.5l0.4-1.5l0.4-1.5l0.4-1.5l0.5-1.5l0.5-1.5l0.5-1.5
		l0.5-1.5l0.6-1.5l0.6-1.5l0.6-1.4l0.7-1.4l0.7-1.4l0.7-1.4l0.7-1.4l0.7-1.4L-78-45l0.8-1.4l0.8-1.3l0.8-1.3l0.9-1.3l0.9-1.3
		l0.9-1.3l0.9-1.3l1-1.2l1-1.2l1-1.2l1-1.2l1-1.2l1.1-1.2l1.1-1.1l1.1-1.1l1.1-1.1l1.1-1.1l1.2-1.1l1.2-1l1.2-1l1.2-1l1.2-1l1.2-1
		l1.3-0.9l1.3-0.9l1.3-0.9l1.3-0.9l1.3-0.8l1.3-0.8L-45-78l1.4-0.8l1.4-0.7l1.4-0.7l1.4-0.7l1.4-0.7l1.4-0.7l1.4-0.6l1.5-0.6
		l1.5-0.6l1.5-0.6l1.5-0.5l1.5-0.5l1.5-0.5l1.5-0.4l1.5-0.4l1.5-0.4l1.5-0.4l1.5-0.3l1.5-0.3l1.5-0.3l1.6-0.3l1.6-0.2l1.6-0.2
		l1.6-0.2l1.6-0.2l1.6-0.1l1.6-0.1l1.6-0.1l1.6,0l1.6,0l1.6,0l1.6,0L4.7-90l1.6,0.1l1.6,0.1l1.6,0.2l1.6,0.2l1.6,0.2l1.6,0.2
		l1.6,0.3l1.5,0.3l1.5,0.3l1.5,0.3l1.5,0.4l1.5,0.4l1.5,0.4l1.5,0.4l1.5,0.5l1.5,0.5l1.5,0.5l1.5,0.6l1.5,0.6l1.5,0.6l1.4,0.6
		l1.4,0.7l1.4,0.7l1.4,0.7l1.4,0.7l1.4,0.7L45-78l1.4,0.8l1.3,0.8l1.3,0.8l1.3,0.9l1.3,0.9l1.3,0.9l1.3,0.9l1.2,1l1.2,1l1.2,1l1.2,1
		l1.2,1l1.2,1.1l1.1,1.1l1.1,1.1l1.1,1.1l1.1,1.1l1.1,1.2l1,1.2l1,1.2l1,1.2l1,1.2l1,1.2l0.9,1.3l0.9,1.3l0.9,1.3l0.9,1.3l0.8,1.3
		l0.8,1.3L78-45l0.8,1.4l0.8,1.4l0.7,1.4l0.7,1.4l0.7,1.4l0.7,1.4l0.6,1.4l0.6,1.5l0.6,1.5l0.6,1.5l0.5,1.5l0.5,1.5l0.5,1.5l0.4,1.5
		l0.4,1.5l0.4,1.5l0.4,1.5l0.3,1.5l0.3,1.5l0.3,1.5l0.3,1.6l0.2,1.6l0.2,1.6l0.2,1.6l0.1,1.6l0.1,1.6l0.1,1.6L90-3.1l0,1.6L90.1,0z"
		/>
	<path class="st2" d="M98.1,0l0,1.7L98,3.4L98,5.1l-0.1,1.7l-0.1,1.7l-0.2,1.7L97.3,12l-0.2,1.7l-0.3,1.7L96.6,17l-0.3,1.7l-0.3,1.7
		l-0.4,1.7l-0.4,1.7l-0.4,1.7L94.2,27l-0.5,1.6l-0.5,1.6l-0.5,1.6l-0.6,1.6l-0.6,1.6l-0.6,1.6l-0.6,1.6l-0.7,1.6l-0.7,1.6L88.2,43
		l-0.8,1.5l-0.8,1.5l-0.8,1.5L85,49.1l-0.9,1.5L83.2,52l-0.9,1.4l-0.9,1.4l-1,1.4l-1,1.4l-1,1.4l-1,1.4l-1.1,1.3l-1.1,1.3l-1.1,1.3
		l-1.1,1.3l-1.2,1.3l-1.2,1.2l-1.2,1.2l-1.2,1.2l-1.2,1.2l-1.3,1.2L64.4,74l-1.3,1.1l-1.3,1.1l-1.3,1.1l-1.4,1l-1.4,1l-1.4,1l-1.4,1
		l-1.4,0.9L52,83.2l-1.5,0.9L49.1,85l-1.5,0.8l-1.5,0.8l-1.5,0.8L43,88.2l-1.5,0.7l-1.6,0.7l-1.6,0.7L36.8,91l-1.6,0.6l-1.6,0.6
		L32,92.8l-1.6,0.5l-1.6,0.5l-1.6,0.5l-1.7,0.5l-1.7,0.4l-1.7,0.4L20.4,96l-1.7,0.3L17,96.7L15.4,97l-1.7,0.2L12,97.4l-1.7,0.2
		l-1.7,0.2l-1.7,0.1L5.1,98l-1.7,0.1l-1.7,0l-1.7,0l-1.7,0L-3.4,98L-5.1,98l-1.7-0.1l-1.7-0.1l-1.7-0.2l-1.7-0.2l-1.7-0.2l-1.7-0.3
		l-1.7-0.3l-1.7-0.3l-1.7-0.3l-1.7-0.4l-1.7-0.4l-1.7-0.4l-1.6-0.5l-1.6-0.5l-1.6-0.5l-1.6-0.5l-1.6-0.6l-1.6-0.6l-1.6-0.6l-1.6-0.6
		l-1.6-0.7l-1.6-0.7l-1.5-0.7l-1.5-0.8l-1.5-0.8l-1.5-0.8l-1.5-0.8l-1.5-0.9l-1.5-0.9l-1.4-0.9l-1.4-0.9l-1.4-1l-1.4-1l-1.4-1
		l-1.4-1l-1.3-1.1l-1.3-1.1l-1.3-1.1l-1.3-1.1l-1.3-1.2l-1.2-1.2l-1.2-1.2l-1.2-1.2l-1.2-1.2l-1.2-1.3l-1.1-1.3l-1.1-1.3l-1.1-1.3
		l-1.1-1.3l-1-1.4l-1-1.4l-1-1.4l-1-1.4l-0.9-1.4l-0.9-1.4l-0.9-1.5l-0.9-1.5l-0.8-1.5l-0.8-1.5l-0.8-1.5l-0.8-1.5l-0.7-1.5
		l-0.7-1.6l-0.7-1.6l-0.7-1.6l-0.6-1.6l-0.6-1.6l-0.6-1.6l-0.5-1.6l-0.5-1.6l-0.5-1.6l-0.5-1.7l-0.4-1.7l-0.4-1.7l-0.4-1.7l-0.3-1.7
		l-0.3-1.7l-0.3-1.7l-0.2-1.7l-0.2-1.7l-0.2-1.7l-0.2-1.7l-0.1-1.7l-0.1-1.7L-98,3.4l0-1.7l0-1.7l0-1.7l0-1.7l0.1-1.7l0.1-1.7
		l0.1-1.7l0.2-1.7l0.2-1.7l0.2-1.7l0.2-1.7l0.3-1.7l0.3-1.7l0.3-1.7l0.4-1.7l0.4-1.7l0.4-1.7l0.5-1.7l0.5-1.6l0.5-1.6l0.5-1.6
		l0.6-1.6l0.6-1.6l0.6-1.6l0.7-1.6l0.7-1.6l0.7-1.6l0.7-1.5l0.8-1.5l0.8-1.5l0.8-1.5l0.8-1.5l0.9-1.5l0.9-1.5l0.9-1.4l0.9-1.4l1-1.4
		l1-1.4l1-1.4l1-1.4l1.1-1.3l1.1-1.3l1.1-1.3l1.1-1.3l1.2-1.3l1.2-1.2l1.2-1.2l1.2-1.2l1.2-1.2l1.3-1.2l1.3-1.1l1.3-1.1l1.3-1.1
		l1.3-1.1l1.4-1l1.4-1l1.4-1l1.4-1l1.4-0.9l1.4-0.9l1.5-0.9l1.5-0.9l1.5-0.8l1.5-0.8l1.5-0.8l1.5-0.8l1.5-0.7l1.6-0.7l1.6-0.7
		l1.6-0.7l1.6-0.6l1.6-0.6l1.6-0.6l1.6-0.5l1.6-0.5l1.6-0.5l1.6-0.5l1.7-0.4l1.7-0.4l1.7-0.4l1.7-0.3l1.7-0.3l1.7-0.3l1.7-0.3
		l1.7-0.2l1.7-0.2l1.7-0.2l1.7-0.1l1.7-0.1l1.7-0.1l1.7,0l1.7,0l1.7,0l1.7,0l1.7,0.1L6.9-98l1.7,0.1l1.7,0.2l1.7,0.2l1.7,0.2
		l1.7,0.3l1.7,0.3l1.7,0.3l1.7,0.3l1.7,0.4l1.7,0.4l1.7,0.4l1.7,0.5l1.6,0.5l1.6,0.5l1.6,0.5l1.6,0.6l1.6,0.6l1.6,0.6l1.6,0.7
		l1.6,0.7l1.6,0.7l1.5,0.7l1.5,0.8l1.5,0.8l1.5,0.8l1.5,0.8l1.5,0.9l1.5,0.9l1.4,0.9l1.4,0.9l1.4,1l1.4,1l1.4,1l1.4,1l1.3,1.1
		l1.3,1.1l1.3,1.1l1.3,1.1l1.3,1.2l1.2,1.2l1.2,1.2l1.2,1.2l1.2,1.2l1.2,1.3l1.1,1.3l1.1,1.3l1.1,1.3l1.1,1.3l1,1.4l1,1.4l1,1.4
		l1,1.4l0.9,1.4l0.9,1.4l0.9,1.5l0.9,1.5l0.8,1.5l0.8,1.5l0.8,1.5l0.8,1.5l0.7,1.5l0.7,1.6l0.7,1.6l0.7,1.6l0.6,1.6l0.6,1.6l0.6,1.6
		l0.5,1.6l0.5,1.6l0.5,1.6l0.5,1.7l0.4,1.7l0.4,1.7l0.4,1.7l0.3,1.7l0.3,1.7l0.3,1.7l0.2,1.7l0.2,1.7l0.2,1.7l0.2,1.7l0.1,1.7
		L98-5.1l0.1,1.7l0,1.7L98.1,0z"/>
	<path class="st1" d="M106.2,0l0,1.9l-0.1,1.9L106,5.6l-0.1,1.8l-0.2,1.8l-0.2,1.8l-0.2,1.8l-0.3,1.8l-0.3,1.8l-0.3,1.8l-0.3,1.8
		l-0.4,1.8l-0.4,1.8l-0.4,1.8l-0.5,1.8l-0.5,1.8l-0.5,1.8l-0.6,1.8l-0.6,1.8l-0.6,1.7L99.1,38l-0.7,1.7l-0.7,1.7L97,43.2l-0.8,1.7
		l-0.8,1.7l-0.8,1.7l-0.8,1.7l-0.9,1.6L92,53.1l-0.9,1.6l-1,1.6l-1,1.6l-1,1.6l-1,1.5L86,62.5L84.9,64l-1.1,1.5l-1.2,1.5l-1.2,1.4
		l-1.2,1.4L79,71.1l-1.3,1.4l-1.3,1.3l-1.3,1.3l-1.3,1.3l-1.4,1.3L71.1,79l-1.4,1.2l-1.4,1.2l-1.4,1.2l-1.5,1.1l-1.5,1.1l-1.5,1.1
		L60.9,87l-1.5,1l-1.5,1l-1.6,1l-1.6,1L53.1,92l-1.6,0.9l-1.6,0.9l-1.6,0.9l-1.7,0.8l-1.7,0.8l-1.7,0.8l-1.7,0.8l-1.7,0.7l-1.7,0.7
		l-1.7,0.7l-1.7,0.6l-1.8,0.6l-1.8,0.6l-1.8,0.5l-1.8,0.5l-1.8,0.5l-1.8,0.4l-1.8,0.4l-1.8,0.4l-1.8,0.3l-1.8,0.3l-1.8,0.3l-1.8,0.2
		l-1.8,0.2l-1.8,0.2L7.4,106l-1.9,0.1l-1.9,0.1l-1.9,0l-1.9,0l-1.9,0l-1.9-0.1l-1.9-0.1l-1.8-0.1l-1.8-0.2l-1.8-0.2l-1.8-0.2
		l-1.8-0.3l-1.8-0.3l-1.8-0.3l-1.8-0.3l-1.8-0.4l-1.8-0.4l-1.8-0.4l-1.8-0.5l-1.8-0.5l-1.8-0.5l-1.8-0.6l-1.8-0.6l-1.7-0.6l-1.7-0.6
		l-1.7-0.7l-1.7-0.7l-1.7-0.7l-1.7-0.8l-1.7-0.8l-1.7-0.8l-1.7-0.8l-1.6-0.9l-1.6-0.9l-1.6-0.9l-1.6-1l-1.6-1l-1.6-1l-1.5-1
		l-1.5-1.1l-1.5-1.1l-1.5-1.1l-1.5-1.2l-1.4-1.2l-1.4-1.2l-1.4-1.2l-1.4-1.3l-1.3-1.3l-1.3-1.3l-1.3-1.3l-1.3-1.3l-1.3-1.4l-1.2-1.4
		l-1.2-1.4l-1.2-1.4l-1.2-1.5l-1.1-1.5l-1.1-1.5l-1.1-1.5l-1-1.5l-1-1.5l-1-1.6l-1-1.6l-0.9-1.6l-0.9-1.6l-0.9-1.6l-0.9-1.6
		l-0.8-1.7l-0.8-1.7l-0.8-1.7l-0.7-1.7l-0.7-1.7l-0.7-1.7l-0.6-1.7l-0.6-1.8l-0.6-1.8l-0.5-1.8l-0.5-1.8l-0.5-1.8l-0.5-1.8l-0.4-1.8
		l-0.4-1.8l-0.4-1.8l-0.3-1.8l-0.3-1.8l-0.3-1.8l-0.2-1.8l-0.2-1.8l-0.2-1.8l-0.1-1.8l-0.1-1.8l-0.1-1.8l0-1.9l0-1.9l0-1.9l0-1.9
		l0.1-1.8l0.1-1.8l0.1-1.8l0.2-1.8l0.2-1.8l0.2-1.8l0.3-1.8l0.3-1.8l0.3-1.8l0.4-1.8l0.4-1.8l0.4-1.8l0.5-1.8l0.5-1.8l0.5-1.8
		l0.5-1.8l0.6-1.8l0.6-1.8l0.6-1.7l0.7-1.7l0.7-1.7l0.7-1.7l0.8-1.7l0.8-1.7l0.8-1.7l0.9-1.6l0.9-1.6l0.9-1.6l0.9-1.6l1-1.6l1-1.6
		l1-1.5l1-1.5l1.1-1.5l1.1-1.5l1.1-1.5l1.2-1.5l1.2-1.4l1.2-1.4l1.2-1.4l1.3-1.4l1.3-1.3l1.3-1.3l1.3-1.3l1.3-1.3l1.4-1.3l1.4-1.2
		l1.4-1.2l1.4-1.2l1.5-1.2l1.5-1.1l1.5-1.1L-61-87l1.5-1l1.5-1l1.6-1l1.6-1l1.6-0.9l1.6-0.9l1.6-0.9l1.6-0.9l1.7-0.8l1.7-0.8
		l1.7-0.8l1.7-0.7l1.7-0.7l1.7-0.7l1.7-0.7l1.7-0.6l1.8-0.6l1.8-0.6l1.8-0.5l1.8-0.5l1.8-0.5l1.8-0.4l1.8-0.4l1.8-0.4l1.8-0.3
		l1.8-0.3l1.8-0.3l1.8-0.3l1.8-0.2l1.8-0.2l1.9-0.2l1.9-0.1l1.9-0.1l1.9-0.1l1.9,0l1.9,0l1.9,0l1.9,0.1l1.9,0.1l1.9,0.1l1.8,0.2
		l1.8,0.2l1.8,0.2l1.8,0.3l1.8,0.3l1.8,0.3l1.8,0.4l1.8,0.4l1.8,0.4l1.8,0.5l1.8,0.5l1.8,0.5l1.8,0.6l1.8,0.6l1.7,0.6l1.7,0.7
		l1.7,0.7l1.7,0.7l1.7,0.7l1.7,0.8l1.7,0.8l1.7,0.8l1.6,0.9l1.6,0.9l1.6,0.9l1.6,0.9l1.6,1l1.6,1l1.5,1l1.5,1.1l1.5,1.1l1.5,1.1
		l1.5,1.1l1.4,1.2l1.4,1.2l1.4,1.2l1.4,1.2l1.4,1.3l1.3,1.3l1.3,1.3l1.3,1.3l1.3,1.3l1.3,1.4l1.2,1.4l1.2,1.4l1.2,1.4l1.2,1.5
		l1.1,1.5l1.1,1.5l1.1,1.5l1.1,1.5l1,1.5l1,1.6l1,1.6l0.9,1.6l0.9,1.6l0.9,1.6l0.9,1.6l0.8,1.7l0.8,1.7l0.8,1.7l0.7,1.7l0.7,1.7
		l0.7,1.7l0.7,1.7l0.6,1.7l0.6,1.8l0.6,1.8l0.5,1.8l0.5,1.8l0.5,1.8l0.4,1.8l0.4,1.8l0.4,1.8l0.3,1.8l0.3,1.8l0.3,1.8l0.2,1.8
		l0.2,1.8l0.2,1.8l0.1,1.9l0.1,1.9l0.1,1.9l0,1.9L106.2,0z"/>
	<path class="st1" d="M114.4,0l0,2l-0.1,2l-0.1,2L114,8l-0.2,2l-0.2,2l-0.3,2l-0.3,2l-0.3,2l-0.3,2l-0.4,2l-0.4,1.9l-0.4,1.9
		l-0.5,1.9l-0.5,1.9l-0.5,1.9l-0.6,1.9l-0.6,1.9l-0.6,1.9l-0.6,1.9l-0.7,1.9l-0.7,1.9l-0.7,1.9l-0.8,1.8l-0.8,1.8l-0.8,1.8l-0.9,1.8
		l-0.9,1.8l-0.9,1.8l-1,1.8l-1,1.7l-1,1.7l-1.1,1.7L95,64.1l-1.1,1.7l-1.2,1.6l-1.2,1.6l-1.2,1.6L89,72.1l-1.3,1.5l-1.3,1.5
		l-1.3,1.5l-1.4,1.5l-1.4,1.4L81,81l-1.4,1.4l-1.5,1.4l-1.5,1.3l-1.5,1.3l-1.5,1.3L72,88.9l-1.6,1.2l-1.6,1.2l-1.6,1.2l-1.6,1.2
		L64,94.8l-1.7,1.1L60.6,97l-1.7,1l-1.7,1l-1.7,1l-1.7,1L52,102l-1.8,0.9l-1.8,0.9l-1.8,0.8l-1.8,0.8l-1.8,0.8l-1.9,0.8l-1.9,0.7
		l-1.9,0.7l-1.9,0.7l-1.9,0.6l-1.9,0.6l-1.9,0.5l-1.9,0.5l-1.9,0.5l-2,0.4l-2,0.4l-2,0.4l-2,0.3l-2,0.3l-2,0.2l-2,0.2l-2,0.2l-2,0.1
		l-2,0.1l-2,0.1l-2,0l-2,0l-2,0l-2-0.1l-2-0.1l-2-0.2l-2-0.2l-2-0.2l-2-0.3l-2-0.3l-2-0.3l-2-0.3l-2-0.4l-1.9-0.4l-1.9-0.4l-1.9-0.5
		l-1.9-0.5l-1.9-0.5l-1.9-0.6l-1.9-0.6l-1.9-0.6l-1.9-0.6l-1.9-0.7l-1.9-0.7l-1.9-0.7l-1.8-0.8l-1.8-0.8l-1.8-0.8l-1.8-0.9l-1.8-0.9
		l-1.8-0.9l-1.8-1l-1.7-1l-1.7-1l-1.7-1.1l-1.7-1.1l-1.7-1.1l-1.6-1.1l-1.6-1.2l-1.6-1.2l-1.6-1.2l-1.5-1.3l-1.5-1.3l-1.5-1.3
		l-1.5-1.4l-1.4-1.4L-81,81l-1.4-1.4l-1.4-1.5l-1.3-1.5l-1.3-1.5l-1.3-1.5l-1.3-1.5l-1.2-1.6l-1.2-1.6l-1.2-1.6l-1.2-1.6L-95,64
		l-1.1-1.7l-1.1-1.7l-1-1.7l-1-1.7l-1-1.7l-1-1.8L-102,52l-0.9-1.8l-0.9-1.8l-0.8-1.8l-0.8-1.8l-0.8-1.9l-0.7-1.9l-0.7-1.9l-0.6-1.9
		l-0.6-1.9l-0.6-1.9l-0.5-1.9l-0.5-1.9l-0.5-1.9l-0.4-1.9l-0.4-2l-0.4-2l-0.3-2l-0.3-2l-0.3-2l-0.2-2l-0.2-2l-0.2-2l-0.1-2l-0.1-2
		l-0.1-2l-0.1-2l0-2l0-2l0-2l0.1-2l0.1-2l0.1-2l0.2-2l0.2-2l0.2-2l0.3-2l0.3-2l0.3-2l0.4-2l0.4-2l0.4-1.9l0.5-1.9l0.5-1.9l0.6-1.9
		l0.6-1.9l0.6-1.9l0.7-1.9l0.7-1.9l0.7-1.9l0.8-1.9l0.8-1.8l0.8-1.8l0.8-1.8l0.9-1.8l0.9-1.8l0.9-1.8l1-1.7l1-1.7l1-1.7l1.1-1.7
		l1.1-1.7l1.1-1.7l1.2-1.6l1.2-1.6l1.2-1.6l1.2-1.6l1.3-1.5l1.3-1.5l1.3-1.5l1.4-1.5l1.4-1.4L-81-81l1.4-1.4l1.5-1.4l1.5-1.3
		l1.5-1.3l1.5-1.3l1.5-1.3l1.6-1.2l1.6-1.2l1.6-1.2l1.6-1.2l1.7-1.1l1.7-1.1l1.7-1.1l1.7-1l1.7-1l1.7-1l1.8-1l1.8-0.9l1.8-0.9
		l1.8-0.9l1.8-0.8l1.8-0.8l1.8-0.8l1.9-0.7l1.9-0.7l1.9-0.7l1.9-0.6l1.9-0.6l1.9-0.6l1.9-0.6l1.9-0.5l1.9-0.5l1.9-0.5l2-0.4l2-0.4
		l2-0.3l2-0.3l2-0.3l2-0.2l2-0.2l2-0.2l2-0.1l2-0.1l2-0.1l2,0l2,0l2,0.1l2,0.1l2,0.1l2,0.2l2,0.2l2,0.2l2,0.3l2,0.3l2,0.3l2,0.4
		l2,0.4l2,0.4l1.9,0.5l1.9,0.5l1.9,0.5l1.9,0.6l1.9,0.6l1.9,0.6l1.9,0.7l1.9,0.7l1.9,0.7l1.8,0.8l1.8,0.8l1.8,0.8l1.8,0.9l1.8,0.9
		l1.8,0.9l1.8,1l1.7,1l1.7,1l1.7,1l1.7,1.1l1.7,1.1l1.6,1.1l1.6,1.2l1.6,1.2l1.6,1.2l1.6,1.3l1.5,1.3l1.5,1.3l1.5,1.3l1.5,1.4
		l1.4,1.4L81-81l1.4,1.4l1.4,1.5l1.3,1.5l1.3,1.5l1.3,1.5l1.3,1.5l1.2,1.6l1.2,1.6l1.2,1.6l1.2,1.6l1.1,1.6l1.1,1.7l1.1,1.7l1.1,1.7
		l1,1.7l1,1.7l1,1.8l0.9,1.8l0.9,1.8l0.9,1.8l0.8,1.8l0.8,1.8l0.8,1.8l0.7,1.9l0.7,1.9l0.7,1.9l0.6,1.9l0.6,1.9l0.6,1.9l0.5,1.9
		l0.5,1.9l0.5,1.9l0.4,2l0.4,2l0.4,2l0.3,2l0.3,2l0.2,2l0.2,2l0.2,2l0.1,2l0.1,2l0.1,2l0,2L114.4,0z"/>
	<path class="st1" d="M122.8,0l-0.1,2.1l-0.1,2.1l-0.2,2.1l-0.2,2.1l-0.2,2.1l-0.3,2.1l-0.3,2.1l-0.3,2.1l-0.4,2.1l-0.4,2.1
		l-0.4,2.1l-0.4,2.1l-0.5,2.1l-0.5,2.1l-0.5,2.1l-0.6,2.1l-0.6,2l-0.6,2l-0.6,2l-0.7,2l-0.7,2l-0.7,2l-0.8,2l-0.8,2l-0.8,2l-0.9,2
		l-0.9,1.9l-0.9,1.9l-1,1.9l-1,1.9l-1.1,1.9l-1.1,1.8l-1.1,1.8l-1.2,1.8l-1.2,1.8l-1.2,1.8L98.2,74l-1.3,1.7l-1.3,1.7l-1.4,1.7
		l-1.4,1.6l-1.4,1.6l-1.5,1.6l-1.5,1.5l-1.5,1.5l-1.5,1.5l-1.6,1.5l-1.6,1.4l-1.6,1.4L78.9,94l-1.7,1.3l-1.7,1.3L73.8,98l-1.7,1.3
		l-1.7,1.2l-1.8,1.2l-1.8,1.2L65,104l-1.8,1.1l-1.8,1.1l-1.9,1.1l-1.9,1l-1.9,1l-1.9,1l-1.9,1l-1.9,0.9l-2,0.9l-2,0.9l-2,0.8l-2,0.8
		l-2,0.8l-2,0.7l-2,0.7l-2.1,0.6l-2.1,0.6l-2.1,0.5l-2.1,0.5l-2.1,0.5l-2.1,0.4l-2.1,0.4l-2.1,0.3l-2.1,0.3l-2.1,0.2l-2.1,0.2
		l-2.1,0.2l-2.1,0.1l-2.1,0.1l-2.1,0l-2.1,0l-2.1,0l-2.1-0.1l-2.1-0.1l-2.1-0.2l-2.1-0.2l-2.1-0.2l-2.1-0.3l-2.1-0.3l-2.1-0.3
		l-2.1-0.4l-2.1-0.4l-2.1-0.4l-2.1-0.4l-2.1-0.5l-2.1-0.5l-2.1-0.5l-2.1-0.6l-2-0.6l-2-0.6l-2-0.7l-2-0.7l-2-0.7l-2-0.7l-2-0.8
		l-2-0.8l-2-0.8l-2-0.9l-1.9-0.9l-1.9-0.9l-1.9-1l-1.9-1l-1.9-1l-1.9-1.1l-1.8-1.1l-1.8-1.2l-1.8-1.2l-1.8-1.2l-1.7-1.3l-1.7-1.3
		l-1.7-1.3l-1.7-1.4l-1.6-1.4l-1.6-1.4L-84,90l-1.6-1.5L-87,87l-1.5-1.5l-1.5-1.6l-1.4-1.6l-1.4-1.6l-1.4-1.6l-1.4-1.7l-1.3-1.7
		l-1.3-1.7l-1.3-1.7l-1.2-1.8l-1.2-1.8l-1.2-1.8l-1.1-1.8l-1.1-1.8l-1.1-1.9l-1.1-1.9l-1-1.9l-1-1.9l-1-1.9l-0.9-1.9l-0.9-2l-0.8-2
		l-0.8-2l-0.8-2l-0.7-2l-0.7-2l-0.6-2l-0.6-2.1l-0.6-2.1l-0.5-2.1l-0.5-2.1l-0.5-2.1l-0.4-2.1l-0.4-2.1l-0.3-2.1l-0.3-2.1l-0.3-2.1
		l-0.2-2.1l-0.2-2.1l-0.2-2.1l-0.2-2.1l-0.1-2.1l-0.1-2.1l-0.1-2.1l0-2.1l0-2.1l0-2.1l0.1-2.1l0.1-2.1l0.1-2.1l0.2-2.1l0.2-2.1
		l0.2-2.1l0.3-2.1l0.3-2.1l0.4-2.1l0.4-2.1l0.4-2.1l0.5-2.1l0.5-2.1l0.5-2.1l0.6-2.1l0.6-2.1l0.7-2l0.7-2l0.7-2l0.8-2l0.8-2l0.8-2
		l0.9-2l0.9-1.9l0.9-1.9l1-1.9l1-1.9l1-1.9l1.1-1.9l1.1-1.8l1.1-1.8l1.2-1.8l1.2-1.8l1.2-1.8l1.3-1.7l1.3-1.7l1.3-1.7l1.4-1.7
		l1.4-1.6l1.4-1.6l1.5-1.6l1.5-1.6L-87-87l1.5-1.5l1.6-1.5l1.6-1.4l1.6-1.4l1.6-1.4l1.7-1.4l1.7-1.3l1.7-1.3l1.7-1.3l1.8-1.2
		l1.8-1.2l1.8-1.2l1.8-1.1l1.8-1.1l1.9-1.1l1.9-1l1.9-1l1.9-1l1.9-1l1.9-0.9l1.9-0.9l2-0.9l2-0.8l2-0.8l2-0.8l2-0.7l2-0.7l2-0.7
		l2-0.6l2.1-0.6l2.1-0.6l2.1-0.5l2.1-0.5l2.1-0.5l2.1-0.4l2.1-0.4l2.1-0.3l2.1-0.3l2.1-0.3l2.1-0.2l2.1-0.2l2.1-0.2l2.2-0.1l2.2-0.1
		l2.2,0l2.2,0l2.2,0.1l2.2,0.1l2.1,0.1l2.1,0.2l2.1,0.2l2.1,0.3l2.1,0.3l2.1,0.3l2.1,0.4l2.1,0.4l2.1,0.5l2.1,0.5l2.1,0.5l2.1,0.6
		l2.1,0.6l2.1,0.6l2,0.7l2,0.7l2,0.7l2,0.8l2,0.8l2,0.8l2,0.9l2,0.9l1.9,0.9l1.9,1l1.9,1l1.9,1l1.9,1.1l1.9,1.1l1.8,1.1l1.8,1.2
		l1.8,1.2l1.8,1.2l1.7,1.3l1.7,1.3l1.7,1.3l1.7,1.4l1.6,1.4l1.6,1.4l1.6,1.4l1.6,1.5l1.5,1.5L87-87l1.5,1.5l1.5,1.6l1.4,1.6l1.4,1.6
		l1.4,1.6l1.4,1.7l1.3,1.7l1.3,1.7l1.3,1.7l1.3,1.7l1.2,1.8l1.2,1.8l1.2,1.8l1.1,1.8l1.1,1.8l1.1,1.9l1,1.9l1,1.9l1,1.9l0.9,1.9
		l0.9,1.9l0.9,2l0.8,2l0.8,2l0.8,2l0.7,2l0.7,2l0.7,2l0.6,2.1l0.6,2.1l0.5,2.1l0.5,2.1l0.5,2.1l0.4,2.1l0.4,2.1l0.3,2.1l0.3,2.1
		l0.2,2.1l0.2,2.1l0.2,2.1l0.1,2.1l0.1,2.1l0,2.1l0,2.1L122.8,0z"/>
	<path class="st2" d="M131.4,0l-0.1,2.3l-0.2,2.3l-0.2,2.3l-0.2,2.3l-0.3,2.3l-0.3,2.3l-0.3,2.3l-0.4,2.3l-0.4,2.2l-0.4,2.2
		l-0.5,2.2l-0.5,2.2l-0.5,2.2l-0.5,2.2l-0.6,2.2l-0.6,2.2l-0.6,2.2l-0.6,2.2l-0.7,2.2l-0.7,2.2l-0.7,2.2l-0.8,2.2l-0.8,2.1l-0.8,2.1
		l-0.9,2.1l-0.9,2.1l-0.9,2.1l-1,2.1l-1,2.1l-1.1,2l-1.1,2l-1.1,2l-1.2,2l-1.2,1.9l-1.3,1.9l-1.3,1.9l-1.4,1.9l-1.4,1.8l-1.4,1.8
		l-1.5,1.8l-1.5,1.7l-1.5,1.7l-1.6,1.7l-1.6,1.6L93,93l-1.7,1.6l-1.7,1.5l-1.7,1.5l-1.7,1.5l-1.8,1.5l-1.8,1.4l-1.8,1.4l-1.8,1.4
		l-1.9,1.3l-1.9,1.3l-1.9,1.3l-1.9,1.3l-1.9,1.2l-1.9,1.2l-2,1.2l-2,1.2l-2,1.1l-2,1.1l-2,1.1l-2,1l-2.1,1l-2.1,1l-2.1,0.9l-2.1,0.9
		l-2.1,0.9l-2.1,0.8l-2.2,0.8l-2.2,0.7l-2.2,0.7l-2.2,0.6l-2.2,0.6l-2.2,0.5l-2.3,0.5l-2.3,0.4l-2.3,0.4l-2.3,0.3l-2.3,0.3l-2.3,0.2
		l-2.3,0.2l-2.3,0.1l-2.3,0.1l-2.3,0.1l-2.3,0l-2.3,0L0,131.4l-2.3-0.1l-2.3-0.2l-2.3-0.2l-2.3-0.2l-2.3-0.3l-2.3-0.3l-2.3-0.3
		l-2.3-0.4l-2.2-0.4l-2.2-0.4l-2.2-0.5l-2.2-0.5l-2.2-0.5l-2.2-0.5l-2.2-0.6l-2.2-0.6l-2.2-0.6l-2.2-0.7l-2.2-0.7l-2.2-0.7l-2.2-0.7
		l-2.1-0.8l-2.1-0.8l-2.1-0.8l-2.1-0.9l-2.1-0.9l-2.1-0.9l-2.1-1l-2.1-1l-2-1l-2-1.1l-2-1.1l-2-1.2l-2-1.2l-1.9-1.3l-1.9-1.3
		l-1.9-1.3l-1.8-1.4l-1.8-1.4l-1.8-1.5l-1.8-1.5l-1.7-1.5l-1.7-1.6l-1.7-1.6l-1.6-1.6l-1.6-1.7l-1.6-1.7l-1.5-1.7l-1.5-1.7l-1.5-1.8
		l-1.4-1.8l-1.4-1.8l-1.4-1.8l-1.4-1.9l-1.3-1.9l-1.3-1.9l-1.3-1.9l-1.2-1.9l-1.2-2l-1.2-2l-1.1-2l-1.1-2l-1.1-2l-1-2.1l-1-2.1
		l-0.9-2.1l-0.9-2.1l-0.8-2.1l-0.8-2.2l-0.8-2.2l-0.7-2.2l-0.7-2.2l-0.6-2.2l-0.6-2.2l-0.5-2.2l-0.5-2.2l-0.5-2.2l-0.4-2.2l-0.4-2.3
		l-0.3-2.3l-0.3-2.3l-0.3-2.3l-0.2-2.3l-0.2-2.3l-0.2-2.3l-0.1-2.3l-0.1-2.3l-0.1-2.3l-0.1-2.3l0-2.3l0-2.3l0-2.3l0.1-2.3l0.1-2.3
		l0.1-2.3l0.2-2.3l0.2-2.3l0.2-2.3l0.3-2.3l0.3-2.3l0.4-2.3l0.4-2.2l0.4-2.2l0.5-2.2l0.5-2.2l0.6-2.2l0.6-2.2l0.6-2.2l0.7-2.2
		l0.7-2.2l0.8-2.2l0.8-2.1l0.8-2.1l0.9-2.1l0.9-2.1l1-2.1l1-2.1l1-2.1l1.1-2l1.1-2l1.1-2l1.2-2l1.2-2l1.2-1.9l1.3-1.9l1.3-1.9
		l1.4-1.9l1.4-1.8l1.4-1.8l1.5-1.8l1.5-1.7l1.5-1.7l1.6-1.7l1.6-1.7l1.6-1.6l1.7-1.6l1.7-1.6l1.7-1.5l1.7-1.5l1.8-1.5l1.8-1.4
		l1.8-1.4l1.8-1.4l1.9-1.3l1.9-1.3l1.9-1.3l1.9-1.2l1.9-1.2l2-1.2l2-1.1l2-1.1l2-1.1l2-1.1l2.1-1l2.1-1l2.1-1l2.1-0.9l2.1-0.9
		l2.1-0.9l2.1-0.8l2.2-0.8l2.2-0.8l2.2-0.7l2.2-0.7l2.2-0.7l2.2-0.6l2.2-0.6l2.2-0.6l2.2-0.5l2.3-0.5l2.3-0.4l2.3-0.4l2.3-0.4
		l2.3-0.3l2.3-0.3l2.3-0.2l2.3-0.2l2.3-0.1l2.3-0.1l2.3,0l2.3,0l2.3,0.1l2.3,0.1l2.3,0.2l2.3,0.2l2.3,0.2l2.3,0.3l2.3,0.3l2.3,0.4
		l2.3,0.4l2.3,0.5l2.3,0.5l2.2,0.5l2.2,0.6l2.2,0.6l2.2,0.6l2.2,0.7l2.2,0.7l2.2,0.7l2.2,0.8l2.2,0.8l2.1,0.8l2.1,0.9l2.1,0.9
		l2.1,0.9l2.1,1l2.1,1l2,1.1l2,1.1l2,1.1l2,1.2l2,1.2l1.9,1.2l1.9,1.3l1.9,1.3l1.9,1.4l1.8,1.4l1.8,1.4l1.8,1.5l1.8,1.5l1.7,1.5
		l1.7,1.6l1.7,1.6l1.6,1.6l1.6,1.6l1.6,1.7l1.6,1.7l1.5,1.7l1.5,1.7l1.5,1.8l1.5,1.8l1.4,1.8l1.4,1.8l1.4,1.8l1.3,1.9l1.3,1.9
		l1.3,1.9l1.3,1.9l1.2,1.9l1.2,2l1.2,2l1.1,2l1.1,2l1.1,2l1,2.1l1,2.1l1,2.1l0.9,2.1l0.9,2.1l0.8,2.1L125-43l0.8,2.2l0.7,2.2
		l0.7,2.2l0.6,2.2l0.6,2.2l0.5,2.2l0.5,2.3l0.4,2.3l0.4,2.3l0.3,2.3l0.3,2.3l0.2,2.3l0.2,2.3l0.1,2.3l0.1,2.3l0.1,2.3l0,2.3l0,2.3
		L131.4,0z"/>
	<path class="st1" d="M140.3,0l-0.2,2.4l-0.2,2.4l-0.3,2.4l-0.3,2.4l-0.3,2.4l-0.4,2.4l-0.4,2.4l-0.4,2.4l-0.5,2.4l-0.5,2.4
		l-0.5,2.4l-0.5,2.4l-0.6,2.4l-0.6,2.3l-0.6,2.3l-0.6,2.3l-0.6,2.3l-0.7,2.3l-0.7,2.3l-0.7,2.3l-0.7,2.3l-0.8,2.3l-0.8,2.3l-0.8,2.3
		l-0.9,2.3l-0.9,2.3l-0.9,2.3l-1,2.2l-1,2.2l-1.1,2.2l-1.1,2.2l-1.2,2.1l-1.2,2.1l-1.3,2.1l-1.3,2.1l-1.4,2l-1.4,2l-1.5,2l-1.5,1.9
		l-1.6,1.9l-1.6,1.8l-1.7,1.8l-1.7,1.8l-1.7,1.7l-1.8,1.7l-1.8,1.7l-1.8,1.6l-1.9,1.6l-1.9,1.6l-1.9,1.5l-1.9,1.5l-1.9,1.5l-2,1.4
		l-2,1.4l-2,1.4l-2,1.4l-2,1.4l-2,1.3l-2.1,1.3l-2.1,1.3l-2.1,1.3l-2.1,1.2l-2.1,1.2l-2.1,1.2l-2.2,1.2l-2.2,1.1l-2.2,1.1l-2.2,1.1
		l-2.2,1l-2.3,1l-2.3,0.9l-2.3,0.9l-2.3,0.8L39,136l-2.4,0.7l-2.4,0.7l-2.4,0.6l-2.4,0.5L27,139l-2.4,0.4l-2.4,0.3l-2.5,0.3
		l-2.5,0.2l-2.5,0.2l-2.5,0.1l-2.5,0.1l-2.5,0l-2.5,0l-2.5-0.1L0,140.3l-2.4-0.2l-2.4-0.2l-2.4-0.3l-2.4-0.3l-2.4-0.3l-2.4-0.4
		l-2.4-0.4l-2.4-0.4l-2.4-0.5l-2.4-0.5l-2.4-0.5l-2.4-0.5l-2.4-0.6l-2.3-0.6l-2.3-0.6l-2.3-0.6l-2.3-0.6l-2.3-0.7l-2.3-0.7l-2.3-0.7
		l-2.3-0.7l-2.3-0.8l-2.3-0.8l-2.3-0.8l-2.3-0.9l-2.3-0.9l-2.3-0.9l-2.2-1l-2.2-1l-2.2-1.1l-2.2-1.1l-2.2-1.2l-2.1-1.2l-2.1-1.3
		l-2.1-1.3l-2.1-1.4l-2-1.4l-2-1.5l-1.9-1.5l-1.9-1.6l-1.9-1.6l-1.8-1.6l-1.8-1.7l-1.8-1.7l-1.7-1.8l-1.7-1.8l-1.7-1.8l-1.6-1.8
		l-1.6-1.9l-1.6-1.9l-1.5-1.9l-1.5-1.9l-1.5-2l-1.4-2l-1.4-2l-1.4-2l-1.3-2.1l-1.3-2.1l-1.3-2.1l-1.2-2.1l-1.2-2.1l-1.2-2.2
		l-1.1-2.2l-1.1-2.2l-1-2.2l-1-2.2l-0.9-2.3l-0.9-2.3l-0.8-2.3l-0.8-2.3l-0.7-2.3l-0.7-2.4l-0.6-2.4l-0.6-2.4l-0.5-2.4l-0.5-2.4
		l-0.4-2.4l-0.4-2.4l-0.4-2.4l-0.3-2.4l-0.3-2.4l-0.3-2.4l-0.2-2.4l-0.2-2.4l-0.2-2.4l-0.1-2.4l-0.1-2.4l-0.1-2.4l-0.1-2.4l0-2.4
		l0-2.4l0-2.4l0.1-2.4l0.1-2.4l0.1-2.4l0.2-2.4l0.2-2.4l0.2-2.4l0.3-2.4l0.3-2.4l0.3-2.4l0.4-2.4l0.4-2.4l0.5-2.4l0.5-2.4l0.6-2.4
		l0.6-2.4l0.7-2.4l0.7-2.3l0.7-2.3l0.8-2.3l0.8-2.3l0.9-2.3l0.9-2.3l1-2.3l1-2.2l1-2.2l1.1-2.2l1.1-2.2l1.2-2.2l1.2-2.1l1.2-2.1
		l1.3-2.1l1.3-2.1l1.4-2.1l1.4-2l1.4-2l1.5-2l1.5-1.9l1.6-1.9l1.6-1.9l1.6-1.8l1.7-1.8l1.7-1.8l1.7-1.7l1.8-1.7l1.8-1.7l1.8-1.6
		l1.9-1.6l1.9-1.6l1.9-1.5l2-1.5l2-1.5l2-1.4l2-1.4l2.1-1.3l2.1-1.3l2.1-1.3l2.1-1.2l2.1-1.2l2.1-1.2l2.2-1.2l2.2-1.1l2.2-1.1
		l2.2-1.1l2.2-1l2.2-1l2.3-1l2.3-0.9l2.3-0.9l2.3-0.9l2.3-0.8l2.3-0.8l2.3-0.8l2.3-0.7l2.4-0.7l2.4-0.7l2.4-0.6l2.4-0.6l2.4-0.5
		l2.4-0.5l2.4-0.5l2.4-0.4l2.4-0.4l2.5-0.3l2.5-0.3l2.5-0.2l2.5-0.2l2.5-0.1l2.5,0l2.5,0L5-142l2.5,0.1l2.5,0.2l2.5,0.2l2.5,0.3
		l2.5,0.3l2.4,0.4l2.4,0.4l2.4,0.5l2.4,0.5l2.4,0.6l2.4,0.6l2.4,0.6l2.4,0.7l2.4,0.7l2.4,0.7l2.3,0.8l2.3,0.8l2.3,0.8l2.3,0.9
		l2.3,0.9l2.3,0.9l2.3,1l2.3,1l2.2,1l2.2,1.1l2.2,1.1l2.2,1.2l2.2,1.2l2.1,1.2l2.1,1.3l2.1,1.3l2,1.4l2,1.4l2,1.5l2,1.5l1.9,1.5
		l1.9,1.6l1.9,1.6l1.8,1.6l1.8,1.7l1.8,1.7l1.7,1.7l1.7,1.8l1.7,1.8L103-96l1.6,1.8l1.6,1.9l1.6,1.9l1.5,1.9l1.5,1.9l1.5,1.9l1.5,2
		l1.4,2l1.4,2l1.4,2l1.4,2l1.3,2.1l1.3,2.1l1.3,2.1l1.2,2.1l1.2,2.2l1.2,2.2l1.1,2.2l1.1,2.2l1,2.2l1,2.3l1,2.3l0.9,2.3l0.9,2.3
		l0.8,2.3l0.8,2.3l0.7,2.4l0.7,2.4l0.6,2.4l0.6,2.4l0.5,2.4L139-27l0.4,2.4l0.3,2.4l0.3,2.5l0.2,2.5l0.2,2.5l0.1,2.5l0.1,2.5l0,2.5
		l0,2.5l-0.1,2.5L140.3,0z"/>
	<path class="st1" d="M149.7,0l-0.3,2.6l-0.3,2.6l-0.4,2.6l-0.4,2.6l-0.5,2.6l-0.5,2.6l-0.5,2.5l-0.5,2.5l-0.6,2.5l-0.6,2.5
		l-0.6,2.5l-0.6,2.5l-0.6,2.5l-0.6,2.5l-0.6,2.5l-0.7,2.5l-0.7,2.5l-0.7,2.5l-0.7,2.5l-0.7,2.5l-0.7,2.5l-0.7,2.5l-0.8,2.5l-0.8,2.5
		l-0.8,2.5l-0.9,2.5l-0.9,2.4l-1,2.4l-1,2.4l-1.1,2.4l-1.2,2.4l-1.2,2.3l-1.3,2.3l-1.3,2.3l-1.4,2.2l-1.5,2.2l-1.5,2.1l-1.6,2.1
		l-1.7,2l-1.7,2l-1.8,2l-1.8,1.9l-1.8,1.9l-1.9,1.8l-1.9,1.8l-2,1.7l-2,1.7l-2,1.7l-2,1.6l-2.1,1.6l-2.1,1.6l-2.1,1.5l-2.1,1.5
		l-2.1,1.5l-2.1,1.5l-2.2,1.5l-2.2,1.4l-2.2,1.4l-2.2,1.4l-2.2,1.4l-2.2,1.4l-2.2,1.4l-2.2,1.3l-2.3,1.3l-2.3,1.3l-2.3,1.3l-2.3,1.2
		l-2.4,1.2l-2.4,1.1l-2.4,1.1l-2.4,1l-2.5,1l-2.5,0.9l-2.5,0.9l-2.5,0.8l-2.6,0.7l-2.6,0.6l-2.6,0.6L29,149l-2.6,0.4l-2.6,0.3
		l-2.6,0.3l-2.6,0.2l-2.6,0.1l-2.6,0.1l-2.6,0l-2.6-0.1l-2.6-0.1L2.6,150L0,149.7l-2.6-0.3l-2.6-0.3l-2.6-0.4l-2.6-0.4l-2.6-0.5
		l-2.6-0.5l-2.5-0.5l-2.5-0.5l-2.5-0.6l-2.5-0.6l-2.5-0.6l-2.5-0.6l-2.5-0.6l-2.5-0.6L-38,142l-2.5-0.7l-2.5-0.7l-2.5-0.7l-2.5-0.7
		l-2.5-0.7l-2.5-0.7l-2.5-0.8l-2.5-0.8l-2.5-0.8l-2.5-0.8l-2.5-0.9l-2.4-0.9l-2.4-1l-2.4-1l-2.4-1.1l-2.4-1.1l-2.4-1.2l-2.3-1.2
		l-2.3-1.3l-2.3-1.4l-2.2-1.4l-2.2-1.5l-2.1-1.5l-2.1-1.6l-2.1-1.7l-2-1.7l-2-1.8l-1.9-1.8l-1.9-1.8l-1.8-1.9l-1.8-1.9l-1.8-2
		l-1.7-2l-1.7-2l-1.7-2l-1.6-2.1l-1.6-2.1l-1.6-2.1l-1.5-2.1l-1.5-2.2l-1.5-2.2l-1.4-2.2l-1.4-2.2l-1.4-2.2l-1.3-2.3l-1.3-2.3
		l-1.2-2.3l-1.2-2.3l-1.1-2.4l-1.1-2.4l-1-2.4l-1-2.4l-0.9-2.5l-0.8-2.5l-0.8-2.5l-0.7-2.5l-0.7-2.5l-0.6-2.5l-0.5-2.6l-0.5-2.6
		l-0.4-2.6l-0.4-2.6l-0.4-2.6l-0.3-2.6l-0.3-2.6l-0.3-2.6l-0.2-2.6l-0.2-2.6l-0.2-2.6l-0.1-2.6l-0.1-2.6l-0.1-2.6l-0.1-2.6l-0.1-2.6
		l0-2.6l0-2.6l0-2.6l0-2.6l0.1-2.6l0.1-2.6l0.1-2.6l0.2-2.6l0.2-2.6l0.2-2.6l0.3-2.6l0.3-2.6l0.4-2.6l0.4-2.6l0.5-2.6l0.5-2.5
		l0.6-2.5l0.6-2.5l0.7-2.5l0.7-2.5l0.8-2.5l0.8-2.5l0.8-2.5l0.9-2.5l0.9-2.4l1-2.4l1-2.4l1.1-2.4l1.1-2.4l1.2-2.4l1.2-2.3l1.3-2.3
		l1.3-2.3l1.3-2.3l1.4-2.2l1.4-2.2l1.5-2.2l1.5-2.1l1.6-2.1l1.6-2.1l1.7-2l1.7-2l1.8-2l1.8-1.9l1.8-1.9l1.9-1.8l1.9-1.8l2-1.8l2-1.7
		l2-1.7l2.1-1.6l2.1-1.6l2.1-1.6l2.1-1.5l2.2-1.5l2.2-1.5l2.2-1.4l2.2-1.4l2.2-1.3l2.3-1.3l2.3-1.3l2.3-1.3l2.3-1.2l2.3-1.2l2.3-1.2
		l2.4-1.1l2.4-1.1l2.4-1.1l2.4-1.1l2.4-1l2.4-1l2.4-1l2.5-0.9l2.5-0.9l2.5-0.9l2.5-0.8l2.5-0.8l2.5-0.8l2.5-0.7l2.6-0.7l2.6-0.6
		l2.6-0.6l2.6-0.5l2.6-0.5l2.6-0.4l2.6-0.4l2.6-0.3l2.6-0.3l2.7-0.2l2.7-0.1l2.7-0.1l2.7,0l2.7,0.1l2.7,0.1l2.7,0.2l2.7,0.3l2.6,0.3
		l2.6,0.4l2.6,0.4l2.6,0.5l2.6,0.5l2.6,0.6l2.6,0.6l2.6,0.7l2.6,0.7l2.5,0.7l2.5,0.8l2.5,0.8l2.5,0.8l2.5,0.9l2.5,0.9l2.5,0.9l2.5,1
		l2.4,1l2.4,1l2.4,1.1l2.4,1.1l2.4,1.1l2.4,1.2l2.3,1.2l2.3,1.3l2.3,1.3l2.3,1.4l2.2,1.4l2.2,1.5l2.2,1.5l2.1,1.6l2.1,1.6l2,1.7
		l2,1.7l2,1.7l1.9,1.8l1.9,1.8l1.9,1.8l1.8,1.9l1.8,1.9l1.8,1.9l1.8,2l1.7,2l1.7,2l1.7,2l1.6,2l1.6,2.1l1.6,2.1l1.6,2.1l1.5,2.1
		l1.5,2.1l1.5,2.2l1.5,2.2l1.4,2.2l1.4,2.2l1.4,2.2l1.4,2.3l1.3,2.3l1.3,2.3l1.2,2.3l1.2,2.4l1.2,2.4l1.1,2.4l1.1,2.4l1,2.4l1,2.5
		l0.9,2.5l0.8,2.5l0.8,2.5l0.7,2.6l0.7,2.6l0.6,2.6l0.5,2.6L149-29l0.4,2.6l0.3,2.6l0.3,2.6l0.2,2.6l0.1,2.6l0.1,2.6l0,2.6l-0.1,2.6
		l-0.1,2.6L150-2.6L149.7,0z"/>
	<path class="st1" d="M159.9,0l-0.5,2.8l-0.5,2.8l-0.5,2.8l-0.6,2.7l-0.6,2.7l-0.6,2.7l-0.7,2.7l-0.7,2.7l-0.7,2.7l-0.7,2.6
		l-0.7,2.6l-0.7,2.6l-0.7,2.6l-0.7,2.6l-0.7,2.6l-0.7,2.6l-0.7,2.6l-0.7,2.6l-0.7,2.7l-0.7,2.7l-0.7,2.7l-0.7,2.7l-0.7,2.7l-0.7,2.7
		l-0.8,2.7l-0.8,2.7l-0.9,2.7l-0.9,2.6l-1,2.6l-1.1,2.6l-1.1,2.6l-1.2,2.5l-1.3,2.5l-1.4,2.5l-1.5,2.4l-1.6,2.4l-1.6,2.3l-1.7,2.2
		l-1.8,2.2l-1.8,2.1l-1.9,2.1l-2,2l-2,2l-2.1,1.9l-2.1,1.9l-2.1,1.8l-2.2,1.8l-2.2,1.7l-2.2,1.7l-2.2,1.7l-2.3,1.6l-2.3,1.6
		l-2.3,1.6l-2.3,1.6l-2.3,1.6l-2.3,1.6l-2.3,1.5l-2.3,1.5l-2.3,1.5l-2.3,1.5l-2.3,1.5L75,141l-2.4,1.5l-2.4,1.5l-2.4,1.5l-2.4,1.4
		l-2.5,1.4l-2.5,1.4L58,151l-2.5,1.3l-2.6,1.2l-2.6,1.1l-2.6,1.1l-2.7,1l-2.7,0.9l-2.7,0.8l-2.8,0.7l-2.8,0.6l-2.8,0.5l-2.8,0.4
		l-2.8,0.3l-2.8,0.2l-2.8,0.1l-2.8,0l-2.8,0l-2.8-0.1l-2.8-0.2l-2.8-0.3l-2.8-0.3L0,159.9l-2.8-0.5l-2.8-0.5l-2.8-0.5l-2.7-0.6
		l-2.7-0.6l-2.7-0.6l-2.7-0.7l-2.7-0.7l-2.7-0.7l-2.6-0.7l-2.6-0.7l-2.6-0.7l-2.6-0.7l-2.6-0.7l-2.6-0.7l-2.6-0.7l-2.6-0.7l-2.6-0.7
		l-2.6-0.7l-2.7-0.7l-2.7-0.7l-2.7-0.7l-2.7-0.7l-2.7-0.7l-2.7-0.8l-2.7-0.8l-2.7-0.9l-2.7-0.9l-2.6-1l-2.6-1l-2.6-1.1l-2.6-1.2
		l-2.5-1.2l-2.5-1.3l-2.5-1.4l-2.4-1.5l-2.4-1.6l-2.3-1.6l-2.3-1.7l-2.2-1.8l-2.2-1.8l-2.1-1.9l-2.1-1.9l-2-2l-2-2l-1.9-2.1
		l-1.9-2.1l-1.8-2.2l-1.8-2.2l-1.7-2.2l-1.7-2.2l-1.7-2.3l-1.6-2.3l-1.6-2.3l-1.6-2.3l-1.5-2.4l-1.5-2.4l-1.5-2.4l-1.4-2.4l-1.4-2.4
		l-1.4-2.5l-1.3-2.5l-1.3-2.5l-1.2-2.5l-1.1-2.6l-1.1-2.6l-1-2.6l-0.9-2.6l-0.8-2.7l-0.8-2.7l-0.7-2.7l-0.6-2.7l-0.6-2.7l-0.5-2.7
		L-153,41l-0.4-2.8l-0.3-2.8l-0.3-2.8l-0.2-2.8l-0.2-2.7l-0.2-2.7l-0.2-2.7l-0.1-2.7l-0.1-2.7l-0.1-2.7l-0.1-2.7l-0.1-2.7l-0.1-2.7
		l-0.1-2.7l0-2.7l0-2.7l0-2.7l0-2.7l0-2.7l0-2.7l0.1-2.7l0.1-2.7l0.1-2.7l0.2-2.7l0.2-2.7l0.3-2.7l0.3-2.7l0.4-2.7l0.4-2.7l0.5-2.7
		l0.5-2.7l0.6-2.7l0.6-2.7l0.7-2.7l0.7-2.7l0.8-2.7l0.8-2.7l0.9-2.6l0.9-2.6l1-2.6l1-2.6l1.1-2.6l1.1-2.6l1.2-2.5l1.2-2.5l1.3-2.5
		l1.4-2.5l1.4-2.4l1.5-2.4l1.5-2.4l1.6-2.3l1.6-2.3l1.7-2.3l1.7-2.2l1.8-2.2l1.8-2.1l1.9-2.1l1.9-2.1l2-2l2-2l2.1-1.9l2.1-1.9
		l2.2-1.8l2.2-1.8l2.2-1.7l2.3-1.7l2.3-1.6l2.3-1.6l2.3-1.6l2.4-1.5l2.4-1.5l2.4-1.4l2.4-1.4l2.4-1.4l2.4-1.4l2.5-1.3l2.5-1.3
		l2.5-1.3l2.5-1.2l2.5-1.2l2.5-1.2l2.5-1.2l2.5-1.2l2.6-1.1l2.6-1.1l2.6-1.1l2.6-1.1l2.6-1l2.6-1l2.7-1l2.7-0.9l2.7-0.9l2.7-0.9
		l2.7-0.8l2.7-0.8l2.8-0.7l2.8-0.7l2.8-0.6l2.8-0.5l2.8-0.5l2.8-0.4l2.8-0.3l2.9-0.2l2.9-0.2l2.9-0.1l2.9,0l2.9,0.1l2.9,0.1l2.9,0.2
		l2.9,0.3l2.8,0.4l2.8,0.4l2.8,0.5l2.8,0.6l2.8,0.6l2.8,0.7l2.8,0.7l2.7,0.8l2.7,0.8l2.7,0.8l2.7,0.9l2.7,0.9l2.7,0.9l2.7,1l2.7,1
		l2.6,1l2.6,1l2.6,1.1l2.6,1.1l2.6,1.1l2.6,1.2l2.6,1.2l2.5,1.3l2.5,1.3l2.5,1.4l2.5,1.4l2.4,1.5l2.4,1.6l2.3,1.6l2.3,1.7l2.3,1.7
		l2.2,1.8l2.2,1.8l2.1,1.9l2.1,1.9l2.1,1.9l2,2l2,2l1.9,2l1.9,2.1l1.9,2.1l1.9,2.1l1.8,2.1l1.8,2.2l1.8,2.2l1.7,2.2l1.7,2.2l1.7,2.2
		l1.7,2.2l1.7,2.3l1.6,2.3l1.6,2.3l1.6,2.3l1.6,2.3l1.6,2.4l1.5,2.4l1.5,2.4l1.5,2.4l1.4,2.4l1.4,2.5l1.3,2.5l1.3,2.5l1.2,2.6
		l1.2,2.6l1.1,2.6l1.1,2.6l1,2.7l0.9,2.7L157-45l0.8,2.7l0.7,2.8l0.6,2.8l0.5,2.8l0.5,2.8l0.4,2.8l0.3,2.8l0.2,2.8l0.1,2.8l0,2.8
		l0,2.8l-0.1,2.8l-0.2,2.8l-0.3,2.8l-0.3,2.8L159.9,0z"/>
	<path class="st2" d="M171,0l-0.7,3l-0.7,2.9l-0.8,2.9l-0.8,2.9l-0.8,2.9l-0.9,2.9l-0.9,2.8l-0.9,2.8l-0.9,2.8l-0.9,2.8l-0.8,2.8
		l-0.8,2.8l-0.8,2.8l-0.8,2.8l-0.7,2.8l-0.7,2.8l-0.7,2.8l-0.6,2.8l-0.6,2.8l-0.6,2.9l-0.6,2.9l-0.6,2.9l-0.6,2.9l-0.6,2.9l-0.7,2.9
		l-0.7,2.9l-0.8,2.9l-0.8,2.9l-0.9,2.9l-1,2.9l-1.1,2.8l-1.2,2.8l-1.3,2.7l-1.4,2.7l-1.5,2.6l-1.6,2.6l-1.7,2.5l-1.8,2.4l-1.9,2.3
		l-2,2.3l-2.1,2.2l-2.2,2.1l-2.2,2.1l-2.3,2l-2.3,1.9l-2.4,1.9l-2.4,1.8l-2.4,1.8l-2.4,1.8l-2.5,1.7l-2.5,1.7l-2.5,1.7l-2.5,1.7
		l-2.5,1.7l-2.5,1.6l-2.5,1.7l-2.5,1.7L90,144l-2.4,1.7l-2.4,1.7l-2.5,1.7l-2.5,1.7l-2.5,1.7l-2.5,1.7l-2.5,1.7l-2.5,1.7l-2.6,1.6
		l-2.6,1.6l-2.6,1.5l-2.7,1.5l-2.7,1.4l-2.8,1.3l-2.8,1.2l-2.9,1.1l-2.9,1l-2.9,0.9l-3,0.8l-3,0.6l-3,0.5l-3,0.4l-3.1,0.3l-3.1,0.1
		l-3.1,0l-3.1-0.1l-3.1-0.2l-3.1-0.3L9,172.6l-3-0.5l-3-0.5L0,171l-3-0.7l-2.9-0.7l-2.9-0.8l-2.9-0.8l-2.9-0.8l-2.9-0.9l-2.8-0.9
		l-2.8-0.9l-2.8-0.9l-2.8-0.9l-2.8-0.8l-2.8-0.8l-2.8-0.8l-2.8-0.8l-2.8-0.7l-2.8-0.7l-2.8-0.7l-2.8-0.6l-2.8-0.6l-2.8-0.6l-2.9-0.6
		l-2.9-0.6l-2.9-0.6l-2.9-0.6l-2.9-0.7l-2.9-0.7L-77,151l-2.9-0.8l-2.9-0.9l-2.9-0.9l-2.9-1l-2.8-1.1l-2.8-1.2l-2.8-1.3l-2.7-1.4
		l-2.7-1.5l-2.6-1.6l-2.5-1.7l-2.5-1.8l-2.4-1.9l-2.3-2l-2.3-2l-2.2-2.1l-2.1-2.2l-2.1-2.2l-2-2.3l-2-2.3l-1.9-2.4l-1.9-2.4
		l-1.8-2.4l-1.8-2.4l-1.8-2.5l-1.7-2.5l-1.7-2.5l-1.7-2.5l-1.6-2.5l-1.6-2.6l-1.6-2.6l-1.5-2.6l-1.5-2.6l-1.5-2.6l-1.4-2.7l-1.3-2.7
		l-1.3-2.7l-1.2-2.8l-1.1-2.8l-1-2.8l-0.9-2.9l-0.8-2.9l-0.7-2.9l-0.6-2.9l-0.5-3l-0.5-3l-0.4-3l-0.3-3l-0.2-3l-0.2-3l-0.1-3l-0.1-3
		l-0.1-2.9l-0.1-2.9l0-2.9l0-2.9l0-2.9l0-2.9l0-2.9l0-2.9l0-2.9l0-2.9l0-2.9l-0.1-2.9l-0.1-2.9l-0.1-2.9l0-2.9l0-2.9l0-2.9l0-2.9
		l0-2.9l0.1-2.9l0.1-2.9l0.1-2.9l0.2-2.9l0.3-2.9l0.3-2.9l0.4-2.9l0.5-2.9l0.5-2.9l0.6-2.9l0.6-2.9l0.7-2.9l0.8-2.9l0.8-2.9l0.9-2.9
		l0.9-2.9l1-2.8l1-2.8l1.1-2.8l1.2-2.8l1.2-2.8l1.3-2.7l1.3-2.7l1.4-2.7l1.5-2.7l1.5-2.6l1.6-2.6l1.7-2.5l1.7-2.5l1.8-2.5l1.9-2.4
		l1.9-2.4l2-2.3l2-2.3l2.1-2.2l2.2-2.1l2.2-2.1l2.3-2l2.3-2l2.4-1.9l2.4-1.9l2.4-1.8l2.5-1.8l2.5-1.7l2.5-1.7l2.5-1.6l2.6-1.6
		l2.6-1.5l2.6-1.5l2.6-1.5l2.6-1.4l2.6-1.4l2.6-1.4l2.7-1.4l2.7-1.3l2.7-1.3l2.7-1.3l2.7-1.3l2.7-1.3l2.7-1.3l2.7-1.3l2.7-1.2
		l2.7-1.2l2.8-1.2l2.8-1.2l2.8-1.2l2.8-1.1l2.8-1.1l2.9-1.1l2.9-1l2.9-1l2.9-0.9l3-0.9l3-0.8l3-0.7l3-0.7l3-0.6l3.1-0.5l3.1-0.4
		l3.1-0.3l3.1-0.2l3.1-0.1l3.1,0l3.1,0.1l3.1,0.2l3.1,0.3l3.1,0.4l3.1,0.4l3.1,0.5l3,0.6l3,0.7l3,0.7l3,0.8l3,0.9l2.9,0.9l2.9,0.9
		l2.9,1l2.9,1l2.9,1l2.9,1l2.9,1.1l2.9,1.1l2.9,1.1l2.8,1.1l2.8,1.1l2.8,1.2l2.8,1.2l2.8,1.2l2.8,1.3l2.8,1.3l2.7,1.4l2.7,1.5
		l2.6,1.5l2.6,1.6l2.6,1.7l2.5,1.8l2.5,1.8l2.4,1.9l2.4,1.9l2.3,2l2.3,2.1l2.2,2.1l2.2,2.1l2.1,2.2l2.1,2.2l2.1,2.2l2,2.3l2,2.3
		l1.9,2.3l1.9,2.3l1.9,2.3l1.9,2.4l1.9,2.4l1.8,2.4l1.8,2.4l1.8,2.4l1.8,2.4l1.8,2.4l1.8,2.4l1.8,2.5l1.7,2.5l1.7,2.5l1.7,2.5
		l1.7,2.5L155-79l1.6,2.6l1.6,2.6l1.5,2.7l1.5,2.7l1.4,2.7l1.3,2.8l1.3,2.8l1.2,2.8l1.1,2.9l1,2.9l0.9,2.9l0.9,3l0.8,3l0.7,3l0.6,3
		l0.5,3l0.4,3.1l0.2,3.1l0.1,3.1l0,3.1l-0.1,3.1l-0.2,3.1l-0.3,3.1L172.6-9l-0.5,3l-0.5,3L171,0z"/>
	<path class="st1" d="M183.5,0l-1,3.2l-1.1,3.2l-1.1,3.1l-1.2,3.1l-1.2,3l-1.2,3l-1.2,3l-1.2,3l-1.1,2.9l-1.1,2.9l-1,2.9l-1,2.9
		l-0.9,2.9l-0.8,2.9l-0.8,2.9l-0.7,3l-0.6,3l-0.6,3l-0.5,3L165,60l-0.4,3.1l-0.4,3.2l-0.4,3.2l-0.4,3.2l-0.5,3.2l-0.5,3.2l-0.6,3.2
		l-0.7,3.2l-0.8,3.2l-0.9,3.2l-1,3.1l-1.1,3.1l-1.3,3l-1.4,3l-1.6,2.9l-1.7,2.8l-1.8,2.7l-2,2.6l-2.1,2.5l-2.2,2.4l-2.3,2.3
		l-2.4,2.2l-2.5,2.1l-2.5,2.1l-2.6,2l-2.6,1.9l-2.7,1.9l-2.7,1.8l-2.7,1.8l-2.7,1.7l-2.7,1.7l-2.7,1.7l-2.7,1.7l-2.7,1.7l-2.7,1.7
		l-2.6,1.8l-2.6,1.8l-2.6,1.8l-2.6,1.9l-2.6,1.9l-2.6,1.9l-2.6,2l-2.6,2l-2.6,2l-2.6,2l-2.7,2l-2.7,2l-2.7,1.9l-2.8,1.9l-2.8,1.8
		l-2.9,1.7l-3,1.6l-3,1.5l-3.1,1.3l-3.1,1.2l-3.2,1l-3.2,0.9l-3.3,0.7l-3.3,0.5l-3.3,0.4l-3.3,0.2l-3.4,0l-3.4-0.1l-3.4-0.3
		l-3.3-0.4l-3.3-0.5l-3.3-0.6l-3.3-0.8l-3.3-0.9L0,183.5l-3.2-1l-3.2-1.1l-3.1-1.1l-3.1-1.2l-3-1.2l-3-1.2l-3-1.2l-3-1.2l-2.9-1.1
		l-2.9-1.1l-2.9-1l-2.9-1l-2.9-0.9l-2.9-0.8l-2.9-0.8l-2.9-0.7l-3-0.6l-3-0.6l-3-0.5l-3.1-0.5l-3.1-0.5l-3.1-0.4l-3.2-0.4l-3.2-0.4
		l-3.2-0.5l-3.2-0.5l-3.3-0.5l-3.3-0.6l-3.3-0.7l-3.2-0.8l-3.2-0.9l-3.2-1l-3.1-1.1l-3.1-1.3l-3-1.4l-2.9-1.5l-2.9-1.7l-2.8-1.8
		l-2.7-1.9l-2.6-2l-2.5-2.1l-2.4-2.2l-2.4-2.3l-2.3-2.4l-2.2-2.4l-2.2-2.5l-2.1-2.5l-2-2.6l-2-2.6l-1.9-2.7l-1.9-2.7l-1.9-2.7
		l-1.8-2.7l-1.8-2.7l-1.8-2.7l-1.7-2.8l-1.7-2.8l-1.7-2.8l-1.6-2.8L-161,93l-1.6-2.8l-1.5-2.9l-1.4-2.9l-1.3-3l-1.2-3l-1.1-3l-1-3.1
		l-0.9-3.1l-0.8-3.2l-0.6-3.2l-0.5-3.2l-0.4-3.2l-0.3-3.2l-0.2-3.2l-0.1-3.2l0-3.2l0-3.2l0.1-3.2l0.1-3.2l0.1-3.2l0.1-3.1l0.1-3.1
		l0.1-3.1l0.1-3.1l0.1-3.1l0.1-3l0-3l0-3l0-3l-0.1-3l-0.1-3l-0.1-3l-0.1-3l-0.1-3.1l-0.2-3.1l-0.2-3.1l-0.1-3.1l-0.1-3.1l-0.1-3.1
		l-0.1-3.1l0-3.2l0-3.2l0.1-3.2l0.2-3.2l0.3-3.2l0.3-3.2l0.4-3.2l0.5-3.2l0.6-3.2l0.6-3.1l0.7-3.1l0.8-3.1l0.8-3.1l0.9-3.1l1-3.1
		l1-3.1l1.1-3.1l1.2-3.1l1.2-3l1.3-3l1.4-3l1.4-2.9l1.5-2.9l1.6-2.9l1.7-2.8l1.7-2.8l1.8-2.7l1.9-2.7l2-2.6l2.1-2.6l2.1-2.5l2.2-2.4
		l2.3-2.4l2.4-2.3l2.4-2.2l2.5-2.2l2.5-2.1l2.6-2l2.6-2l2.7-1.9l2.7-1.8l2.7-1.8l2.8-1.7l2.8-1.7l2.8-1.6l2.8-1.6l2.8-1.6l2.8-1.5
		l2.9-1.5l2.9-1.5l2.9-1.5l2.9-1.4l2.9-1.4l2.9-1.4l2.9-1.4l2.9-1.4l2.9-1.4l2.9-1.4l2.9-1.4l2.9-1.4l2.9-1.4l2.9-1.4l3-1.4l3-1.4
		l3-1.4l3-1.3l3.1-1.3l3.1-1.3l3.1-1.2l3.1-1.2l3.2-1.1l3.2-1l3.2-1l3.3-0.9l3.3-0.8l3.3-0.7l3.3-0.5l3.4-0.4l3.4-0.3l3.4-0.2
		l3.4-0.1l3.4,0.1l3.4,0.2l3.4,0.3l3.4,0.4l3.3,0.5l3.3,0.6l3.3,0.7l3.3,0.8l3.3,0.9l3.2,1l3.2,1l3.2,1.1l3.2,1.1l3.1,1.1l3.1,1.2
		l3.1,1.2l3.1,1.2l3.1,1.2l3.1,1.2l3.1,1.2l3.1,1.2l3.1,1.2l3.1,1.2l3.1,1.3l3,1.3l3,1.4l3,1.4l3,1.5l2.9,1.6l2.9,1.7l2.8,1.8
		l2.8,1.8l2.7,1.9l2.6,2l2.6,2.1l2.5,2.2l2.5,2.2l2.4,2.3l2.3,2.3l2.3,2.4l2.2,2.4l2.2,2.5l2.2,2.5l2.1,2.5l2.1,2.5l2,2.5l2,2.6
		l2,2.6l2,2.6l2,2.6l2,2.6l2,2.6l2,2.6l2,2.6l2,2.6l2,2.6l2,2.6l2,2.6l1.9,2.6l1.9,2.7l1.9,2.7l1.9,2.7l1.9,2.7l1.8,2.8L173-77
		l1.7,2.9l1.6,2.9l1.5,3l1.5,3l1.4,3.1l1.3,3.1l1.2,3.1l1.1,3.2l0.9,3.2l0.8,3.2l0.7,3.3l0.6,3.3l0.4,3.3l0.3,3.3l0.2,3.3l0,3.4
		l-0.1,3.4l-0.3,3.4l-0.4,3.3l-0.5,3.3l-0.6,3.3l-0.8,3.3l-0.9,3.3L183.5,0z"/>
	<path class="st2" d="M198,0l-1.5,3.4l-1.5,3.4l-1.6,3.3l-1.6,3.3l-1.6,3.2l-1.6,3.2l-1.6,3.1l-1.5,3.1l-1.5,3.1l-1.4,3.1l-1.3,3
		l-1.2,3l-1.1,3.1l-0.9,3.1l-0.8,3.1l-0.7,3.1l-0.6,3.2l-0.4,3.2l-0.3,3.3l-0.3,3.4l-0.2,3.4l-0.1,3.5l-0.1,3.5l-0.1,3.6l-0.2,3.6
		l-0.2,3.6l-0.3,3.6l-0.4,3.6l-0.5,3.6l-0.7,3.6l-0.8,3.5l-1,3.5l-1.2,3.4l-1.4,3.3l-1.6,3.2l-1.8,3.1l-2,3l-2.1,2.8l-2.3,2.7
		l-2.4,2.6L153,133l-2.7,2.3l-2.8,2.2l-2.9,2.1l-2.9,2l-3,2l-3,1.9l-3,1.8l-3,1.8l-3,1.8l-3,1.7l-3,1.7l-3,1.8l-2.9,1.8l-2.9,1.8
		l-2.8,1.9l-2.8,1.9l-2.8,2l-2.7,2.1l-2.7,2.1l-2.7,2.2l-2.7,2.3l-2.7,2.3l-2.7,2.4l-2.7,2.4l-2.8,2.4l-2.8,2.4l-2.9,2.3l-2.9,2.3
		l-3,2.2l-3.1,2.1l-3.2,1.9l-3.2,1.8l-3.3,1.6l-3.4,1.4l-3.5,1.2l-3.5,1l-3.6,0.7l-3.6,0.5l-3.7,0.3l-3.7,0.1l-3.7-0.1l-3.7-0.3
		l-3.7-0.5l-3.7-0.7l-3.6-0.9l-3.6-1L7,200.7l-3.5-1.3L0,198l-3.4-1.5l-3.4-1.5l-3.3-1.6l-3.3-1.6l-3.2-1.6l-3.2-1.6l-3.1-1.6
		l-3.1-1.5l-3.1-1.5l-3.1-1.4l-3-1.3l-3-1.2l-3-1.1l-3.1-1l-3.1-0.8l-3.1-0.7l-3.2-0.6l-3.2-0.5l-3.3-0.4l-3.3-0.3l-3.4-0.2
		l-3.4-0.2l-3.5-0.1l-3.6-0.1l-3.6-0.1l-3.6-0.2l-3.7-0.2l-3.7-0.3l-3.7-0.4l-3.7-0.5l-3.6-0.7l-3.6-0.8l-3.5-1l-3.5-1.2l-3.4-1.3
		l-3.3-1.5l-3.2-1.7l-3.1-1.9l-3-2l-2.9-2.2l-2.8-2.3l-2.6-2.4l-2.5-2.5l-2.5-2.6l-2.4-2.7l-2.3-2.8l-2.2-2.8l-2.1-2.9l-2.1-2.9
		l-2-2.9l-2-3l-1.9-3l-1.9-3l-1.9-3l-1.9-3l-1.8-3l-1.8-3l-1.8-3l-1.7-3.1l-1.7-3.1l-1.7-3.1l-1.6-3.1l-1.5-3.2l-1.4-3.2l-1.3-3.3
		l-1.1-3.3l-1-3.4l-0.8-3.4l-0.7-3.5l-0.5-3.5l-0.3-3.5l-0.2-3.6l-0.1-3.6l0.1-3.6l0.2-3.6l0.3-3.5l0.3-3.5l0.4-3.5l0.4-3.4l0.4-3.4
		l0.4-3.4l0.4-3.3l0.3-3.3l0.3-3.3l0.2-3.2l0.2-3.2l0.1-3.2l0.1-3.2l0-3.2l-0.1-3.2l-0.1-3.2l-0.2-3.2l-0.3-3.2l-0.3-3.2l-0.3-3.3
		l-0.3-3.3l-0.4-3.3L-185-26l-0.3-3.4l-0.3-3.4l-0.2-3.4l-0.2-3.4l-0.1-3.4l0-3.4l0.1-3.5l0.2-3.5l0.2-3.5l0.3-3.5l0.4-3.5l0.5-3.4
		l0.6-3.4l0.7-3.4l0.7-3.4l0.8-3.4l0.9-3.4l1-3.4l1-3.4l1.1-3.4l1.2-3.4l1.3-3.3l1.4-3.3l1.5-3.3l1.5-3.2l1.6-3.2l1.7-3.1l1.8-3.1
		l1.9-3l2-2.9l2.1-2.9l2.2-2.8l2.3-2.7l2.4-2.6l2.5-2.6l2.6-2.5l2.7-2.4l2.8-2.3l2.8-2.2l2.9-2.1l2.9-2l3-2l3-1.9l3.1-1.8l3.1-1.8
		l3.1-1.7l3.1-1.7l3.1-1.6l3.1-1.6l3.1-1.6l3.1-1.5l3.1-1.5l3.1-1.5l3.1-1.5l3.1-1.5l3.1-1.5l3.1-1.6l3.1-1.6l3.1-1.6l3.1-1.6
		l3.1-1.6l3.1-1.7l3.1-1.7l3.1-1.7l3.2-1.7l3.2-1.7l3.2-1.7l3.2-1.7l3.3-1.6l3.3-1.6l3.4-1.6l3.4-1.5l3.4-1.4l3.5-1.3l3.5-1.2
		l3.6-1.1l3.6-1l3.6-0.9l3.7-0.7l3.7-0.6l3.7-0.4l3.7-0.2l3.7-0.1l3.7,0.1l3.7,0.2l3.7,0.4l3.7,0.5l3.7,0.7l3.6,0.8l3.6,0.9l3.6,1
		l3.5,1.1l3.5,1.2l3.5,1.3l3.5,1.3l3.4,1.3l3.4,1.4l3.4,1.4l3.4,1.4l3.4,1.4l3.4,1.3l3.4,1.3l3.4,1.3l3.4,1.3l3.4,1.3l3.4,1.3
		l3.4,1.3l3.3,1.4l3.3,1.4l3.3,1.5l3.2,1.6l3.2,1.7l3.1,1.8l3.1,1.9l3,2l2.9,2.1l2.8,2.2l2.8,2.3l2.7,2.4l2.6,2.5l2.5,2.6l2.5,2.6
		l2.4,2.7l2.4,2.7l2.3,2.8l2.3,2.8l2.2,2.8l2.2,2.8l2.1,2.8l2.1,2.8l2.1,2.8l2.1,2.8l2.1,2.8l2.1,2.8l2.1,2.8l2.1,2.8l2.1,2.8
		l2.2,2.8l2.2,2.8l2.2,2.8l2.2,2.8l2.2,2.8l2.2,2.8l2.2,2.8l2.2,2.9l2.2,2.9l2.1,3l2.1,3l2,3.1l1.9,3.1l1.8,3.2l1.7,3.2l1.6,3.3
		l1.5,3.4l1.3,3.4l1.2,3.5l1,3.5l0.9,3.6l0.7,3.6l0.6,3.6l0.4,3.6l0.2,3.7l0,3.7l-0.2,3.7l-0.4,3.7l-0.5,3.7l-0.7,3.7l-0.9,3.6
		l-1,3.6L200.7-7l-1.3,3.5L198,0z"/>
	<path class="st1" d="M214.9,0l-2.1,3.7l-2.2,3.6l-2.3,3.6l-2.3,3.5l-2.3,3.4l-2.2,3.4l-2.2,3.3l-2.1,3.3l-1.9,3.2l-1.8,3.2
		l-1.6,3.2l-1.5,3.2l-1.3,3.2l-1.1,3.2l-0.8,3.3l-0.6,3.3l-0.4,3.4l-0.3,3.5l-0.1,3.6l0.1,3.7l0.2,3.8l0.3,3.9l0.3,3.9l0.3,4
		l0.3,4.1l0.2,4.1l0.1,4.2l0,4.2l-0.2,4.1l-0.4,4.1l-0.6,4.1l-0.8,4l-1.1,3.9l-1.3,3.7l-1.6,3.6l-1.8,3.5l-2.1,3.3l-2.3,3.1
		l-2.5,2.9l-2.7,2.8l-2.9,2.6l-3.1,2.4l-3.2,2.3l-3.3,2.2l-3.3,2.1l-3.4,2l-3.4,1.9l-3.5,1.8l-3.5,1.8l-3.4,1.7l-3.4,1.7l-3.4,1.7
		l-3.3,1.8l-3.2,1.8l-3.2,1.9l-3.1,2l-3,2.1l-2.9,2.2l-2.9,2.4l-2.8,2.5l-2.8,2.6l-2.8,2.7l-2.8,2.8l-2.8,2.9l-2.8,2.9l-2.9,2.9
		l-2.9,2.9l-3,2.9l-3.1,2.8l-3.2,2.7l-3.3,2.6l-3.4,2.4l-3.5,2.2l-3.6,1.9l-3.7,1.7l-3.8,1.4l-3.9,1.1l-4,0.8l-4,0.5l-4.1,0.2
		l-4.1-0.1l-4.1-0.4l-4.1-0.7l-4.1-0.9l-4.1-1.2l-4-1.4l-4-1.6l-3.9-1.8l-3.9-1.9l-3.8-2l-3.7-2.1l-3.6-2.2l-3.6-2.3l-3.5-2.3
		l-3.4-2.3l-3.4-2.2l-3.3-2.2l-3.3-2.1l-3.2-1.9l-3.2-1.8l-3.2-1.6l-3.2-1.5l-3.2-1.3l-3.2-1.1l-3.3-0.9l-3.3-0.7l-3.4-0.5l-3.5-0.3
		l-3.6-0.1l-3.6,0l-3.7,0.1l-3.8,0.2l-3.9,0.3l-4,0.3l-4.1,0.3l-4.1,0.3l-4.2,0.2l-4.2,0.1l-4.2,0l-4.2-0.2l-4.2-0.3l-4.1-0.5
		l-4.1-0.8l-4-1l-3.9-1.2l-3.8-1.5l-3.6-1.7l-3.5-1.9l-3.3-2.1l-3.2-2.4l-3-2.5l-2.9-2.7l-2.8-2.8l-2.6-3l-2.5-3.1l-2.4-3.1
		l-2.3-3.2l-2.3-3.2l-2.2-3.3l-2.1-3.3l-2.1-3.3l-2-3.3l-2-3.3l-2-3.3l-2-3.3l-1.9-3.3l-1.9-3.3l-1.9-3.3l-1.9-3.4l-1.8-3.4
		l-1.8-3.4l-1.7-3.5l-1.6-3.5l-1.5-3.5l-1.3-3.6l-1.1-3.7l-0.9-3.7l-0.7-3.8l-0.5-3.9l-0.3-3.9l-0.1-3.9l0.1-4l0.3-4l0.4-4l0.6-3.9
		l0.7-3.9l0.8-3.9l0.8-3.8l0.8-3.8l0.8-3.7l0.8-3.7l0.7-3.6l0.7-3.5l0.6-3.5l0.5-3.5l0.4-3.4l0.2-3.4l0.1-3.4l0-3.4l-0.1-3.4
		l-0.2-3.4l-0.3-3.4l-0.4-3.4l-0.5-3.4l-0.6-3.5l-0.6-3.5l-0.7-3.5l-0.7-3.6l-0.7-3.6l-0.6-3.7l-0.6-3.7l-0.5-3.7l-0.4-3.7l-0.3-3.8
		l-0.2-3.8l-0.1-3.8l0-3.8l0.1-3.8l0.2-3.8l0.3-3.8l0.4-3.8l0.5-3.8l0.6-3.8l0.7-3.8l0.8-3.8l0.9-3.8l0.9-3.8l1-3.8l1.1-3.8l1.2-3.7
		l1.3-3.7l1.5-3.7l1.6-3.6l1.7-3.6l1.8-3.5l1.9-3.4l2.1-3.4l2.2-3.3l2.3-3.2l2.4-3.1l2.6-3l2.7-2.9l2.8-2.8l2.9-2.7l3-2.6l3.1-2.4
		l3.2-2.3l3.2-2.2l3.3-2.1l3.4-2l3.4-1.9l3.4-1.9l3.5-1.8l3.5-1.7l3.5-1.7l3.5-1.6l3.5-1.6l3.5-1.6l3.5-1.6l3.4-1.6l3.4-1.6l3.4-1.6
		l3.4-1.6l3.4-1.7l3.3-1.7l3.3-1.8l3.3-1.8l3.3-1.9l3.3-1.9l3.3-2l3.3-2l3.3-2l3.4-2.1l3.4-2.1l3.4-2.1l3.5-2.1l3.5-2.1l3.6-2.1
		l3.6-2l3.7-1.9l3.7-1.9l3.8-1.7l3.9-1.6l3.9-1.5l4-1.3l4-1.2l4.1-1l4.1-0.8l4.1-0.6l4.1-0.3l4.1-0.1l4.1,0.1l4.1,0.3l4.1,0.5
		l4.1,0.7l4.1,0.9l4,1l4,1.2l3.9,1.3l3.9,1.4l3.9,1.5l3.8,1.6l3.8,1.6l3.7,1.6l3.7,1.6l3.7,1.6l3.7,1.6l3.7,1.6l3.7,1.5l3.7,1.5
		l3.7,1.5l3.7,1.4l3.7,1.4l3.7,1.4l3.7,1.4l3.7,1.5l3.7,1.5l3.7,1.6l3.6,1.7l3.6,1.8l3.5,2l3.4,2.1l3.3,2.3l3.2,2.4l3.1,2.5l3,2.7
		l2.9,2.8l2.8,2.9l2.7,3l2.6,3l2.5,3.1l2.5,3.1l2.4,3.2l2.4,3.2l2.3,3.2l2.3,3.2l2.2,3.2l2.2,3.2l2.2,3.2l2.2,3.1l2.2,3.1l2.3,3.1
		l2.3,3.1l2.3,3l2.4,3l2.4,3l2.5,3l2.5,3l2.6,3l2.6,3l2.6,3l2.6,3l2.6,3.1l2.6,3.1l2.5,3.2l2.5,3.2l2.4,3.3l2.3,3.4l2.2,3.4l2,3.5
		l1.9,3.6l1.7,3.7l1.6,3.7L223-64l1.2,3.9l1,3.9l0.8,4l0.5,4l0.3,4.1l0.1,4.1l-0.2,4.1l-0.4,4.1l-0.7,4.1l-0.9,4.1l-1.2,4.1l-1.4,4
		l-1.6,4l-1.8,3.9l-1.9,3.9L214.9,0z"/>
	<path class="st1" d="M235.1,0l-3,4.1L229,8l-3.2,3.8l-3.2,3.7l-3.1,3.6l-3,3.5l-2.9,3.5l-2.8,3.4l-2.6,3.4l-2.4,3.3l-2.1,3.3
		l-1.8,3.3l-1.5,3.3l-1.2,3.4l-0.9,3.5l-0.6,3.6l-0.3,3.7l0,3.8l0.3,3.9l0.5,4.1l0.7,4.2l0.8,4.3l0.9,4.5l0.9,4.6l0.9,4.7l0.9,4.8
		l0.7,4.8l0.6,4.8l0.3,4.8l0.1,4.8l-0.2,4.7l-0.5,4.6l-0.8,4.5l-1.2,4.3l-1.5,4.1l-1.9,3.9l-2.2,3.7l-2.6,3.5l-2.9,3.2l-3.1,3
		l-3.3,2.8l-3.5,2.6l-3.7,2.4l-3.8,2.2l-3.9,2.1l-4,1.9l-4,1.8l-4,1.7l-4,1.7l-4,1.7l-3.9,1.7l-3.8,1.7l-3.7,1.8l-3.6,1.9l-3.5,2
		l-3.4,2.2l-3.3,2.3l-3.1,2.5l-3.1,2.7l-3,2.9l-2.9,3.1l-2.9,3.3L107,210l-2.9,3.5l-2.9,3.6l-2.9,3.7l-3,3.7l-3.1,3.6l-3.2,3.6
		l-3.4,3.4l-3.5,3.2l-3.6,3l-3.8,2.7l-3.9,2.4l-4.1,2.1l-4.2,1.7l-4.3,1.3l-4.4,0.9l-4.5,0.5l-4.6,0.1l-4.6-0.3l-4.6-0.7l-4.6-1.1
		l-4.6-1.4l-4.5-1.8l-4.5-2l-4.4-2.3l-4.3-2.5L4.2,238L0,235.1l-4.1-3L-8,229l-3.8-3.2l-3.7-3.2l-3.6-3.1l-3.5-3l-3.5-2.9l-3.4-2.8
		l-3.4-2.6l-3.3-2.4l-3.3-2.1l-3.3-1.9l-3.3-1.6l-3.4-1.3l-3.5-1l-3.5-0.6l-3.6-0.4L-64,197l-3.9,0.2l-4,0.4l-4.2,0.6l-4.3,0.7
		l-4.4,0.9l-4.6,0.9l-4.7,0.9l-4.8,0.9l-4.8,0.8l-4.9,0.7l-4.9,0.6l-4.9,0.4l-4.9,0.1l-4.9-0.1l-4.8-0.4l-4.7-0.7l-4.5-1l-4.4-1.4
		l-4.2-1.7l-4-2l-3.8-2.3l-3.6-2.6l-3.4-2.8l-3.2-3l-3-3.2l-2.9-3.4l-2.7-3.5l-2.6-3.6l-2.5-3.7l-2.4-3.7l-2.3-3.7l-2.2-3.8
		l-2.2-3.8l-2.1-3.8l-2.1-3.8l-2.1-3.8l-2.1-3.8l-2.1-3.7l-2.1-3.7l-2-3.7l-2-3.7l-2-3.7l-2-3.8l-1.8-3.8l-1.8-3.8l-1.6-3.9l-1.3-4
		l-1.1-4.1l-0.8-4.2l-0.5-4.3l-0.3-4.4l0-4.4l0.3-4.4l0.6-4.5l0.8-4.5l1-4.4l1.2-4.4l1.3-4.4l1.4-4.3l1.4-4.2l1.4-4.2l1.4-4.1l1.3-4
		l1.2-3.9l1.1-3.8l0.9-3.8l0.8-3.7l0.6-3.6l0.4-3.6l0.2-3.6l0.1-3.6l-0.1-3.6l-0.3-3.6l-0.5-3.6l-0.6-3.6l-0.8-3.7l-0.9-3.7l-1-3.8
		l-1.1-3.8l-1.1-3.9l-1.1-3.9l-1.1-4l-1.1-4l-1-4.1l-0.9-4.1l-0.8-4.2l-0.6-4.2l-0.5-4.2l-0.3-4.2l-0.2-4.2l-0.1-4.3l0-4.3l0.2-4.3
		l0.3-4.3l0.4-4.3l0.5-4.3l0.6-4.3l0.7-4.3l0.8-4.3l0.9-4.3l1-4.3l1.1-4.2l1.3-4.2l1.4-4.2l1.6-4.1l1.7-4l1.9-4l2-3.9l2.2-3.8
		l2.4-3.7l2.5-3.6l2.7-3.4l2.9-3.3l3-3.2l3.1-3l3.3-2.9l3.4-2.8l3.5-2.6l3.6-2.5l3.7-2.3l3.8-2.2l3.8-2.1l3.9-2l3.9-1.9l4-1.8l4-1.7
		l4-1.7l4-1.6l3.9-1.6l3.9-1.6l3.9-1.6l3.8-1.6l3.8-1.7l3.8-1.7l3.7-1.8l3.7-1.8l3.6-1.9l3.6-2l3.6-2.1l3.6-2.2l3.6-2.3l3.6-2.4
		l3.6-2.4l3.6-2.5l3.6-2.6l3.7-2.6l3.7-2.7l3.8-2.7l3.8-2.7l3.9-2.7l4-2.6l4-2.5l4.1-2.4l4.2-2.3l4.3-2.2l4.3-2l4.4-1.8l4.5-1.5
		l4.5-1.3l4.6-1l4.6-0.8l4.6-0.5l4.7-0.2l4.7,0.1l4.6,0.4l4.6,0.6l4.6,0.9l4.5,1.1l4.5,1.3l4.4,1.5L41-259l4.3,1.8l4.3,1.9l4.2,2
		l4.2,2l4.1,2l4.1,2l4.1,2l4.1,1.9l4.1,1.9l4.1,1.8l4.1,1.7l4.1,1.7l4.1,1.6l4.1,1.5l4.2,1.5l4.2,1.5l4.2,1.6l4.2,1.6l4.1,1.7l4,1.9
		l4,2l3.9,2.2l3.8,2.4l3.6,2.6l3.5,2.8l3.4,2.9l3.2,3.1l3.1,3.2l3,3.3l2.9,3.4l2.8,3.5l2.7,3.6l2.6,3.6l2.5,3.7l2.5,3.7l2.4,3.7
		l2.4,3.7l2.3,3.6l2.3,3.6l2.3,3.6l2.4,3.5l2.4,3.5l2.4,3.4l2.5,3.4l2.6,3.3l2.7,3.3l2.7,3.2l2.8,3.2l2.9,3.2l3,3.2l3,3.2l3.1,3.2
		l3.1,3.2l3.1,3.3l3.1,3.3l3.1,3.4l3,3.5l2.9,3.6l2.8,3.7l2.6,3.8l2.5,3.9l2.3,4l2.1,4.1l1.8,4.2l1.6,4.2l1.3,4.3l1.1,4.4l0.8,4.5
		l0.5,4.5l0.2,4.6l-0.1,4.6l-0.5,4.6l-0.8,4.6l-1.1,4.6l-1.4,4.6l-1.8,4.5l-2,4.5l-2.3,4.4l-2.5,4.3L238-4.2L235.1,0z"/>
	<path class="st2" d="M259.7,0l-4.2,4.5l-4.3,4.3l-4.4,4.2l-4.4,4l-4.3,3.9l-4.1,3.8l-4,3.6l-3.7,3.6l-3.4,3.5l-3.1,3.4l-2.7,3.4
		l-2.3,3.5l-1.9,3.5l-1.4,3.6l-1,3.7l-0.5,3.8l0,4l0.4,4.1l0.8,4.3l1.1,4.5l1.4,4.7l1.6,4.9l1.7,5.1l1.8,5.3l1.8,5.4l1.7,5.6
		l1.6,5.6l1.4,5.7l1.1,5.7l0.7,5.6l0.4,5.5l-0.1,5.4l-0.5,5.2l-1,5l-1.5,4.8l-1.9,4.5l-2.4,4.2l-2.8,3.9l-3.2,3.6l-3.6,3.3l-3.9,3
		l-4.2,2.7l-4.4,2.4l-4.5,2.2l-4.6,2l-4.7,1.9l-4.7,1.7l-4.7,1.6l-4.7,1.6l-4.6,1.5l-4.5,1.6l-4.4,1.6l-4.2,1.7l-4.1,1.9l-3.9,2.1
		l-3.7,2.3l-3.5,2.6l-3.4,2.9l-3.2,3.1l-3.1,3.4l-3,3.7l-2.9,4l-2.9,4.2l-2.9,4.4l-2.9,4.6l-3,4.7l-3.1,4.7L103,255l-3.4,4.6
		l-3.6,4.4l-3.8,4.1l-4,3.8l-4.2,3.5l-4.4,3.1l-4.5,2.6l-4.7,2.1l-4.9,1.5l-5,1l-5.1,0.4l-5.2-0.1l-5.2-0.7l-5.3-1.2l-5.3-1.7
		l-5.2-2.2l-5.2-2.6l-5.1-3l-5-3.3l-4.9-3.6l-4.7-3.9L0,259.7l-4.5-4.2l-4.3-4.3l-4.2-4.4l-4-4.4l-3.9-4.3l-3.8-4.1l-3.6-4l-3.6-3.7
		l-3.5-3.5l-3.4-3.1l-3.4-2.8l-3.4-2.4l-3.5-1.9l-3.6-1.5l-3.7-1l-3.8-0.6l-3.9-0.1l-4.1,0.3l-4.3,0.6l-4.5,1l-4.7,1.3l-4.9,1.5
		l-5.1,1.7l-5.3,1.8l-5.4,1.8l-5.6,1.8l-5.7,1.7l-5.8,1.6l-5.8,1.4l-5.9,1.1l-5.8,0.8l-5.8,0.5l-5.7,0.1l-5.5-0.3l-5.3-0.8l-5.1-1.2
		l-4.9-1.6l-4.6-2l-4.4-2.4l-4.1-2.8l-3.8-3.1l-3.6-3.4l-3.3-3.7l-3.1-3.9l-2.9-4l-2.8-4.1l-2.6-4.2l-2.5-4.3l-2.4-4.3l-2.3-4.4
		l-2.3-4.4l-2.2-4.4l-2.2-4.3l-2.2-4.3l-2.2-4.3l-2.2-4.2l-2.2-4.2l-2.2-4.2l-2.2-4.2l-2.2-4.2l-2.1-4.2l-1.9-4.3l-1.9-4.3l-1.6-4.4
		l-1.3-4.5l-1-4.7l-0.7-4.8l-0.3-4.9l0.1-5l0.5-5l0.8-5.1l1.2-5.1l1.5-5.1l1.7-5.1l1.9-5l2.1-4.9l2.2-4.8l2.2-4.7l2.2-4.6l2.2-4.5
		l2-4.4l1.9-4.3l1.7-4.2l1.5-4.1l1.2-4l1-3.9l0.7-3.8l0.4-3.8l0.1-3.8l-0.2-3.8l-0.5-3.8l-0.7-3.8l-1-3.8l-1.2-3.9l-1.4-4l-1.5-4
		l-1.6-4.1l-1.7-4.2l-1.8-4.3l-1.7-4.4l-1.7-4.5l-1.6-4.5l-1.5-4.6l-1.4-4.7l-1.2-4.7l-1-4.7l-0.8-4.8l-0.7-4.8l-0.5-4.8l-0.3-4.8
		l-0.2-4.8l-0.1-4.9l0.1-4.9l0.2-4.9l0.3-4.9l0.4-4.9l0.6-4.9l0.7-4.9l0.8-4.9l1-4.9l1.2-4.8l1.4-4.8l1.5-4.7l1.7-4.6l1.9-4.6
		l2.2-4.4l2.4-4.3l2.6-4.2l2.8-4l3-3.9l3.2-3.7l3.4-3.5l3.6-3.4l3.8-3.2l3.9-3l4.1-2.8l4.2-2.6l4.3-2.5l4.4-2.3l4.5-2.1l4.5-2
		l4.6-1.9l4.6-1.8l4.6-1.7l4.6-1.6l4.5-1.6l4.5-1.6l4.4-1.6l4.4-1.6l4.3-1.7l4.3-1.7l4.2-1.8l4.1-1.9l4.1-2l4-2.1l4-2.3l3.9-2.4
		l3.9-2.6l3.9-2.7l3.9-2.9l3.9-3l3.9-3.1l3.9-3.2l3.9-3.3l4-3.4l4.1-3.5l4.2-3.5l4.2-3.5l4.3-3.4l4.5-3.3l4.6-3.2l4.7-3.1l4.8-2.9
		l4.9-2.6l5-2.4l5.1-2.1l5.1-1.7l5.2-1.4l5.3-1l5.3-0.7l5.3-0.3l5.3,0.1l5.3,0.4l5.3,0.8l5.2,1.1l5.2,1.5l5.1,1.7l5,2l4.9,2.2
		l4.9,2.4l4.8,2.5l4.7,2.6l4.7,2.6l4.6,2.6l4.6,2.5l4.5,2.5l4.5,2.4l4.5,2.3l4.5,2.1l4.6,2l4.6,1.9l4.6,1.8l4.7,1.7l4.7,1.7l4.7,1.6
		l4.7,1.7l4.7,1.7l4.7,1.8l4.6,2.1l4.5,2.2l4.4,2.5l4.2,2.7l4.1,3l3.9,3.2l3.7,3.4l3.6,3.6l3.4,3.8l3.2,3.9l3.1,4.1l2.9,4.2l2.8,4.2
		l2.7,4.3l2.6,4.3l2.6,4.3l2.5,4.3l2.5,4.3l2.5,4.2l2.5,4.2l2.5,4.1l2.5,4l2.6,3.9l2.7,3.9l2.8,3.8l2.9,3.7l3,3.6l3.2,3.5l3.3,3.5
		l3.4,3.4l3.5,3.4l3.7,3.4l3.7,3.4l3.8,3.4l3.8,3.5l3.8,3.6l3.8,3.6l3.7,3.7l3.6,3.9l3.4,4l3.3,4.1l3,4.3l2.8,4.4l2.5,4.5l2.2,4.7
		l1.9,4.8l1.6,4.9l1.2,5l0.8,5.1l0.4,5.1l0,5.2l-0.4,5.2l-0.8,5.3l-1.3,5.3l-1.7,5.3l-2.2,5.2l-2.6,5.2l-3,5.1l-3.3,5l-3.6,4.9
		l-3.9,4.7L259.7,0z"/>
	<path class="st1" d="M289.8,0l-5.9,5l-6,4.8l-6,4.5l-5.9,4.3l-5.8,4.2l-5.6,4l-5.3,3.8l-5,3.7l-4.6,3.6l-4.1,3.6l-3.6,3.6l-3,3.6
		l-2.3,3.7l-1.7,3.8l-1,3.9l-0.4,4.1l0.3,4.3l0.9,4.6l1.4,4.9l1.9,5.1l2.3,5.4l2.6,5.7l2.9,6l3,6.2l3,6.4l2.9,6.6l2.7,6.7l2.4,6.8
		l2.1,6.8l1.6,6.7l1.1,6.6l0.5,6.5l-0.1,6.2l-0.7,5.9l-1.4,5.6l-2,5.2l-2.6,4.8l-3.2,4.4l-3.7,4l-4.2,3.6l-4.6,3.2l-4.9,2.8
		l-5.2,2.5l-5.4,2.2l-5.5,1.9l-5.6,1.7l-5.6,1.5l-5.6,1.4l-5.6,1.3l-5.5,1.3l-5.3,1.4l-5.1,1.5l-4.9,1.7l-4.7,1.9l-4.4,2.2l-4.1,2.5
		l-3.9,2.9l-3.7,3.3l-3.4,3.7l-3.3,4.1L138,249l-3,4.9l-2.9,5.3l-2.9,5.6l-3,5.8l-3.1,5.9l-3.2,6l-3.4,6l-3.6,5.9l-3.8,5.6l-4.1,5.3
		l-4.3,4.9l-4.6,4.4l-4.9,3.9l-5.1,3.2l-5.4,2.6l-5.6,1.8l-5.7,1.1l-5.9,0.3l-6-0.4l-6.1-1.2l-6.1-1.9l-6.1-2.5l-6-3.1l-5.9-3.7
		l-5.8-4.2l-5.7-4.7l-5.5-5.1l-5.3-5.4L0,289.8l-5-5.9l-4.8-6l-4.5-6l-4.3-5.9l-4.2-5.8l-4-5.6l-3.8-5.3l-3.7-5l-3.6-4.6l-3.6-4.1
		l-3.6-3.6l-3.6-3l-3.6-2.4l-3.7-1.8l-3.9-1.1l-4.1-0.5l-4.3,0.1l-4.5,0.7l-4.8,1.3l-5.1,1.8l-5.3,2.2l-5.6,2.5l-5.9,2.8l-6.2,2.9
		l-6.4,3l-6.6,3l-6.8,2.9l-6.9,2.8l-7,2.5l-7,2.2l-7,1.8l-6.9,1.3l-6.8,0.8l-6.6,0.2l-6.4-0.4l-6.1-1l-5.8-1.5l-5.4-2.1l-5.1-2.6
		l-4.7-3.1l-4.4-3.6l-4-4l-3.7-4.3l-3.4-4.5l-3.2-4.7l-3-4.9l-2.8-5l-2.7-5.1l-2.5-5.1l-2.4-5.1l-2.4-5.1l-2.3-5.1l-2.3-5l-2.3-5
		l-2.3-4.9l-2.4-4.9l-2.4-4.8l-2.4-4.8l-2.4-4.8l-2.4-4.7l-2.4-4.8l-2.1-4.9l-2.1-4.9l-1.7-5l-1.3-5.2l-0.9-5.3l-0.4-5.5l0.1-5.6
		l0.6-5.7l1.1-5.8l1.5-5.9l2-5.9l2.4-5.9l2.7-5.8l3-5.8l3.2-5.7l3.3-5.5l3.4-5.4l3.3-5.2l3.2-5l3-4.9l2.8-4.7l2.5-4.5l2.2-4.4
		l1.8-4.3l1.4-4.2l1-4.1l0.6-4l0.2-4l-0.2-4l-0.6-4l-1-4l-1.4-4.1l-1.7-4.2l-2-4.3l-2.2-4.4l-2.4-4.5l-2.5-4.6l-2.6-4.7l-2.6-4.9
		l-2.6-5l-2.5-5.1l-2.3-5.2l-2.2-5.3l-1.9-5.3l-1.7-5.4l-1.5-5.4l-1.3-5.5l-1.1-5.5l-0.9-5.5l-0.7-5.6l-0.5-5.6l-0.4-5.6l-0.2-5.7
		l-0.1-5.7l0.1-5.7l0.2-5.7l0.4-5.7l0.6-5.7l0.8-5.7l1-5.6l1.2-5.6l1.5-5.5l1.7-5.4l2-5.3l2.3-5.2l2.5-5l2.8-4.8l3.1-4.6l3.4-4.4
		l3.6-4.2l3.9-4l4.1-3.7l4.4-3.5l4.6-3.3l4.8-3l4.9-2.8l5.1-2.6l5.2-2.4l5.3-2.2l5.3-2l5.3-1.9l5.4-1.7l5.4-1.6l5.3-1.6l5.3-1.5
		l5.2-1.5l5.1-1.5l5-1.6l5-1.7l4.8-1.8l4.7-1.9l4.6-2.1l4.5-2.3l4.5-2.5l4.4-2.7l4.3-2.9l4.3-3.1l4.2-3.3l4.2-3.5l4.2-3.8l4.2-4
		l4.2-4.1l4.3-4.3l4.4-4.4l4.5-4.5l4.6-4.5l4.7-4.5l4.8-4.5l5-4.4l5.1-4.2l5.3-4l5.4-3.8l5.5-3.5l5.7-3.2l5.8-2.8l5.9-2.3l6-1.9
		l6.1-1.4l6.1-0.9l6.1-0.4l6.1,0.1l6.1,0.6l6.1,1l6,1.5l5.9,1.9l5.8,2.3l5.7,2.6l5.6,2.8l5.5,3.1l5.4,3.2l5.3,3.3l5.3,3.3l5.2,3.3
		l5.1,3.2l5.1,3.1l5.1,3l5.1,2.8l5.1,2.6l5.2,2.4l5.2,2.2l5.3,2l5.3,1.9l5.4,1.8l5.4,1.8l5.5,1.8l5.5,1.9l5.4,2l5.3,2.3l5.2,2.5
		l5,2.8l4.8,3.1l4.6,3.4l4.4,3.8l4.2,4l3.9,4.3l3.7,4.5l3.5,4.7l3.3,4.9l3.1,5l3,5.1l2.8,5.1l2.7,5.1l2.7,5.1l2.6,5.1l2.6,5l2.6,5
		l2.6,4.9l2.6,4.8l2.7,4.7l2.8,4.5l2.9,4.4l3.1,4.3l3.3,4.1l3.5,4l3.7,3.9l3.9,3.8l4.1,3.7l4.3,3.7l4.4,3.6l4.6,3.6l4.7,3.7l4.7,3.7
		l4.7,3.8l4.7,3.9l4.6,4.1l4.5,4.2l4.3,4.4l4.1,4.6l3.8,4.8l3.5,5l3.1,5.1l2.7,5.3l2.3,5.5l1.8,5.6l1.4,5.7l0.9,5.8l0.3,5.9l-0.2,6
		l-0.8,6.1l-1.4,6.1l-2,6.1l-2.5,6.1l-3.1,6l-3.7,5.9l-4.2,5.8l-4.7,5.7l-5.1,5.5l-5.4,5.3L289.8,0z"/>
</g>
</svg>
