<?xml version="1.0" encoding="UTF-8"?>
<svg width="25px" height="20px" viewBox="0 0 25 20" version="1.1" xmlns="http://www.w3.org/2000/svg" xmlns:xlink="http://www.w3.org/1999/xlink">
    <title>Twitter-color</title>
    <g id="Page-1" stroke="none" stroke-width="1" fill="none" fill-rule="evenodd" fill-opacity="0.4">
        <g id="DevSecOps-UI" transform="translate(-822.000000, -17845.000000)" fill="#444444">
            <path d="M847,17847.3676 C846.081411,17847.7692 845.092387,17848.0408 844.054939,17848.1622 C845.114398,17847.5381 845.927335,17846.5486 846.310325,17845.3698 C845.318366,17845.9476 844.222222,17846.368 843.051241,17846.5934 C842.117979,17845.6125 840.784117,17845 839.307918,17845 C836.477314,17845 834.180842,17847.2607 834.180842,17850.0488 C834.180842,17850.4446 834.224864,17850.8288 834.312907,17851.1986 C830.050126,17850.9877 826.271585,17848.9798 823.74033,17845.9216 C823.298644,17846.6699 823.046252,17847.5381 823.046252,17848.4626 C823.046252,17850.2134 823.951635,17851.7591 825.328051,17852.6649 C824.488701,17852.6403 823.696308,17852.4106 823.003698,17852.035 L823.003698,17852.0971 C823.003698,17854.5442 824.771908,17856.5854 827.119739,17857.0477 C826.689793,17857.1661 826.236368,17857.2254 825.768269,17857.2254 C825.438105,17857.2254 825.115279,17857.195 824.802723,17857.1358 C825.455714,17859.1408 827.348653,17860.6013 829.593767,17860.6403 C827.838763,17861.9953 825.625932,17862.8028 823.223807,17862.8028 C822.810002,17862.8028 822.400599,17862.7797 822,17862.7335 C824.270059,17864.1636 826.96713,17865 829.8623,17865 C839.297646,17865 844.455538,17857.3077 844.455538,17850.6352 C844.455538,17850.4157 844.451136,17850.1961 844.442331,17849.9809 C845.444562,17849.2687 846.314727,17848.3803 847,17847.3676" id="Twitter"></path>
        </g>
    </g>
</svg>