<?xml version="1.0" encoding="UTF-8"?>
<svg width="23px" height="16px" viewBox="0 0 23 16" version="1.1" xmlns="http://www.w3.org/2000/svg" xmlns:xlink="http://www.w3.org/1999/xlink">
    <title>Group 5</title>
    <g id="Page-1" stroke="none" stroke-width="1" fill="none" fill-rule="evenodd" stroke-linecap="round" stroke-linejoin="round">
        <g id="DevSecOps-UI" transform="translate(-1052.000000, -17755.000000)" stroke="#FFFFFF" stroke-width="3">
            <g id="Group-2-Copy-3" transform="translate(697.000000, 17730.000000)">
                <g id="Group-5" transform="translate(356.000000, 26.000000)">
                    <line x1="0.4996" y1="7.1269" x2="16.5526" y2="7.1269" id="Stroke-1"></line>
                    <polyline id="Stroke-3" points="13.3023 0.5 19.8023 7 13.3023 13.5"></polyline>
                </g>
            </g>
        </g>
    </g>
</svg>