<?xml version="1.0" encoding="UTF-8"?>
<svg width="354px" height="253px" viewBox="0 0 354 253" version="1.1" xmlns="http://www.w3.org/2000/svg" xmlns:xlink="http://www.w3.org/1999/xlink">
    <!-- Generator: Sketch 47.1 (45422) - http://www.bohemiancoding.com/sketch -->
    <title>webcast-badge</title>
    <desc>Created with Sketch.</desc>
    <defs>
        <rect id="path-1" x="7.92078262" y="7.21257964" width="149.741579" height="100.976115" rx="7.19999938"></rect>
        <filter x="-10.3%" y="-4.5%" width="120.6%" height="114.3%" filterUnits="objectBoundingBox" id="filter-2">
            <feOffset dx="0" dy="2" in="SourceAlpha" result="shadowOffsetOuter1"></feOffset>
            <feGaussianBlur stdDeviation="1.5" in="shadowOffsetOuter1" result="shadowBlurOuter1"></feGaussianBlur>
            <feColorMatrix values="0 0 0 0 0   0 0 0 0 0   0 0 0 0 0  0 0 0 0.5 0" type="matrix" in="shadowBlurOuter1" result="shadowMatrixOuter1"></feColorMatrix>
            <feMerge>
                <feMergeNode in="shadowMatrixOuter1"></feMergeNode>
                <feMergeNode in="SourceGraphic"></feMergeNode>
            </feMerge>
        </filter>
        <path d="M2.15999981,113.958758 L189.336442,113.958758 L189.336442,113.958758 C190.529377,113.958758 191.496442,114.925823 191.496442,116.118758 L191.496442,119.728822 L191.496442,119.728822 C191.496442,122.91554 188.913096,125.498886 185.726378,125.498886 L5.77006371,125.498886 L5.77006371,125.498886 C2.58334552,125.498886 3.90260423e-16,122.91554 0,119.728822 L0,116.118758 L0,116.118758 C-1.46092398e-16,114.925823 0.967064857,113.958758 2.15999981,113.958758 Z" id="path-3"></path>
        <filter x="-0.8%" y="-13.0%" width="101.6%" height="126.0%" filterUnits="objectBoundingBox" id="filter-4">
            <feOffset dx="0" dy="0" in="SourceAlpha" result="shadowOffsetOuter1"></feOffset>
            <feGaussianBlur stdDeviation="0.5" in="shadowOffsetOuter1" result="shadowBlurOuter1"></feGaussianBlur>
            <feColorMatrix values="0 0 0 0 0   0 0 0 0 0   0 0 0 0 0  0 0 0 0.5 0" type="matrix" in="shadowBlurOuter1"></feColorMatrix>
        </filter>
        <filter x="-10.0%" y="-6.3%" width="121.4%" height="119.9%" filterUnits="objectBoundingBox" id="filter-5">
            <feOffset dx="0" dy="2" in="SourceAlpha" result="shadowOffsetOuter1"></feOffset>
            <feGaussianBlur stdDeviation="1.5" in="shadowOffsetOuter1" result="shadowBlurOuter1"></feGaussianBlur>
            <feColorMatrix values="0 0 0 0 0   0 0 0 0 0   0 0 0 0 0  0 0 0 0.5 0" type="matrix" in="shadowBlurOuter1" result="shadowMatrixOuter1"></feColorMatrix>
            <feMerge>
                <feMergeNode in="shadowMatrixOuter1"></feMergeNode>
                <feMergeNode in="SourceGraphic"></feMergeNode>
            </feMerge>
        </filter>
        <filter x="-14.0%" y="-14.6%" width="128.1%" height="145.8%" filterUnits="objectBoundingBox" id="filter-6">
            <feOffset dx="0" dy="2" in="SourceAlpha" result="shadowOffsetOuter1"></feOffset>
            <feGaussianBlur stdDeviation="1.5" in="shadowOffsetOuter1" result="shadowBlurOuter1"></feGaussianBlur>
            <feColorMatrix values="0 0 0 0 0   0 0 0 0 0   0 0 0 0 0  0 0 0 0.5 0" type="matrix" in="shadowBlurOuter1" result="shadowMatrixOuter1"></feColorMatrix>
            <feMerge>
                <feMergeNode in="shadowMatrixOuter1"></feMergeNode>
                <feMergeNode in="SourceGraphic"></feMergeNode>
            </feMerge>
        </filter>
        <filter x="-9.0%" y="-6.6%" width="118.0%" height="120.8%" filterUnits="objectBoundingBox" id="filter-7">
            <feOffset dx="0" dy="2" in="SourceAlpha" result="shadowOffsetOuter1"></feOffset>
            <feGaussianBlur stdDeviation="1.5" in="shadowOffsetOuter1" result="shadowBlurOuter1"></feGaussianBlur>
            <feColorMatrix values="0 0 0 0 0   0 0 0 0 0   0 0 0 0 0  0 0 0 0.5 0" type="matrix" in="shadowBlurOuter1" result="shadowMatrixOuter1"></feColorMatrix>
            <feMerge>
                <feMergeNode in="shadowMatrixOuter1"></feMergeNode>
                <feMergeNode in="SourceGraphic"></feMergeNode>
            </feMerge>
        </filter>
        <ellipse id="path-8" cx="24.0569786" cy="24.101975" rx="23.7570774" ry="23.8015128"></ellipse>
        <filter x="-20.4%" y="-16.2%" width="140.8%" height="140.8%" filterUnits="objectBoundingBox" id="filter-9">
            <feMorphology radius="4.19999981" operator="dilate" in="SourceAlpha" result="shadowSpreadOuter1"></feMorphology>
            <feOffset dx="0" dy="2" in="shadowSpreadOuter1" result="shadowOffsetOuter1"></feOffset>
            <feGaussianBlur stdDeviation="1.5" in="shadowOffsetOuter1" result="shadowBlurOuter1"></feGaussianBlur>
            <feComposite in="shadowBlurOuter1" in2="SourceAlpha" operator="out" result="shadowBlurOuter1"></feComposite>
            <feColorMatrix values="0 0 0 0 0   0 0 0 0 0   0 0 0 0 0  0 0 0 0.5 0" type="matrix" in="shadowBlurOuter1"></feColorMatrix>
        </filter>
        <filter x="-9.0%" y="-6.6%" width="118.0%" height="120.8%" filterUnits="objectBoundingBox" id="filter-10">
            <feOffset dx="0" dy="2" in="SourceAlpha" result="shadowOffsetOuter1"></feOffset>
            <feGaussianBlur stdDeviation="1.5" in="shadowOffsetOuter1" result="shadowBlurOuter1"></feGaussianBlur>
            <feColorMatrix values="0 0 0 0 0   0 0 0 0 0   0 0 0 0 0  0 0 0 0.5 0" type="matrix" in="shadowBlurOuter1" result="shadowMatrixOuter1"></feColorMatrix>
            <feMerge>
                <feMergeNode in="shadowMatrixOuter1"></feMergeNode>
                <feMergeNode in="SourceGraphic"></feMergeNode>
            </feMerge>
        </filter>
    </defs>
    <g id="Desktop" stroke="none" stroke-width="1" fill="none" fill-rule="evenodd">
        <g id="gitlab-webcast-header-devops-dot-com-copy" transform="translate(-129.000000, -4.000000)">
            <g id="webcast-badge" transform="translate(124.000000, 4.000000)">
                <path d="M290.3672,136.5293 L191.9252,208.0183 L194.9442,204.1493 L280.9382,93.9503 L292.5742,129.6993 C293.3942,132.2283 292.5082,134.9733 290.3672,136.5293 L290.3672,136.5293 Z M62.5132,136.5303 C60.3712,134.9733 59.4842,132.2283 60.3042,129.7023 L71.9412,93.9453 L160.9512,208.0583 L62.5132,136.5303 Z M100.1252,7.0863 C100.4552,6.1083 101.2882,6.0003 101.6402,6.0003 L101.6492,6.0003 C101.9862,6.0023 102.8022,6.1083 103.1102,7.0563 L128.3452,84.6023 L74.9932,84.6023 L100.1252,7.0863 Z M216.3192,90.6023 L176.4642,213.2473 L136.6072,90.6023 L216.3192,90.6023 Z M249.7682,7.0563 C250.0772,6.1083 250.8922,6.0023 251.2282,6.0003 C251.5512,5.9673 252.4222,6.1003 252.7432,7.0543 L277.9312,84.6023 L224.5812,84.6023 L249.7682,7.0563 Z M184.5852,207.6703 L222.6142,90.6483 L275.8972,90.6483 L190.4912,200.1013 L184.5852,207.6703 Z M130.2812,90.6483 L168.3072,207.6603 L77.0372,90.6483 L130.2812,90.6483 Z M298.2802,127.8443 L285.0552,87.2133 C285.0162,86.9163 284.9352,86.6233 284.8052,86.3423 L258.4392,5.1703 C257.3792,2.0253 254.5562,0.0003 251.2402,0.0003 L251.1972,0.0003 C247.8862,0.0173 245.0862,2.0583 244.0622,5.2013 L218.2722,84.6023 L134.6532,84.6023 L108.8152,5.1993 C107.7922,2.0573 104.9922,0.0163 101.6802,0.0003 L101.6382,0.0003 C98.3232,0.0003 95.4992,2.0253 94.4292,5.2033 L68.0612,86.5303 C68.0422,86.5833 68.0162,86.6343 67.9992,86.6873 C67.9952,86.6993 67.9872,86.7093 67.9832,86.7203 L54.5972,127.8473 C52.9722,132.8543 54.7352,138.2953 58.9852,141.3833 L174.6462,225.4263 C175.1762,225.8113 175.7942,226.0003 176.4092,226.0003 C177.0382,226.0003 177.6612,225.7943 178.1842,225.4073 C178.1982,225.3973 178.2142,225.3903 178.2272,225.3813 C178.2282,225.3803 178.2292,225.3793 178.2302,225.3793 L293.8932,141.3833 C298.1432,138.2953 299.9062,132.8543 298.2802,127.8443 L298.2802,127.8443 Z" id="Fill-1" fill-opacity="0.149999991" fill="#A686FF"></path>
                <g id="text" transform="translate(50.000000, 236.000000)">
                    <g id="Group-4">
                        <rect id="Rectangle" fill-opacity="0.149999991" fill="#A686FF" x="8" y="9" width="26" height="2" rx="0.899999976"></rect>
                        <rect id="Rectangle-Copy-2" fill-opacity="0.149999991" fill="#A686FF" x="217" y="9" width="26" height="2" rx="0.899999976"></rect>
                        <circle id="Oval-5" stroke-opacity="0.149999991" stroke="#A686FF" stroke-width="2" stroke-linecap="round" stroke-linejoin="round" cx="4" cy="10" r="4"></circle>
                        <circle id="Oval-5-Copy" stroke-opacity="0.149999991" stroke="#A686FF" stroke-width="2" stroke-linecap="round" stroke-linejoin="round" cx="247" cy="10" r="4"></circle>
                        <text id="GITLAB-WEBCAST" font-family="Lato-Black, Lato" font-size="16" font-weight="700" letter-spacing="2" fill="#FA7035">
                            <tspan x="43.746" y="16">GITLAB WEBCAS</tspan>
                            <tspan x="197.17" y="16" letter-spacing="1.5">T</tspan>
                        </text>
                    </g>
                </g>
                <g id="illustration" transform="translate(0.000000, 36.000000)">
                    <g id="Group-9" transform="translate(79.757238, 0.000000)">
                        <g id="Group-3" transform="translate(-0.000000, 35.000000)">
                            <g id="Group-2" transform="translate(12.958406, 0.000000)">
                                <rect id="Rectangle-3" fill="#FFFFFF" x="0" y="0" width="165.57963" height="115.401274" rx="10.7999991"></rect>
                                <g id="Rectangle-3">
                                    <use fill="#27292E" fill-rule="evenodd" xlink:href="#path-1"></use>
                                    <rect stroke="#D7D7D7" stroke-width="2.5999999" x="6.62078267" y="5.91257968" width="152.341578" height="103.576115" rx="7.19999938"></rect>
                                </g>
                                <g id="Group-17" filter="url(#filter-2)" transform="translate(56.153092, 18.752707)">
                                    <path d="M20.8779626,23.8015128 L30.9556607,23.8015128 L30.9556607,23.8015128 C33.3415306,23.8015128 35.2756603,25.7356425 35.2756603,28.1215124 L35.2756603,42.5668001 L35.2756603,42.5668001 C35.2756603,46.54325 32.0521108,49.7667995 28.0756609,49.7667995 L23.7579624,49.7667995 L23.7579624,49.7667995 C19.7815125,49.7667995 16.557963,46.54325 16.557963,42.5668001 L16.557963,28.1215124 L16.557963,28.1215124 C16.557963,25.7356425 18.4920927,23.8015128 20.8779626,23.8015128 Z" id="Rectangle-12" fill="#FFFFFF"></path>
                                    <ellipse id="Oval-7" fill="#CFCFCF" cx="23.0371659" cy="26.6865447" rx="1" ry="1"></ellipse>
                                    <ellipse id="Oval-7-Copy" fill="#CFCFCF" cx="25.9168117" cy="26.6865447" rx="1" ry="1"></ellipse>
                                    <ellipse id="Oval-7-Copy-2" fill="#CFCFCF" cx="28.7964574" cy="26.6865447" rx="1" ry="1"></ellipse>
                                    <polygon id="Rectangle-10" fill="#664CAF" points="18.7176973 57.7006371 33.115926 57.7006371 32.3960146 62.7494428 19.4376087 62.7494428"></polygon>
                                    <rect id="Rectangle-13" fill="#8A68EC" x="23.7570774" y="67.0769906" width="4.31946861" height="10.0976115" rx="1.43999988"></rect>
                                    <rect id="Rectangle-14" fill="#664CAF" x="18.7176973" y="75.0108282" width="14.3982287" height="2.88503185" rx="1.43999988"></rect>
                                    <rect id="Rectangle-11-Copy" fill="#664CAF" x="20.8774316" y="64.1919588" width="10.0787601" height="5.04880575"></rect>
                                    <rect id="Rectangle-11" fill="#8A68EC" x="19.4376087" y="62.7494428" width="12.9584058" height="2.16377389"></rect>
                                    <rect id="Rectangle-5-Copy" fill="#8A68EC" x="16.557963" y="45.4392517" width="18.7176973" height="14.4251593" rx="1.43999988"></rect>
                                    <rect id="Rectangle-4" fill="#E7E6E8" x="23.7570774" y="49.7667995" width="4.31946861" height="7.21257964" rx="1.43999988"></rect>
                                    <rect id="Rectangle-5" fill="#E96729" x="14.3982287" y="41.1117039" width="23.0371659" height="5.77006371" rx="1.43999988"></rect>
                                    <path d="M26.6367231,0 C27.4319153,-1.4607444e-16 28.076546,0.644630657 28.076546,1.43982287 L28.076546,10.1003045 C28.076546,10.8954968 27.4319153,11.5401274 26.6367231,11.5401274 C25.8415309,11.5401274 25.1969002,10.8954968 25.1969002,10.1003045 L25.1969002,1.43982287 L25.1969002,1.43982287 C25.1969002,0.644630657 25.8415309,1.4607444e-16 26.6367231,0 Z M52.5091829,12.4581622 C53.0096136,13.0761426 52.9143207,13.9827939 52.2963403,14.4832246 L45.5658819,19.9334423 C44.9479015,20.433873 44.0412502,20.3385801 43.5408195,19.7205997 C43.0403889,19.1026192 43.1356817,18.1959679 43.7536622,17.6955372 L50.4841205,12.2453195 C51.1021009,11.7448888 52.0087523,11.8401817 52.5091829,12.4581622 Z M0.764263258,12.4581622 C1.26469393,11.8401817 2.17134526,11.7448888 2.78932568,12.2453195 L9.51978404,17.6955372 C10.1377645,18.1959679 10.2330573,19.1026192 9.73262667,19.7205997 C9.232196,20.3385801 8.32554467,20.433873 7.70756425,19.9334423 L0.977105895,14.4832246 L0.977105895,14.4832246 C0.359125477,13.9827939 0.263832583,13.0761426 0.764263258,12.4581622 Z" id="Rectangle-15" fill="#F5A232"></path>
                                </g>
                            </g>
                            <g id="Rectangle-2">
                                <use fill="black" fill-opacity="1" filter="url(#filter-4)" xlink:href="#path-3"></use>
                                <use fill="#DADADA" fill-rule="evenodd" xlink:href="#path-3"></use>
                            </g>
                        </g>
                        <g id="Group-6" filter="url(#filter-5)" transform="translate(169.117288, 34.439172) rotate(-345.000000) translate(-169.117288, -34.439172) translate(141.532656, 6.804843)">
                            <ellipse id="Oval" fill="#FAFAFA" cx="27.87959" cy="27.2614665" rx="27.1829876" ry="27.2338308"></ellipse>
                            <g id="gitlab-logo-copy" transform="translate(12.318138, 13.703901)">
                                <g id="Group-5">
                                    <polygon id="Fill-4" fill="#E24329" points="15.7539563 29.2750293 15.7539563 29.2750293 21.548024 11.2976171 9.95988852 11.2976171 15.7539563 29.2750293"></polygon>
                                    <polygon id="Fill-8" fill="#FC6D26" points="15.7539563 29.2749991 9.95988852 11.2975869 1.8396465 11.2975869"></polygon>
                                    <path d="M1.8396615,11.2976322 L1.8396615,11.2976322 L0.0789486718,16.7608027 C-0.0816477717,17.2590625 0.0942435711,17.8049412 0.514703354,18.1128766 L15.7539713,29.2750444 L1.8396615,11.2976322 L1.8396615,11.2976322 Z" id="Fill-12" fill="#FCA326"></path>
                                    <path d="M1.8396615,11.2976473 L9.95990352,11.2976473 L6.47011731,0.470021022 C6.29062717,-0.0871954605 5.5087879,-0.0870442894 5.32929776,0.470021022 L1.8396615,11.2976473 L1.8396615,11.2976473 Z" id="Fill-16" fill="#E24329"></path>
                                    <polygon id="Fill-18" fill="#FC6D26" points="15.7539563 29.2749991 21.548024 11.2975869 29.6682661 11.2975869"></polygon>
                                    <path d="M29.6682661,11.2976322 L29.6682661,11.2976322 L31.4289789,16.7608027 C31.5895753,17.2590625 31.413684,17.8049412 30.9932242,18.1128766 L15.7539563,29.2750444 L29.6682661,11.2976322 L29.6682661,11.2976322 Z" id="Fill-20" fill="#FCA326"></path>
                                    <path d="M29.6682661,11.2976473 L21.548024,11.2976473 L25.0378103,0.470021022 C25.2173004,-0.0871954605 25.9991397,-0.0870442894 26.1786298,0.470021022 L29.6682661,11.2976473 L29.6682661,11.2976473 Z" id="Fill-22" fill="#E24329"></path>
                                </g>
                            </g>
                        </g>
                    </g>
                    <g id="Group-8" filter="url(#filter-6)" transform="translate(0.198218, 32.931406)"></g>
                    <g id="Group-11" filter="url(#filter-7)" transform="translate(295.233853, 50.462687)">
                        <rect id="Rectangle-8" fill="#6B4FBB" x="0" y="0" width="60.766147" height="41.6517413" rx="4.79999971"></rect>
                        <g id="Group-10" transform="translate(14.098396, 17.516783)" fill="#FFFFFF" opacity="0.699999988">
                            <path d="M3.4918047,6.51350842 C1.72547753,6.51350842 0.293586442,5.07893911 0.293586442,3.30930818 C0.293586442,1.53967726 1.72547753,0.105107944 3.4918047,0.105107944 C5.25813188,0.105107944 6.69002297,1.53967726 6.69002297,3.30930818 C6.69002297,5.07893911 5.25813188,6.51350842 3.4918047,6.51350842 Z M16.2846778,6.51350842 C14.5183506,6.51350842 13.0864595,5.07893911 13.0864595,3.30930818 C13.0864595,1.53967726 14.5183506,0.105107944 16.2846778,0.105107944 C18.0510049,0.105107944 19.482896,1.53967726 19.482896,3.30930818 C19.482896,5.07893911 18.0510049,6.51350842 16.2846778,6.51350842 Z M29.0775508,6.51350842 C27.3112236,6.51350842 25.8793325,5.07893911 25.8793325,3.30930818 C25.8793325,1.53967726 27.3112236,0.105107944 29.0775508,0.105107944 C30.843878,0.105107944 32.2757691,1.53967726 32.2757691,3.30930818 C32.2757691,5.07893911 30.843878,6.51350842 29.0775508,6.51350842 Z" id="Combined-Shape"></path>
                        </g>
                        <path d="M19.1893096,39.1227824 L19.1893096,52.0646766 L0,52.0646766 L16.8264652,38.0173605 L16.8264652,38.0173605 C17.4369728,37.5076875 18.3450587,37.5894302 18.8547316,38.1999379 C19.0708994,38.4588727 19.1893096,38.7854758 19.1893096,39.1227824 Z" id="Triangle-2" fill="#6B4FBB" transform="translate(9.594655, 44.054726) scale(-1, -1) translate(-9.594655, -44.054726) "></path>
                    </g>
                    <g id="Group-18" transform="translate(87.715146, 114.070228) rotate(-20.000000) translate(-87.715146, -114.070228) translate(63.715146, 90.070228)">
                        <g id="Oval-6">
                            <use fill="black" fill-opacity="1" filter="url(#filter-9)" xlink:href="#path-8"></use>
                            <use fill="#FC6D26" fill-rule="evenodd" xlink:href="#path-8"></use>
                            <ellipse stroke="#FFFFFF" stroke-width="4.19999981" cx="24.0569786" cy="24.101975" rx="25.8570773" ry="25.9015127"></ellipse>
                        </g>
                        <path d="M31.2425553,26.305673 L21.2217474,31.9774736 L21.2217474,31.9774736 C20.1835718,32.5650834 18.8656123,32.1998277 18.2780025,31.1616521 C18.0943232,30.8371317 17.9977859,30.4705867 17.9977859,30.0976905 L17.9977859,18.7540892 L17.9977859,18.7540892 C17.9977859,17.5611542 18.9648507,16.5940894 20.1577857,16.5940894 C20.5306819,16.5940894 20.897227,16.6906267 21.2217474,16.874306 L31.2425553,22.5461066 L31.2425553,22.5461066 C32.2807308,23.1337164 32.6459866,24.4516759 32.0583768,25.4898515 C31.8654373,25.8307326 31.5834364,26.1127335 31.2425553,26.305673 Z" id="Triangle" fill="#FFFFFF"></path>
                    </g>
                    <g id="Group-7" filter="url(#filter-10)" transform="translate(8.000000, 21.626866)">
                        <rect id="Rectangle-8-Copy" fill="#6B4FBB" transform="translate(30.383073, 20.825871) scale(-1, 1) translate(-30.383073, -20.825871) " x="0" y="0" width="60.766147" height="41.6517413" rx="4.79999971"></rect>
                        <path d="M60.766147,39.1227824 L60.766147,52.0646766 L41.5768374,52.0646766 L58.4033026,38.0173605 L58.4033026,38.0173605 C59.0138103,37.5076875 59.9218961,37.5894302 60.431569,38.1999379 C60.6477368,38.4588727 60.766147,38.7854758 60.766147,39.1227824 Z" id="Triangle-2-Copy" fill="#6B4FBB" transform="translate(51.171492, 44.054726) scale(1, -1) translate(-51.171492, -44.054726) "></path>
                        <path d="M12.7937638,9.6119403 L38.3777284,9.6119403 C39.2613839,9.6119403 39.9777283,10.3282847 39.9777283,11.2119402 L39.9777283,11.2159205 L39.9777283,11.2159205 C39.9777283,12.099576 39.2613839,12.8159204 38.3777284,12.8159204 L12.7937638,12.8159204 C11.9101083,12.8159204 11.1937639,12.099576 11.1937639,11.2159205 L11.1937639,11.2119402 L11.1937639,11.2119402 C11.1937639,10.3282847 11.9101083,9.6119403 12.7937638,9.6119403 L12.7937638,9.6119403 Z M12.7937638,19.2238806 L47.9723832,19.2238806 C48.8560387,19.2238806 49.5723831,19.940225 49.5723831,20.8238805 L49.5723831,20.8278608 L49.5723831,20.8278608 C49.5723831,21.7115163 48.8560387,22.4278607 47.9723832,22.4278607 L12.7937638,22.4278607 L12.7937638,22.4278607 C11.9101083,22.4278607 11.1937639,21.7115163 11.1937639,20.8278608 L11.1937639,20.8238805 L11.1937639,20.8238805 C11.1937639,19.940225 11.9101083,19.2238806 12.7937638,19.2238806 L12.7937638,19.2238806 Z M12.7937638,28.8358209 L30.3821827,28.8358209 C31.2658383,28.8358209 31.9821826,29.5521653 31.9821826,30.4358208 L31.9821826,30.4398011 L31.9821826,30.4398011 C31.9821826,31.3234566 31.2658383,32.039801 30.3821827,32.039801 L12.7937638,32.039801 L12.7937638,32.039801 C11.9101083,32.039801 11.1937639,31.3234566 11.1937639,30.4398011 L11.1937639,30.4358208 L11.1937639,30.4358208 C11.1937639,29.5521653 11.9101083,28.8358209 12.7937638,28.8358209 L12.7937638,28.8358209 Z" id="Combined-Shape" fill="#FFFFFF" opacity="0.699999988"></path>
                    </g>
                </g>
            </g>
        </g>
    </g>
</svg>